%FSDAX44Y44*%
%MOMM*%
%SFA1B1*%

%IPPOS*%
%ADD16R,0.799998X0.899998*%
%ADD17R,0.899998X0.799998*%
%ADD18R,2.499995X3.299993*%
%ADD19R,1.799996X0.599999*%
%ADD20R,1.699997X2.199996*%
%ADD21R,2.199996X1.699997*%
%ADD22R,1.699997X0.999998*%
%ADD23R,1.999996X1.499997*%
%ADD24R,1.499997X1.999996*%
%ADD27R,0.999998X1.499997*%
%ADD28R,0.899998X1.799996*%
%ADD30R,1.399997X0.949998*%
%ADD31R,1.799996X0.899998*%
%ADD71R,1.399997X0.799998*%
%ADD73R,0.949998X1.399997*%
%ADD95R,3.174994X2.924994*%
%ADD96R,3.174994X2.874994*%
%ADD98R,3.124994X2.874994*%
%ADD99R,3.124994X2.924994*%
%ADD100R,2.799994X1.399997*%
%LNtop_paste-1*%
%LPD*%
G54D16*
X00115499Y00129499D03*
X00102499D03*
X00476499Y00148999D03*
X00457499D03*
X00466999Y00168999D03*
X00409499Y00092499D03*
X00399999Y00072499D03*
X00418999D03*
X00061999Y00201499D03*
X00074999D03*
X00075499Y00220999D03*
X00062499D03*
X00780999Y00022999D03*
X00767999D03*
X00456999Y00086999D03*
X00469999D03*
X00675999Y00106999D03*
X00688999D03*
X00579999Y00171499D03*
X00592999D03*
X00738999Y00093499D03*
X00725999D03*
X00721999Y00134499D03*
X00734999D03*
X00579999Y00151999D03*
X00592999D03*
G54D17*
X00739999Y00051499D03*
Y00032499D03*
X00719999Y00041999D03*
X00829999Y00051499D03*
Y00032499D03*
X00809999Y00041999D03*
X00765499Y00132499D03*
Y00145499D03*
X00205499Y00163999D03*
Y00176999D03*
X00132999Y00256749D03*
Y00269749D03*
X00173999Y00272999D03*
Y00285999D03*
X00785999Y00055999D03*
Y00042999D03*
X00764999D03*
Y00055999D03*
X00854499Y00048999D03*
Y00035999D03*
X00784499Y00162999D03*
Y00175999D03*
Y00132999D03*
Y00145999D03*
X00526499Y00090499D03*
Y00103499D03*
X00444999Y00053499D03*
Y00066499D03*
X00695499Y00139999D03*
Y00152999D03*
G54D18*
X00644999Y00149999D03*
G54D19*
X00617999Y00156349D03*
Y00143649D03*
Y00130949D03*
X00671999Y00169049D03*
Y00156349D03*
Y00143649D03*
Y00130949D03*
X00617999Y00169049D03*
X00117999Y00191549D03*
X00171999Y00153449D03*
Y00166149D03*
Y00178849D03*
Y00191549D03*
X00117999Y00153449D03*
Y00166149D03*
Y00178849D03*
G54D71*
X00421999Y00453199D03*
Y00427799D03*
X00478999D03*
Y00453199D03*
G54D20*
X00687499Y00249499D03*
Y00205499D03*
X00080999Y00381000D03*
Y00424999D03*
G54D21*
X00391499Y00227999D03*
X00347499D03*
G54D22*
X00808999Y00185999D03*
Y00152999D03*
X00556499Y00117249D03*
Y00150249D03*
X00153999Y00278499D03*
Y00245499D03*
X00301499Y00059999D03*
Y00026999D03*
X00104999Y00278499D03*
Y00245499D03*
X00248999Y00356499D03*
Y00323499D03*
G54D23*
X00785999Y00223499D03*
Y00253499D03*
X00631999Y00219999D03*
Y00249999D03*
X00333999Y00026499D03*
Y00056499D03*
X00041499Y00378999D03*
Y00408999D03*
X00310999Y00495999D03*
Y00465999D03*
X00538499Y00224499D03*
Y00254499D03*
G54D24*
X00198499Y00239499D03*
X00228499D03*
X00163999Y00474499D03*
X00133999D03*
G54D27*
X00494999Y00046999D03*
X00514999D03*
X00686999Y00086999D03*
Y00046999D03*
X00646999Y00086999D03*
Y00046999D03*
X00626999Y00086999D03*
Y00046999D03*
X00606999Y00086999D03*
Y00046999D03*
X00586999D03*
X00546999D03*
X00566999D03*
Y00086999D03*
X00546999D03*
X00586999D03*
X00666999Y00046999D03*
Y00086999D03*
G54D28*
X00184499Y00471999D03*
X00213499D03*
X00029999Y00342499D03*
X00058999D03*
X00580499Y00433999D03*
X00551499D03*
X00158499Y00052499D03*
X00129499D03*
X00030499Y00311999D03*
X00059499D03*
X00128499Y00214999D03*
X00157499D03*
X00078499Y00311999D03*
X00107499D03*
X00078499Y00342499D03*
X00107499D03*
X00309499Y00413999D03*
X00280499D03*
X00309499Y00438999D03*
X00280499D03*
G54D73*
X00199999Y00211499D03*
X00218499D03*
X00080749Y00175999D03*
X00062249D03*
X00208249Y00053999D03*
X00189749D03*
X00734249Y00153499D03*
X00715749D03*
X00720749Y00115499D03*
X00739249D03*
X00560749Y00177999D03*
X00542249D03*
X00621249Y00022999D03*
X00602749D03*
X00081249Y00146999D03*
X00062749D03*
X00254749Y00296999D03*
X00236249D03*
X00211249Y00268999D03*
X00192749D03*
G54D30*
X00519999Y00184749D03*
Y00166249D03*
X00530999Y00133749D03*
Y00152249D03*
X00071499Y00266249D03*
Y00247749D03*
X00254999Y00215749D03*
Y00197249D03*
X00583999Y00112749D03*
Y00131249D03*
X00376499Y00045749D03*
Y00064249D03*
X00759999Y00100749D03*
Y00082249D03*
G54D31*
X00355999Y00466499D03*
Y00495499D03*
Y00406499D03*
Y00435499D03*
X00097999Y00095499D03*
Y00066499D03*
G54D95*
X00135624Y00424874D03*
G54D96*
X00135624Y00385624D03*
G54D98*
X00173124Y00385624D03*
G54D99*
X00173124Y00424874D03*
G54D100*
X00228499Y00428499D03*
Y00382499D03*
G54D16*
X00115727Y00649513D03*
X00102727D03*
X00476727Y00669013D03*
X00457727D03*
X00467227Y00689013D03*
X00409727Y00612513D03*
X00400227Y00592513D03*
X00419227D03*
X00062227Y00721513D03*
X00075227D03*
X00075727Y00741013D03*
X00062727D03*
X00781227Y00543013D03*
X00768227D03*
X00457227Y00607013D03*
X00470227D03*
X00676227Y00627013D03*
X00689227D03*
X00580227Y00691513D03*
X00593227D03*
X00739227Y00613513D03*
X00726227D03*
X00722227Y00654513D03*
X00735227D03*
X00580227Y00672013D03*
X00593227D03*
G54D17*
X00740227Y00571513D03*
Y00552513D03*
X00720227Y00562013D03*
X00830227Y00571513D03*
Y00552513D03*
X00810227Y00562013D03*
X00765727Y00652513D03*
Y00665513D03*
X00205727Y00684013D03*
Y00697013D03*
X00133227Y00776763D03*
Y00789763D03*
X00174227Y00793013D03*
Y00806013D03*
X00786227Y00576013D03*
Y00563013D03*
X00765227D03*
Y00576013D03*
X00854727Y00569013D03*
Y00556013D03*
X00784727Y00683013D03*
Y00696013D03*
Y00653013D03*
Y00666013D03*
X00526727Y00610513D03*
Y00623513D03*
X00445227Y00573513D03*
Y00586513D03*
X00695727Y00660013D03*
Y00673013D03*
G54D18*
X00645227Y00670013D03*
G54D19*
X00618227Y00676363D03*
Y00663663D03*
Y00650963D03*
X00672227Y00689063D03*
Y00676363D03*
Y00663663D03*
Y00650963D03*
X00618227Y00689063D03*
X00118227Y00711563D03*
X00172227Y00673463D03*
Y00686163D03*
Y00698863D03*
Y00711563D03*
X00118227Y00673463D03*
Y00686163D03*
Y00698863D03*
G54D71*
X00422227Y00973213D03*
Y00947813D03*
X00479227D03*
Y00973213D03*
G54D20*
X00687727Y00769513D03*
Y00725513D03*
X00081227Y00901013D03*
Y00945013D03*
G54D21*
X00391727Y00748013D03*
X00347727D03*
G54D22*
X00809227Y00706013D03*
Y00673013D03*
X00556727Y00637263D03*
Y00670263D03*
X00154227Y00798513D03*
Y00765513D03*
X00301727Y00580013D03*
Y00547013D03*
X00105227Y00798513D03*
Y00765513D03*
X00249227Y00876513D03*
Y00843513D03*
G54D23*
X00786227Y00743513D03*
Y00773513D03*
X00632227Y00740013D03*
Y00770013D03*
X00334227Y00546513D03*
Y00576513D03*
X00041727Y00899013D03*
Y00929013D03*
X00311227Y01016013D03*
Y00986013D03*
X00538727Y00744513D03*
Y00774513D03*
G54D24*
X00198727Y00759513D03*
X00228727D03*
X00164227Y00994513D03*
X00134227D03*
G54D27*
X00495227Y00567013D03*
X00515227D03*
X00687227Y00607013D03*
Y00567013D03*
X00647227Y00607013D03*
Y00567013D03*
X00627227Y00607013D03*
Y00567013D03*
X00607227Y00607013D03*
Y00567013D03*
X00587227D03*
X00547227D03*
X00567227D03*
Y00607013D03*
X00547227D03*
X00587227D03*
X00667227Y00567013D03*
Y00607013D03*
G54D28*
X00184727Y00992013D03*
X00213727D03*
X00030227Y00862513D03*
X00059227D03*
X00580727Y00954013D03*
X00551727D03*
X00158727Y00572513D03*
X00129727D03*
X00030727Y00832013D03*
X00059727D03*
X00128727Y00735013D03*
X00157727D03*
X00078727Y00832013D03*
X00107727D03*
X00078727Y00862513D03*
X00107727D03*
X00309727Y00934013D03*
X00280727D03*
X00309727Y00959013D03*
X00280727D03*
G54D73*
X00200227Y00731513D03*
X00218727D03*
X00080977Y00696013D03*
X00062477D03*
X00208477Y00574013D03*
X00189977D03*
X00734477Y00673513D03*
X00715977D03*
X00720977Y00635513D03*
X00739477D03*
X00560977Y00698013D03*
X00542477D03*
X00621477Y00543013D03*
X00602977D03*
X00081477Y00667013D03*
X00062977D03*
X00254977Y00817013D03*
X00236477D03*
X00211477Y00789013D03*
X00192977D03*
G54D30*
X00520227Y00704763D03*
Y00686263D03*
X00531227Y00653763D03*
Y00672263D03*
X00071727Y00786263D03*
Y00767763D03*
X00255227Y00735763D03*
Y00717263D03*
X00584227Y00632763D03*
Y00651263D03*
X00376727Y00565763D03*
Y00584263D03*
X00760227Y00620763D03*
Y00602263D03*
G54D31*
X00356227Y00986513D03*
Y01015513D03*
Y00926513D03*
Y00955513D03*
X00098227Y00615513D03*
Y00586513D03*
G54D95*
X00135852Y00944888D03*
G54D96*
X00135852Y00905638D03*
G54D98*
X00173352Y00905638D03*
G54D99*
X00173352Y00944888D03*
G54D100*
X00228727Y00948513D03*
Y00902513D03*
G54D16*
X00115955Y01169526D03*
X00102955D03*
X00476955Y01189026D03*
X00457955D03*
X00467455Y01209026D03*
X00409955Y01132526D03*
X00400455Y01112526D03*
X00419455D03*
X00062455Y01241526D03*
X00075455D03*
X00075955Y01261026D03*
X00062955D03*
X00781455Y01063026D03*
X00768455D03*
X00457455Y01127026D03*
X00470455D03*
X00676455Y01147026D03*
X00689455D03*
X00580455Y01211526D03*
X00593455D03*
X00739455Y01133526D03*
X00726455D03*
X00722455Y01174526D03*
X00735455D03*
X00580455Y01192026D03*
X00593455D03*
G54D17*
X00740455Y01091526D03*
Y01072526D03*
X00720455Y01082026D03*
X00830455Y01091526D03*
Y01072526D03*
X00810455Y01082026D03*
X00765955Y01172526D03*
Y01185526D03*
X00205955Y01204026D03*
Y01217026D03*
X00133455Y01296776D03*
Y01309776D03*
X00174455Y01313026D03*
Y01326026D03*
X00786455Y01096026D03*
Y01083026D03*
X00765455D03*
Y01096026D03*
X00854955Y01089026D03*
Y01076026D03*
X00784955Y01203026D03*
Y01216026D03*
Y01173026D03*
Y01186026D03*
X00526955Y01130526D03*
Y01143526D03*
X00445455Y01093526D03*
Y01106526D03*
X00695955Y01180026D03*
Y01193026D03*
G54D18*
X00645455Y01190026D03*
G54D19*
X00618455Y01196376D03*
Y01183676D03*
Y01170976D03*
X00672455Y01209076D03*
Y01196376D03*
Y01183676D03*
Y01170976D03*
X00618455Y01209076D03*
X00118455Y01231576D03*
X00172455Y01193476D03*
Y01206176D03*
Y01218876D03*
Y01231576D03*
X00118455Y01193476D03*
Y01206176D03*
Y01218876D03*
G54D71*
X00422455Y01493226D03*
Y01467826D03*
X00479455D03*
Y01493226D03*
G54D20*
X00687955Y01289526D03*
Y01245526D03*
X00081455Y01421026D03*
Y01465026D03*
G54D21*
X00391955Y01268026D03*
X00347955D03*
G54D22*
X00809455Y01226026D03*
Y01193026D03*
X00556955Y01157276D03*
Y01190276D03*
X00154455Y01318526D03*
Y01285526D03*
X00301955Y01100026D03*
Y01067026D03*
X00105455Y01318526D03*
Y01285526D03*
X00249455Y01396526D03*
Y01363526D03*
G54D23*
X00786455Y01263526D03*
Y01293526D03*
X00632455Y01260026D03*
Y01290026D03*
X00334455Y01066526D03*
Y01096526D03*
X00041955Y01419026D03*
Y01449026D03*
X00311455Y01536026D03*
Y01506026D03*
X00538955Y01264526D03*
Y01294526D03*
G54D24*
X00198955Y01279526D03*
X00228955D03*
X00164455Y01514526D03*
X00134455D03*
G54D27*
X00495455Y01087026D03*
X00515455D03*
X00687455Y01127026D03*
Y01087026D03*
X00647455Y01127026D03*
Y01087026D03*
X00627455Y01127026D03*
Y01087026D03*
X00607455Y01127026D03*
Y01087026D03*
X00587455D03*
X00547455D03*
X00567455D03*
Y01127026D03*
X00547455D03*
X00587455D03*
X00667455Y01087026D03*
Y01127026D03*
G54D28*
X00184955Y01512026D03*
X00213955D03*
X00030455Y01382526D03*
X00059455D03*
X00580955Y01474026D03*
X00551955D03*
X00158955Y01092526D03*
X00129955D03*
X00030955Y01352026D03*
X00059955D03*
X00128955Y01255026D03*
X00157955D03*
X00078955Y01352026D03*
X00107955D03*
X00078955Y01382526D03*
X00107955D03*
X00309955Y01454026D03*
X00280955D03*
X00309955Y01479026D03*
X00280955D03*
G54D73*
X00200455Y01251526D03*
X00218955D03*
X00081205Y01216026D03*
X00062705D03*
X00208705Y01094026D03*
X00190205D03*
X00734705Y01193526D03*
X00716205D03*
X00721205Y01155526D03*
X00739705D03*
X00561205Y01218026D03*
X00542705D03*
X00621705Y01063026D03*
X00603205D03*
X00081705Y01187026D03*
X00063205D03*
X00255205Y01337026D03*
X00236705D03*
X00211705Y01309026D03*
X00193205D03*
G54D30*
X00520455Y01224776D03*
Y01206276D03*
X00531455Y01173776D03*
Y01192276D03*
X00071955Y01306276D03*
Y01287776D03*
X00255455Y01255776D03*
Y01237276D03*
X00584455Y01152776D03*
Y01171276D03*
X00376955Y01085776D03*
Y01104276D03*
X00760455Y01140776D03*
Y01122276D03*
G54D31*
X00356455Y01506526D03*
Y01535526D03*
Y01446526D03*
Y01475526D03*
X00098455Y01135526D03*
Y01106526D03*
G54D95*
X00136080Y01464901D03*
G54D96*
X00136080Y01425651D03*
G54D98*
X00173580Y01425651D03*
G54D99*
X00173580Y01464901D03*
G54D100*
X00228955Y01468526D03*
Y01422526D03*
G54D16*
X00116184Y01689537D03*
X00103184D03*
X00477184Y01709037D03*
X00458184D03*
X00467684Y01729037D03*
X00410184Y01652537D03*
X00400684Y01632537D03*
X00419684D03*
X00062684Y01761537D03*
X00075684D03*
X00076184Y01781037D03*
X00063184D03*
X00781684Y01583037D03*
X00768684D03*
X00457684Y01647037D03*
X00470684D03*
X00676684Y01667037D03*
X00689684D03*
X00580684Y01731537D03*
X00593684D03*
X00739684Y01653537D03*
X00726684D03*
X00722684Y01694537D03*
X00735684D03*
X00580684Y01712037D03*
X00593684D03*
G54D17*
X00740684Y01611537D03*
Y01592537D03*
X00720684Y01602037D03*
X00830684Y01611537D03*
Y01592537D03*
X00810684Y01602037D03*
X00766184Y01692537D03*
Y01705537D03*
X00206184Y01724037D03*
Y01737037D03*
X00133684Y01816787D03*
Y01829787D03*
X00174684Y01833037D03*
Y01846037D03*
X00786684Y01616037D03*
Y01603037D03*
X00765684D03*
Y01616037D03*
X00855184Y01609037D03*
Y01596037D03*
X00785184Y01723037D03*
Y01736037D03*
Y01693037D03*
Y01706037D03*
X00527184Y01650537D03*
Y01663537D03*
X00445684Y01613537D03*
Y01626537D03*
X00696184Y01700037D03*
Y01713037D03*
G54D18*
X00645684Y01710037D03*
G54D19*
X00618684Y01716387D03*
Y01703687D03*
Y01690987D03*
X00672684Y01729087D03*
Y01716387D03*
Y01703687D03*
Y01690987D03*
X00618684Y01729087D03*
X00118684Y01751587D03*
X00172684Y01713487D03*
Y01726187D03*
Y01738887D03*
Y01751587D03*
X00118684Y01713487D03*
Y01726187D03*
Y01738887D03*
G54D71*
X00422684Y02013237D03*
Y01987837D03*
X00479684D03*
Y02013237D03*
G54D20*
X00688184Y01809537D03*
Y01765537D03*
X00081684Y01941037D03*
Y01985037D03*
G54D21*
X00392184Y01788037D03*
X00348184D03*
G54D22*
X00809684Y01746037D03*
Y01713037D03*
X00557184Y01677287D03*
Y01710287D03*
X00154684Y01838537D03*
Y01805537D03*
X00302184Y01620037D03*
Y01587037D03*
X00105684Y01838537D03*
Y01805537D03*
X00249684Y01916537D03*
Y01883537D03*
G54D23*
X00786684Y01783537D03*
Y01813537D03*
X00632684Y01780037D03*
Y01810037D03*
X00334684Y01586537D03*
Y01616537D03*
X00042184Y01939037D03*
Y01969037D03*
X00311684Y02056037D03*
Y02026037D03*
X00539184Y01784537D03*
Y01814537D03*
G54D24*
X00199184Y01799537D03*
X00229184D03*
X00164684Y02034537D03*
X00134684D03*
G54D27*
X00495684Y01607037D03*
X00515684D03*
X00687684Y01647037D03*
Y01607037D03*
X00647684Y01647037D03*
Y01607037D03*
X00627684Y01647037D03*
Y01607037D03*
X00607684Y01647037D03*
Y01607037D03*
X00587684D03*
X00547684D03*
X00567684D03*
Y01647037D03*
X00547684D03*
X00587684D03*
X00667684Y01607037D03*
Y01647037D03*
G54D28*
X00185184Y02032037D03*
X00214184D03*
X00030684Y01902537D03*
X00059684D03*
X00581184Y01994037D03*
X00552184D03*
X00159184Y01612537D03*
X00130184D03*
X00031184Y01872037D03*
X00060184D03*
X00129184Y01775037D03*
X00158184D03*
X00079184Y01872037D03*
X00108184D03*
X00079184Y01902537D03*
X00108184D03*
X00310184Y01974037D03*
X00281184D03*
X00310184Y01999037D03*
X00281184D03*
G54D73*
X00200684Y01771537D03*
X00219184D03*
X00081434Y01736037D03*
X00062934D03*
X00208934Y01614037D03*
X00190434D03*
X00734934Y01713537D03*
X00716434D03*
X00721434Y01675537D03*
X00739934D03*
X00561434Y01738037D03*
X00542934D03*
X00621934Y01583037D03*
X00603434D03*
X00081934Y01707037D03*
X00063434D03*
X00255434Y01857037D03*
X00236934D03*
X00211934Y01829037D03*
X00193434D03*
G54D30*
X00520684Y01744787D03*
Y01726287D03*
X00531684Y01693787D03*
Y01712287D03*
X00072184Y01826287D03*
Y01807787D03*
X00255684Y01775787D03*
Y01757287D03*
X00584684Y01672787D03*
Y01691287D03*
X00377184Y01605787D03*
Y01624287D03*
X00760684Y01660787D03*
Y01642287D03*
G54D31*
X00356684Y02026537D03*
Y02055537D03*
Y01966537D03*
Y01995537D03*
X00098684Y01655537D03*
Y01626537D03*
G54D95*
X00136309Y01984912D03*
G54D96*
X00136309Y01945662D03*
G54D98*
X00173809Y01945662D03*
G54D99*
X00173809Y01984912D03*
G54D100*
X00229184Y01988537D03*
Y01942537D03*
G54D16*
X00116401Y02209556D03*
X00103401D03*
X00477401Y02229056D03*
X00458401D03*
X00467901Y02249056D03*
X00410401Y02172556D03*
X00400901Y02152556D03*
X00419901D03*
X00062901Y02281556D03*
X00075901D03*
X00076401Y02301056D03*
X00063400D03*
X00781901Y02103056D03*
X00768901D03*
X00457901Y02167056D03*
X00470901D03*
X00676901Y02187056D03*
X00689901D03*
X00580901Y02251556D03*
X00593901D03*
X00739900Y02173556D03*
X00726901D03*
X00722901Y02214556D03*
X00735900D03*
X00580901Y02232056D03*
X00593901D03*
G54D17*
X00740900Y02131556D03*
Y02112556D03*
X00720901Y02122056D03*
X00830901Y02131556D03*
Y02112556D03*
X00810901Y02122056D03*
X00766401Y02212556D03*
Y02225556D03*
X00206401Y02244056D03*
Y02257056D03*
X00133901Y02336806D03*
Y02349806D03*
X00174901Y02353056D03*
Y02366056D03*
X00786901Y02136056D03*
Y02123056D03*
X00765901D03*
Y02136056D03*
X00855401Y02129056D03*
Y02116056D03*
X00785401Y02243056D03*
Y02256056D03*
Y02213056D03*
Y02226056D03*
X00527401Y02170556D03*
Y02183556D03*
X00445901Y02133556D03*
Y02146556D03*
X00696400Y02220056D03*
Y02233056D03*
G54D18*
X00645901Y02230056D03*
G54D19*
X00618900Y02236406D03*
Y02223706D03*
Y02211006D03*
X00672901Y02249106D03*
Y02236406D03*
Y02223706D03*
Y02211006D03*
X00618900Y02249106D03*
X00118900Y02271606D03*
X00172901Y02233506D03*
Y02246206D03*
Y02258906D03*
Y02271606D03*
X00118900Y02233506D03*
Y02246206D03*
Y02258906D03*
G54D71*
X00422901Y02533256D03*
Y02507856D03*
X00479900D03*
Y02533256D03*
G54D20*
X00688400Y02329556D03*
Y02285556D03*
X00081901Y02461056D03*
Y02505056D03*
G54D21*
X00392401Y02308056D03*
X00348401D03*
G54D22*
X00809901Y02266056D03*
Y02233056D03*
X00557400Y02197306D03*
Y02230306D03*
X00154901Y02358556D03*
Y02325556D03*
X00302400Y02140056D03*
Y02107056D03*
X00105900Y02358556D03*
Y02325556D03*
X00249900Y02436556D03*
Y02403556D03*
G54D23*
X00786901Y02303556D03*
Y02333556D03*
X00632900Y02300056D03*
Y02330056D03*
X00334901Y02106556D03*
Y02136556D03*
X00042400Y02459056D03*
Y02489056D03*
X00311901Y02576056D03*
Y02546056D03*
X00539401Y02304556D03*
Y02334556D03*
G54D24*
X00199401Y02319556D03*
X00229401D03*
X00164901Y02554556D03*
X00134901D03*
G54D27*
X00495900Y02127056D03*
X00515901D03*
X00687901Y02167056D03*
Y02127056D03*
X00647901Y02167056D03*
Y02127056D03*
X00627900Y02167056D03*
Y02127056D03*
X00607900Y02167056D03*
Y02127056D03*
X00587901D03*
X00547901D03*
X00567901D03*
Y02167056D03*
X00547901D03*
X00587901D03*
X00667901Y02127056D03*
Y02167056D03*
G54D28*
X00185400Y02552056D03*
X00214401D03*
X00030901Y02422556D03*
X00059901D03*
X00581401Y02514056D03*
X00552400D03*
X00159401Y02132556D03*
X00130401D03*
X00031401Y02392056D03*
X00060400D03*
X00129401Y02295056D03*
X00158401D03*
X00079401Y02392056D03*
X00108401D03*
X00079401Y02422556D03*
X00108401D03*
X00310400Y02494056D03*
X00281401D03*
X00310400Y02519056D03*
X00281401D03*
G54D73*
X00200901Y02291556D03*
X00219401D03*
X00081651Y02256056D03*
X00063151D03*
X00209150Y02134056D03*
X00190651D03*
X00735151Y02233556D03*
X00716651D03*
X00721651Y02195556D03*
X00740151D03*
X00561651Y02258056D03*
X00543151D03*
X00622151Y02103056D03*
X00603651D03*
X00082150Y02227056D03*
X00063651D03*
X00255651Y02377056D03*
X00237151D03*
X00212150Y02349056D03*
X00193651D03*
G54D30*
X00520901Y02264806D03*
Y02246306D03*
X00531901Y02213806D03*
Y02232306D03*
X00072401Y02346306D03*
Y02327806D03*
X00255901Y02295806D03*
Y02277306D03*
X00584901Y02192806D03*
Y02211306D03*
X00377401Y02125806D03*
Y02144306D03*
X00760900Y02180806D03*
Y02162306D03*
G54D31*
X00356900Y02546556D03*
Y02575556D03*
Y02486556D03*
Y02515556D03*
X00098900Y02175556D03*
Y02146556D03*
G54D95*
X00136526Y02504931D03*
G54D96*
X00136526Y02465681D03*
G54D98*
X00174026Y02465681D03*
G54D99*
X00174026Y02504931D03*
G54D100*
X00229401Y02508556D03*
Y02462556D03*
G54D16*
X00116637Y02729553D03*
X00103637D03*
X00477637Y02749053D03*
X00458637D03*
X00468137Y02769053D03*
X00410637Y02692553D03*
X00401137Y02672553D03*
X00420137D03*
X00063137Y02801553D03*
X00076137D03*
X00076637Y02821053D03*
X00063637D03*
X00782137Y02623053D03*
X00769137D03*
X00458137Y02687053D03*
X00471137D03*
X00677137Y02707053D03*
X00690137D03*
X00581137Y02771553D03*
X00594137D03*
X00740137Y02693553D03*
X00727137D03*
X00723137Y02734553D03*
X00736137D03*
X00581137Y02752053D03*
X00594137D03*
G54D17*
X00741137Y02651553D03*
Y02632553D03*
X00721137Y02642053D03*
X00831137Y02651553D03*
Y02632553D03*
X00811137Y02642053D03*
X00766637Y02732553D03*
Y02745553D03*
X00206637Y02764053D03*
Y02777053D03*
X00134137Y02856803D03*
Y02869803D03*
X00175137Y02873053D03*
Y02886053D03*
X00787137Y02656053D03*
Y02643053D03*
X00766137D03*
Y02656053D03*
X00855637Y02649053D03*
Y02636053D03*
X00785637Y02763053D03*
Y02776053D03*
Y02733053D03*
Y02746053D03*
X00527637Y02690553D03*
Y02703553D03*
X00446137Y02653553D03*
Y02666553D03*
X00696637Y02740053D03*
Y02753053D03*
G54D18*
X00646137Y02750053D03*
G54D19*
X00619137Y02756403D03*
Y02743703D03*
Y02731003D03*
X00673137Y02769103D03*
Y02756403D03*
Y02743703D03*
Y02731003D03*
X00619137Y02769103D03*
X00119137Y02791603D03*
X00173137Y02753503D03*
Y02766203D03*
Y02778903D03*
Y02791603D03*
X00119137Y02753503D03*
Y02766203D03*
Y02778903D03*
G54D71*
X00423137Y03053253D03*
Y03027853D03*
X00480137D03*
Y03053253D03*
G54D20*
X00688637Y02849553D03*
Y02805553D03*
X00082137Y02981053D03*
Y03025053D03*
G54D21*
X00392637Y02828053D03*
X00348637D03*
G54D22*
X00810137Y02786053D03*
Y02753053D03*
X00557637Y02717303D03*
Y02750303D03*
X00155137Y02878553D03*
Y02845553D03*
X00302637Y02660053D03*
Y02627053D03*
X00106137Y02878553D03*
Y02845553D03*
X00250137Y02956553D03*
Y02923553D03*
G54D23*
X00787137Y02823553D03*
Y02853553D03*
X00633137Y02820053D03*
Y02850053D03*
X00335137Y02626553D03*
Y02656553D03*
X00042637Y02979053D03*
Y03009053D03*
X00312137Y03096053D03*
Y03066053D03*
X00539637Y02824553D03*
Y02854553D03*
G54D24*
X00199637Y02839553D03*
X00229637D03*
X00165137Y03074553D03*
X00135137D03*
G54D27*
X00496137Y02647053D03*
X00516137D03*
X00688137Y02687053D03*
Y02647053D03*
X00648137Y02687053D03*
Y02647053D03*
X00628137Y02687053D03*
Y02647053D03*
X00608137Y02687053D03*
Y02647053D03*
X00588137D03*
X00548137D03*
X00568137D03*
Y02687053D03*
X00548137D03*
X00588137D03*
X00668137Y02647053D03*
Y02687053D03*
G54D28*
X00185637Y03072053D03*
X00214637D03*
X00031137Y02942553D03*
X00060137D03*
X00581637Y03034053D03*
X00552637D03*
X00159637Y02652553D03*
X00130637D03*
X00031637Y02912053D03*
X00060637D03*
X00129637Y02815053D03*
X00158637D03*
X00079637Y02912053D03*
X00108637D03*
X00079637Y02942553D03*
X00108637D03*
X00310637Y03014053D03*
X00281637D03*
X00310637Y03039053D03*
X00281637D03*
G54D73*
X00201137Y02811553D03*
X00219637D03*
X00081887Y02776053D03*
X00063387D03*
X00209387Y02654053D03*
X00190887D03*
X00735387Y02753553D03*
X00716887D03*
X00721887Y02715553D03*
X00740387D03*
X00561887Y02778053D03*
X00543387D03*
X00622387Y02623053D03*
X00603887D03*
X00082387Y02747053D03*
X00063887D03*
X00255887Y02897053D03*
X00237387D03*
X00212387Y02869053D03*
X00193887D03*
G54D30*
X00521137Y02784803D03*
Y02766303D03*
X00532137Y02733803D03*
Y02752303D03*
X00072637Y02866303D03*
Y02847803D03*
X00256137Y02815803D03*
Y02797303D03*
X00585137Y02712803D03*
Y02731303D03*
X00377637Y02645803D03*
Y02664303D03*
X00761137Y02700803D03*
Y02682303D03*
G54D31*
X00357137Y03066553D03*
Y03095553D03*
Y03006553D03*
Y03035553D03*
X00099137Y02695553D03*
Y02666553D03*
G54D95*
X00136762Y03024928D03*
G54D96*
X00136762Y02985678D03*
G54D98*
X00174262Y02985678D03*
G54D99*
X00174262Y03024928D03*
G54D100*
X00229637Y03028553D03*
Y02982553D03*
M02*