G04 CAM350 V9.5 (Build 208) Date:  Wed Oct 13 20:48:53 2021 *
G04 Database: d:\baza\svetovie_tehn\13-10-21\bi1x20w 3.3f.cam *
G04 Layer 4: Maskbot *
%FSLAX44Y44*%
%MOMM*%
%SFA1.000B1.000*%

%MIA0B0*%
%IPPOS*%
%ADD81C,2.70320*%
%ADD82C,2.20320*%
%ADD83C,3.20320*%
%ADD84R,3.20320X3.20320*%
%ADD85R,2.70320X2.00320*%
%ADD86O,2.70320X2.00320*%
%ADD87C,3.70320*%
%ADD88C,2.40320*%
%ADD89O,1.70320X2.20320*%
%ADD90O,2.20320X1.70320*%
%ADD91O,3.20320X3.70320*%
%ADD92C,1.70320*%
%ADD93R,1.70320X1.70320*%
%LNMaskbot*%
%LPD*%
G54D81*
X984763Y416079D03*
X985237Y337921D03*
X592000Y345000D03*
Y495000D03*
X356500Y469000D03*
X206500D03*
X987266Y148266D03*
X934233Y95233D03*
X843000Y254500D03*
Y192000D03*
X762500Y345000D03*
Y495000D03*
G54D82*
X702001Y395000D03*
Y320000D03*
X517001Y265000D03*
Y190000D03*
X517000Y367000D03*
Y292000D03*
X701000Y215000D03*
Y265000D03*
X596000Y215500D03*
Y265500D03*
X964500Y192500D03*
Y227500D03*
X648000Y395000D03*
Y320000D03*
G54D83*
X462000Y100500D03*
X412000D03*
X312000D03*
X262000D03*
X462000Y325500D03*
X312000D03*
G54D84*
X262000D03*
G54D85*
X926000Y485000D03*
G54D86*
Y355000D03*
X826000Y485000D03*
Y355000D03*
G54D87*
X140000Y30000D03*
Y490000D03*
X1120000Y30000D03*
Y490000D03*
G54D88*
X704000Y470000D03*
X654000D03*
G54D89*
X405000Y378500D03*
X430000D03*
G54D90*
X522000Y126500D03*
Y151500D03*
G54D91*
X1045000Y424000D03*
X1095000Y354000D03*
X1045000Y284000D03*
X1095000Y424000D03*
X1045000Y354000D03*
X1095000Y284000D03*
X1044000Y88500D03*
X1094000Y123500D03*
X1044000Y176500D03*
X1094000Y211500D03*
G54D92*
X609500Y119500D03*
X583500D03*
G54D93*
X557500D03*
G54D81*
X984763Y936079D03*
Y1456079D03*
Y1976079D03*
Y2496079D03*
Y3016079D03*
X985237Y857921D03*
Y1377921D03*
Y1897921D03*
Y2417921D03*
Y2937921D03*
X592000Y865000D03*
Y1385000D03*
Y1905000D03*
Y2425000D03*
Y2945000D03*
Y1015000D03*
Y1535000D03*
Y2055000D03*
Y2575000D03*
Y3095000D03*
X356500Y989000D03*
Y1509000D03*
Y2029000D03*
Y2549000D03*
Y3069000D03*
X206500Y989000D03*
Y1509000D03*
Y2029000D03*
Y2549000D03*
Y3069000D03*
X987266Y668266D03*
Y1188266D03*
Y1708266D03*
Y2228266D03*
Y2748266D03*
X934233Y615233D03*
Y1135233D03*
Y1655233D03*
Y2175233D03*
Y2695233D03*
X843000Y774500D03*
Y1294500D03*
Y1814500D03*
Y2334500D03*
Y2854500D03*
Y712000D03*
Y1232000D03*
Y1752000D03*
Y2272000D03*
Y2792000D03*
X762500Y865000D03*
Y1385000D03*
Y1905000D03*
Y2425000D03*
Y2945000D03*
Y1015000D03*
Y1535000D03*
Y2055000D03*
Y2575000D03*
Y3095000D03*
G54D82*
X702001Y915000D03*
Y1435000D03*
Y1955000D03*
Y2475000D03*
Y2995000D03*
Y840000D03*
Y1360000D03*
Y1880000D03*
Y2400000D03*
Y2920000D03*
X517001Y785000D03*
Y1305000D03*
Y1825000D03*
Y2345000D03*
Y2865000D03*
Y710000D03*
Y1230000D03*
Y1750000D03*
Y2270000D03*
Y2790000D03*
X517000Y887000D03*
Y1407000D03*
Y1927000D03*
Y2447000D03*
Y2967000D03*
Y812000D03*
Y1332000D03*
Y1852000D03*
Y2372000D03*
Y2892000D03*
X701000Y735000D03*
Y1255000D03*
Y1775000D03*
Y2295000D03*
Y2815000D03*
Y785000D03*
Y1305000D03*
Y1825000D03*
Y2345000D03*
Y2865000D03*
X596000Y735500D03*
Y1255500D03*
Y1775500D03*
Y2295500D03*
Y2815500D03*
Y785500D03*
Y1305500D03*
Y1825500D03*
Y2345500D03*
Y2865500D03*
X964500Y712500D03*
Y1232500D03*
Y1752500D03*
Y2272500D03*
Y2792500D03*
Y747500D03*
Y1267500D03*
Y1787500D03*
Y2307500D03*
Y2827500D03*
X648000Y915000D03*
Y1435000D03*
Y1955000D03*
Y2475000D03*
Y2995000D03*
Y840000D03*
Y1360000D03*
Y1880000D03*
Y2400000D03*
Y2920000D03*
G54D83*
X462000Y620500D03*
Y1140500D03*
Y1660500D03*
Y2180500D03*
Y2700500D03*
X412000Y620500D03*
Y1140500D03*
Y1660500D03*
Y2180500D03*
Y2700500D03*
X312000Y620500D03*
Y1140500D03*
Y1660500D03*
Y2180500D03*
Y2700500D03*
X262000Y620500D03*
Y1140500D03*
Y1660500D03*
Y2180500D03*
Y2700500D03*
X462000Y845500D03*
Y1365500D03*
Y1885500D03*
Y2405500D03*
Y2925500D03*
X312000Y845500D03*
Y1365500D03*
Y1885500D03*
Y2405500D03*
Y2925500D03*
G54D84*
X262000Y845500D03*
Y1365500D03*
Y1885500D03*
Y2405500D03*
Y2925500D03*
G54D85*
X926000Y1005000D03*
Y1525000D03*
Y2045000D03*
Y2565000D03*
Y3085000D03*
G54D86*
Y875000D03*
Y1395000D03*
Y1915000D03*
Y2435000D03*
Y2955000D03*
X826000Y1005000D03*
Y1525000D03*
Y2045000D03*
Y2565000D03*
Y3085000D03*
Y875000D03*
Y1395000D03*
Y1915000D03*
Y2435000D03*
Y2955000D03*
G54D87*
X140000Y550000D03*
Y1070000D03*
Y1590000D03*
Y2110000D03*
Y2630000D03*
Y1010000D03*
Y1530000D03*
Y2050000D03*
Y2570000D03*
Y3090000D03*
X1120000Y550000D03*
Y1070000D03*
Y1590000D03*
Y2110000D03*
Y2630000D03*
Y1010000D03*
Y1530000D03*
Y2050000D03*
Y2570000D03*
Y3090000D03*
G54D88*
X704000Y990000D03*
Y1510000D03*
Y2030000D03*
Y2550000D03*
Y3070000D03*
X654000Y990000D03*
Y1510000D03*
Y2030000D03*
Y2550000D03*
Y3070000D03*
G54D89*
X405000Y898500D03*
Y1418500D03*
Y1938500D03*
Y2458500D03*
Y2978500D03*
X430000Y898500D03*
Y1418500D03*
Y1938500D03*
Y2458500D03*
Y2978500D03*
G54D90*
X522000Y646500D03*
Y1166500D03*
Y1686500D03*
Y2206500D03*
Y2726500D03*
Y671500D03*
Y1191500D03*
Y1711500D03*
Y2231500D03*
Y2751500D03*
G54D91*
X1045000Y944000D03*
Y1464000D03*
Y1984000D03*
Y2504000D03*
Y3024000D03*
X1095000Y874000D03*
Y1394000D03*
Y1914000D03*
Y2434000D03*
Y2954000D03*
X1045000Y804000D03*
Y1324000D03*
Y1844000D03*
Y2364000D03*
Y2884000D03*
X1095000Y944000D03*
Y1464000D03*
Y1984000D03*
Y2504000D03*
Y3024000D03*
X1045000Y874000D03*
Y1394000D03*
Y1914000D03*
Y2434000D03*
Y2954000D03*
X1095000Y804000D03*
Y1324000D03*
Y1844000D03*
Y2364000D03*
Y2884000D03*
X1044000Y608500D03*
Y1128500D03*
Y1648500D03*
Y2168500D03*
Y2688500D03*
X1094000Y643500D03*
Y1163500D03*
Y1683500D03*
Y2203500D03*
Y2723500D03*
X1044000Y696500D03*
Y1216500D03*
Y1736500D03*
Y2256500D03*
Y2776500D03*
X1094000Y731500D03*
Y1251500D03*
Y1771500D03*
Y2291500D03*
Y2811500D03*
G54D92*
X609500Y639500D03*
Y1159500D03*
Y1679500D03*
Y2199500D03*
Y2719500D03*
X583500Y639500D03*
Y1159500D03*
Y1679500D03*
Y2199500D03*
Y2719500D03*
G54D93*
X557500Y639500D03*
Y1159500D03*
Y1679500D03*
Y2199500D03*
Y2719500D03*
M02*
