G04 CAM350 V9.5 (Build 208) Date:  Wed Oct 13 20:48:53 2021 *
G04 Database: d:\baza\svetovie_tehn\13-10-21\bi1x20w 3.3f.cam *
G04 Layer 8: ScribeRez *
%FSLAX44Y44*%
%MOMM*%
%SFA1.000B1.000*%

%MIA0B0*%
%IPPOS*%
%ADD11C,0.25400*%
%ADD95C,0.30000*%
%LNScribeRez*%
%LPD*%
G54D95*
X1150000Y0D02*
G01Y520000D01*
Y520000D02*
G01X110000D01*
Y520000D02*
G01Y0D01*
Y520000D02*
G01X1150000D01*
X110000Y1040000D02*
G01X1150000D01*
X110000Y1560000D02*
G01X1150000D01*
X110000Y2080000D02*
G01X1150000D01*
X110000Y2600000D02*
G01X1150000D01*
Y520000D02*
G01Y1040000D01*
Y1040000D02*
G01Y1560000D01*
Y1560000D02*
G01Y2080000D01*
Y2080000D02*
G01Y2600000D01*
Y2600000D02*
G01Y3120000D01*
Y1040000D02*
G01X110000D01*
X1150000Y1560000D02*
G01X110000D01*
X1150000Y2080000D02*
G01X110000D01*
X1150000Y2600000D02*
G01X110000D01*
Y1040000D02*
G01Y520000D01*
Y1560000D02*
G01Y1040000D01*
Y2080000D02*
G01Y1560000D01*
Y2600000D02*
G01Y2080000D01*
Y3120000D02*
G01Y2600000D01*
G54D11*
Y2599999D02*
G01X0D01*
X110000Y2079999D02*
G01X0D01*
X110000Y1559999D02*
G01X0D01*
X110000Y1039999D02*
G01X0D01*
X110000Y519999D02*
G01X0D01*
X1149999D02*
G01X1259999D01*
X1149999Y1039999D02*
G01X1259999D01*
X1149999Y1559999D02*
G01X1259999D01*
X1149999Y2079999D02*
G01X1259999D01*
X1149999Y2599999D02*
G01X1259999D01*
M02*
