G04 CAM350 V9.5 (Build 208) Date:  Mon Oct 18 11:20:46 2021 *
G04 Database: C:\_Temp\BI1x20W_3.3F_traf_tr.pcb *
G04 Layer 3: TopPaste *
%FSLAX44Y44*%
%MOMM*%
%SFA1.000B1.000*%

%MIA0B0*%
%IPPOS*%
%AMD105*
4,1,4,-0.44958,0.39878,-0.44958,-0.39878,0.44958,-0.39878,0.44958,0.39878,-0.44958,0.39878,0.00000*
%
%AMD106*
4,1,4,-0.39878,0.44958,-0.39878,-0.44958,0.39878,-0.44958,0.39878,0.44958,-0.39878,0.44958,0.00000*
%
%AMD107*
4,1,4,-1.64846,1.24968,-1.64846,-1.24968,1.64846,-1.24968,1.64846,1.24968,-1.64846,1.24968,0.00000*
%
%AMD108*
4,1,4,-0.29972,0.89916,-0.29972,-0.89916,0.29972,-0.89916,0.29972,0.89916,-0.29972,0.89916,0.00000*
%
%AMD109*
4,1,4,-0.39878,0.69850,-0.39878,-0.69850,0.39878,-0.69850,0.39878,0.69850,-0.39878,0.69850,0.00000*
%
%AMD110*
4,1,4,-1.09982,0.84836,-1.09982,-0.84836,1.09982,-0.84836,1.09982,0.84836,-1.09982,0.84836,0.00000*
%
%AMD111*
4,1,4,-0.84836,1.09982,-0.84836,-1.09982,0.84836,-1.09982,0.84836,1.09982,-0.84836,1.09982,0.00000*
%
%AMD112*
4,1,4,-0.49784,0.84836,-0.49784,-0.84836,0.49784,-0.84836,0.49784,0.84836,-0.49784,0.84836,0.00000*
%
%AMD113*
4,1,4,-0.74930,0.99822,-0.74930,-0.99822,0.74930,-0.99822,0.74930,0.99822,-0.74930,0.99822,0.00000*
%
%AMD114*
4,1,4,-0.99822,0.74930,-0.99822,-0.74930,0.99822,-0.74930,0.99822,0.74930,-0.99822,0.74930,0.00000*
%
%AMD116*
4,1,4,-0.89916,0.44958,-0.89916,-0.44958,0.89916,-0.44958,0.89916,0.44958,-0.89916,0.44958,0.00000*
%
%AMD117*
4,1,4,-0.69850,0.47498,-0.69850,-0.47498,0.69850,-0.47498,0.69850,0.47498,-0.69850,0.47498,0.00000*
%
%AMD118*
4,1,4,-0.47498,0.69850,-0.47498,-0.69850,0.47498,-0.69850,0.47498,0.69850,-0.47498,0.69850,0.00000*
%
%AMD119*
4,1,4,-0.44958,0.89916,-0.44958,-0.89916,0.44958,-0.89916,0.44958,0.89916,-0.44958,0.89916,0.00000*
%
%AMD120*
4,1,4,-1.46050,1.58750,-1.46050,-1.58750,1.46050,-1.58750,1.46050,1.58750,-1.46050,1.58750,0.00000*
%
%AMD121*
4,1,4,-1.43510,1.58750,-1.43510,-1.58750,1.43510,-1.58750,1.43510,1.58750,-1.43510,1.58750,0.00000*
%
%AMD122*
4,1,4,-1.43510,1.56210,-1.43510,-1.56210,1.43510,-1.56210,1.43510,1.56210,-1.43510,1.56210,0.00000*
%
%AMD123*
4,1,4,-1.46050,1.56210,-1.46050,-1.56210,1.46050,-1.56210,1.46050,1.56210,-1.46050,1.56210,0.00000*
%
%AMD124*
4,1,4,-0.69850,1.39954,-0.69850,-1.39954,0.69850,-1.39954,0.69850,1.39954,-0.69850,1.39954,0.00000*
%
%ADD10C,0.05080*%
%ADD12C,0.01000*%
%ADD13C,0.25000*%
%ADD14D105*%
%ADD15D106*%
%ADD16D107*%
%ADD17D108*%
%ADD18D109*%
%ADD19D110*%
%ADD70D111*%
%ADD71D112*%
%ADD20D113*%
%ADD21D114*%
%ADD22D116*%
%ADD23D117*%
%ADD24D118*%
%ADD25D119*%
%ADD26D120*%
%ADD27D121*%
%ADD28D122*%
%ADD29D123*%
%ADD72D124*%
%LNTopPaste*%
%LPD*%
G54D14*
X2985262Y107696D03*
Y120904D03*
X2971800Y475742D03*
Y456692D03*
X2951988Y466344D03*
X3028442Y408686D03*
X3048508Y399288D03*
Y418338D03*
X2928366Y204216D03*
Y217170D03*
X2920492Y77216D03*
Y90424D03*
X2900426D03*
Y77216D03*
X3097784Y780288D03*
Y767334D03*
X3033776Y456184D03*
Y469392D03*
X3013964Y675386D03*
Y688340D03*
X2949448Y579374D03*
Y592328D03*
X3027426Y738378D03*
Y725424D03*
X2986278Y721360D03*
Y734314D03*
X2969006Y579374D03*
Y592328D03*
X2980436Y164338D03*
Y177292D03*
G54D15*
X3069336Y739394D03*
X3088386D03*
X3078988Y719328D03*
X3069844Y818896D03*
X3088894D03*
X3079496Y798830D03*
X2988310Y764794D03*
X2975356D03*
X2863850Y129286D03*
X2850896D03*
X2847848Y173228D03*
X2834894D03*
X3064764Y782320D03*
X3077972D03*
Y764286D03*
X3064764D03*
X3075432Y834390D03*
X3088386D03*
X2957830Y783844D03*
X2944876D03*
X2987802D03*
X2974848D03*
X3030474Y525780D03*
X3017266D03*
X3067304Y444246D03*
X3054350D03*
X2978912Y698754D03*
X2991866D03*
X2743454Y260350D03*
X2730500D03*
G54D16*
X2970784Y644398D03*
G54D17*
X2964434Y617220D03*
X2977134D03*
X2989834D03*
X2951734Y671322D03*
X2964434D03*
X2977134D03*
X2989834D03*
X2951734Y617220D03*
X2929382Y117348D03*
X2967482Y171196D03*
X2954782D03*
X2942082D03*
X2929382D03*
X2967482Y117348D03*
X2954782D03*
X2942082D03*
G54D18*
X2667762Y421386D03*
X2693162D03*
Y478282D03*
X2667762D03*
G54D19*
X2871470Y686816D03*
X2915412D03*
X2739898Y80264D03*
X2695956D03*
G54D70*
X2892806Y390906D03*
Y346710D03*
G54D71*
X2934970Y808228D03*
X2967990D03*
X3003550Y555752D03*
X2970530D03*
X2842260Y153416D03*
X2875280D03*
X3060954Y300736D03*
X3093974D03*
X2842260Y104394D03*
X2875280D03*
X2764282Y248412D03*
X2797302D03*
G54D20*
X2897378Y785368D03*
X2867406D03*
X2900934Y631190D03*
X2870962D03*
X3094482Y333248D03*
X3064256D03*
X2741422Y43688D03*
X2711450D03*
X2624836Y310388D03*
X2654808D03*
X2896362Y537718D03*
X2866390D03*
G54D21*
X2881376Y197866D03*
Y227838D03*
X2646426Y163322D03*
Y133350D03*
G54D22*
X2648966Y183896D03*
Y212852D03*
X2778506Y29210D03*
Y58420D03*
X2688336Y580390D03*
Y551180D03*
X3068320Y157734D03*
Y128778D03*
X2808986Y29718D03*
Y58674D03*
X2905760Y127762D03*
Y156718D03*
X2808986Y77724D03*
Y106680D03*
X2778506Y77724D03*
Y106680D03*
X2706878Y308864D03*
Y279908D03*
X2681986Y308864D03*
Y279908D03*
G54D23*
X2909316Y199390D03*
Y217678D03*
X2955798Y92964D03*
Y74422D03*
X2977896Y191008D03*
Y209550D03*
X2966974Y716026D03*
Y734568D03*
X3006852Y737616D03*
Y719074D03*
X2942844Y560070D03*
Y541528D03*
X3096768Y596646D03*
Y578104D03*
X2978404Y92964D03*
Y74422D03*
X2823972Y254000D03*
Y235458D03*
X2957322Y202438D03*
Y220980D03*
X2851912Y210566D03*
Y192024D03*
G54D24*
X2936240Y519176D03*
X2954528D03*
X2987040Y530352D03*
X2968752D03*
X2854706Y70866D03*
X2873248D03*
X3008122Y583184D03*
X2989580D03*
X3075178Y375920D03*
X3056636D03*
X3020060Y759206D03*
X3038602D03*
G54D25*
X2654300Y355346D03*
X2625344D03*
X2714498D03*
X2685288D03*
X3025394Y97282D03*
X3054350D03*
G54D26*
X2695956Y134874D03*
G54D27*
X2735326D03*
G54D28*
Y172466D03*
G54D29*
X2695956D03*
G54D72*
X2692400Y227838D03*
X2738374D03*
G54D14*
X2465324Y107950D03*
Y121158D03*
X2451862Y475996D03*
Y456946D03*
X2431796Y466598D03*
X2508250Y408940D03*
X2528316Y399542D03*
Y418592D03*
X2408428Y204470D03*
Y217424D03*
X2400300Y77470D03*
Y90424D03*
X2380488D03*
Y77470D03*
X2577846Y780542D03*
Y767588D03*
X2513838Y456438D03*
Y469646D03*
X2493772Y675640D03*
Y688594D03*
X2429256Y579628D03*
Y592582D03*
X2507488Y738632D03*
Y725424D03*
X2466340Y721614D03*
Y734568D03*
X2448814Y579628D03*
Y592582D03*
X2460498Y164592D03*
Y177546D03*
G54D15*
X2549398Y739648D03*
X2568448D03*
X2558796Y719582D03*
X2549906Y819150D03*
X2568956D03*
X2559304Y799084D03*
X2468372Y765048D03*
X2455418D03*
X2343912Y129540D03*
X2330958D03*
X2327910Y173482D03*
X2314956D03*
X2544826Y782574D03*
X2557780D03*
Y764540D03*
X2544826D03*
X2555494Y834644D03*
X2568448D03*
X2437892Y784098D03*
X2424938D03*
X2467864D03*
X2454910D03*
X2510282Y526034D03*
X2497328D03*
X2547366Y444500D03*
X2534412D03*
X2458974Y699008D03*
X2471928D03*
X2223262Y260604D03*
X2210308D03*
G54D16*
X2450846Y644652D03*
G54D17*
X2444496Y617474D03*
X2457196D03*
X2469896D03*
X2431796Y671576D03*
X2444496D03*
X2457196D03*
X2469896D03*
X2431796Y617474D03*
X2409444Y117602D03*
X2447544Y171450D03*
X2434844D03*
X2422144D03*
X2409444D03*
X2447544Y117602D03*
X2434844D03*
X2422144D03*
G54D18*
X2147570Y421640D03*
X2172970D03*
Y478536D03*
X2147570D03*
G54D19*
X2351278Y687070D03*
X2395474D03*
X2219960Y80518D03*
X2175764D03*
G54D70*
X2372868Y391160D03*
Y346964D03*
G54D71*
X2414778Y808482D03*
X2447798D03*
X2483612Y556006D03*
X2450592D03*
X2322322Y153670D03*
X2355342D03*
X2540762Y300990D03*
X2573782D03*
X2322322Y104648D03*
X2355342D03*
X2244344Y248666D03*
X2277364D03*
G54D20*
X2377440Y785622D03*
X2347468D03*
X2380996Y631444D03*
X2350770D03*
X2574290Y333502D03*
X2544318D03*
X2221484Y43942D03*
X2191258D03*
X2104898Y310642D03*
X2134870D03*
X2376424Y537972D03*
X2346452D03*
G54D21*
X2361438Y198120D03*
Y228092D03*
X2126488Y163576D03*
Y133604D03*
G54D22*
X2128774Y184150D03*
Y213106D03*
X2258314Y29464D03*
Y58674D03*
X2168398Y580644D03*
Y551434D03*
X2548382Y157988D03*
Y129032D03*
X2288794Y29972D03*
Y58928D03*
X2385822Y128016D03*
Y156972D03*
X2288794Y77978D03*
Y106934D03*
X2258314Y77978D03*
Y106934D03*
X2186940Y309118D03*
Y280162D03*
X2161794Y309118D03*
Y280162D03*
G54D23*
X2389378Y199644D03*
Y217932D03*
X2435860Y93218D03*
Y74676D03*
X2457958Y191262D03*
Y209804D03*
X2446782Y716280D03*
Y734822D03*
X2486914Y737870D03*
Y719328D03*
X2422906Y560324D03*
Y541782D03*
X2576830Y596900D03*
Y578358D03*
X2458466Y93218D03*
Y74676D03*
X2303780Y254254D03*
Y235712D03*
X2437384Y202692D03*
Y221234D03*
X2331974Y210820D03*
Y192278D03*
G54D24*
X2416048Y519430D03*
X2434590D03*
X2467102Y530606D03*
X2448560D03*
X2334514Y71120D03*
X2353056D03*
X2488184Y583438D03*
X2469642D03*
X2555240Y376174D03*
X2536698D03*
X2500122Y759460D03*
X2518664D03*
G54D25*
X2134362Y355600D03*
X2105406D03*
X2194306D03*
X2165350D03*
X2505456Y97536D03*
X2534412D03*
G54D26*
X2176018Y135128D03*
G54D27*
X2215134D03*
G54D28*
Y172720D03*
G54D29*
X2176018D03*
G54D72*
X2172462Y228092D03*
X2218436D03*
G54D14*
X1945386Y108204D03*
Y121412D03*
X1931924Y476250D03*
Y457200D03*
X1911858Y466852D03*
X1988312Y409194D03*
X2008378Y399796D03*
Y418846D03*
X1888490Y204724D03*
Y217678D03*
X1880362Y77724D03*
Y90678D03*
X1860296D03*
Y77724D03*
X2057908Y780796D03*
Y767842D03*
X1993900Y456692D03*
Y469900D03*
X1973834Y675894D03*
Y688848D03*
X1909318Y579882D03*
Y592836D03*
X1987296Y738886D03*
Y725678D03*
X1946402Y721868D03*
Y734822D03*
X1928876Y579882D03*
Y592836D03*
X1940306Y164846D03*
Y177800D03*
G54D15*
X2029460Y739902D03*
X2048510D03*
X2038858Y719836D03*
X2029968Y819404D03*
X2048764D03*
X2039366Y799338D03*
X1948434Y765302D03*
X1935480D03*
X1823974Y129794D03*
X1810766D03*
X1807972Y173736D03*
X1794764D03*
X2024888Y782828D03*
X2037842D03*
Y764794D03*
X2024888D03*
X2035302Y834898D03*
X2048510D03*
X1917954Y784352D03*
X1905000D03*
X1947926D03*
X1934972D03*
X1990344Y526288D03*
X1977390D03*
X2027428Y444754D03*
X2014474D03*
X1938782Y699262D03*
X1951990D03*
X1703324Y260858D03*
X1690370D03*
G54D16*
X1930908Y644906D03*
G54D17*
X1924558Y617728D03*
X1937258D03*
X1949958D03*
X1911858Y671830D03*
X1924558D03*
X1937258D03*
X1949958D03*
X1911858Y617728D03*
X1889252Y117856D03*
X1927352Y171704D03*
X1914652D03*
X1901952D03*
X1889252D03*
X1927352Y117856D03*
X1914652D03*
X1901952D03*
G54D18*
X1627632Y421894D03*
X1653032D03*
Y478790D03*
X1627632D03*
G54D19*
X1831340Y687324D03*
X1875282D03*
X1699768Y80772D03*
X1655826D03*
G54D70*
X1852930Y391414D03*
Y347218D03*
G54D71*
X1894840Y808736D03*
X1927860D03*
X1963674Y556260D03*
X1930654D03*
X1802384Y153924D03*
X1835404D03*
X2020824Y301244D03*
X2053844D03*
X1802384Y104902D03*
X1835404D03*
X1724406Y248920D03*
X1757426D03*
G54D20*
X1857502Y785876D03*
X1827276D03*
X1860804Y631698D03*
X1830832D03*
X2054352Y333756D03*
X2024380D03*
X1701292Y44196D03*
X1671320D03*
X1584960Y310896D03*
X1614932D03*
X1856486Y538226D03*
X1826514D03*
G54D21*
X1841500Y198374D03*
Y228346D03*
X1606296Y163830D03*
Y133858D03*
G54D22*
X1608836Y184404D03*
Y213360D03*
X1738376Y29718D03*
Y58928D03*
X1648460Y580898D03*
Y551688D03*
X2028444Y158242D03*
Y129286D03*
X1768856Y30226D03*
Y59182D03*
X1865884Y128270D03*
Y157226D03*
X1768856Y78232D03*
Y107188D03*
X1738376Y78232D03*
Y107188D03*
X1667002Y309372D03*
Y280416D03*
X1641856Y309372D03*
Y280416D03*
G54D23*
X1869440Y199898D03*
Y218186D03*
X1915922Y93472D03*
Y74930D03*
X1937766Y191516D03*
Y210058D03*
X1926844Y716534D03*
Y735076D03*
X1966976Y738124D03*
Y719582D03*
X1902968Y560578D03*
Y542036D03*
X2056892Y597154D03*
Y578612D03*
X1938274Y93472D03*
Y74930D03*
X1783842Y254508D03*
Y235966D03*
X1917446Y202946D03*
Y221488D03*
X1811782Y211074D03*
Y192532D03*
G54D24*
X1896110Y519684D03*
X1914652D03*
X1947164Y530860D03*
X1928622D03*
X1814576Y71374D03*
X1833118D03*
X1968246Y583692D03*
X1949704D03*
X2035048Y376428D03*
X2016760D03*
X1980184Y759714D03*
X1998726D03*
G54D25*
X1614424Y355854D03*
X1585468D03*
X1674368D03*
X1645412D03*
X1985264Y97790D03*
X2014474D03*
G54D26*
X1656080Y135382D03*
G54D27*
X1695196D03*
G54D28*
Y172974D03*
G54D29*
X1656080D03*
G54D72*
X1652270Y228346D03*
X1698498D03*
G54D14*
X1425448Y108458D03*
Y121666D03*
X1411986Y476504D03*
Y457454D03*
X1391920Y467106D03*
X1468374Y409448D03*
X1488440Y400050D03*
Y419100D03*
X1368298Y204978D03*
Y217932D03*
X1360424Y77978D03*
Y90932D03*
X1340358D03*
Y77978D03*
X1537970Y781050D03*
Y768096D03*
X1473962Y456946D03*
Y470154D03*
X1453896Y676148D03*
Y689102D03*
X1389380Y580136D03*
Y593090D03*
X1467358Y739140D03*
Y725932D03*
X1426464Y722122D03*
Y735076D03*
X1408938Y580136D03*
Y593090D03*
X1420368Y165100D03*
Y178054D03*
G54D15*
X1509268Y740156D03*
X1528318D03*
X1518920Y720090D03*
X1509776Y819658D03*
X1528826D03*
X1519428Y799592D03*
X1428496Y765556D03*
X1415288D03*
X1303782Y130048D03*
X1290828D03*
X1287780Y173990D03*
X1274826D03*
X1504950Y783082D03*
X1517904D03*
Y765048D03*
X1504950D03*
X1515364Y835152D03*
X1528318D03*
X1397762Y784606D03*
X1384808D03*
X1427988D03*
X1414780D03*
X1470406Y526542D03*
X1457452D03*
X1507490Y445008D03*
X1494282D03*
X1418844Y699516D03*
X1431798D03*
X1183386Y261112D03*
X1170432D03*
G54D16*
X1410970Y645160D03*
G54D17*
X1404620Y617982D03*
X1417320D03*
X1430020D03*
X1391920Y672084D03*
X1404620D03*
X1417320D03*
X1430020D03*
X1391920Y617982D03*
X1369314Y118110D03*
X1407414Y171958D03*
X1394714D03*
X1382014D03*
X1369314D03*
X1407414Y118110D03*
X1394714D03*
X1382014D03*
G54D18*
X1107694Y422148D03*
X1133094D03*
Y479044D03*
X1107694D03*
G54D19*
X1311402Y687578D03*
X1355344D03*
X1179830Y81026D03*
X1135888D03*
G54D70*
X1332992Y391668D03*
Y347472D03*
G54D71*
X1374902Y808990D03*
X1407922D03*
X1443736Y556514D03*
X1410716D03*
X1282446Y154178D03*
X1315466D03*
X1500886Y301498D03*
X1533906D03*
X1282446Y105156D03*
X1315466D03*
X1204468Y249174D03*
X1237488D03*
G54D20*
X1337310Y786130D03*
X1307338D03*
X1340866Y631952D03*
X1310894D03*
X1534414Y334010D03*
X1504442D03*
X1181354Y44450D03*
X1151382D03*
X1064768Y311150D03*
X1094994D03*
X1336294Y538480D03*
X1306322D03*
G54D21*
X1321308Y198628D03*
Y228600D03*
X1086358Y164084D03*
Y134112D03*
G54D22*
X1088898Y184658D03*
Y213614D03*
X1218438Y29972D03*
Y59182D03*
X1128268Y581152D03*
Y551942D03*
X1508506Y158496D03*
Y129540D03*
X1248918Y30480D03*
Y59436D03*
X1345946Y128524D03*
Y157480D03*
X1248918Y78486D03*
Y107442D03*
X1218438Y78486D03*
Y107442D03*
X1146810Y309626D03*
Y280670D03*
X1121918Y309626D03*
Y280670D03*
G54D23*
X1349502Y200152D03*
Y218440D03*
X1395984Y93726D03*
Y75184D03*
X1417828Y191770D03*
Y210312D03*
X1406906Y716788D03*
Y735330D03*
X1446784Y738378D03*
Y719836D03*
X1382776Y560832D03*
Y542290D03*
X1536954Y597408D03*
Y578866D03*
X1418336Y93726D03*
Y75184D03*
X1263904Y254762D03*
Y236220D03*
X1397508Y203200D03*
Y221742D03*
X1291844Y211328D03*
Y192786D03*
G54D24*
X1376172Y519938D03*
X1394714D03*
X1427226Y531114D03*
X1408684D03*
X1294638Y71628D03*
X1313180D03*
X1448054Y583946D03*
X1429512D03*
X1515110Y376682D03*
X1496568D03*
X1460246Y759968D03*
X1478534D03*
G54D25*
X1094486Y356108D03*
X1065276D03*
X1154430D03*
X1125474D03*
X1465326Y98044D03*
X1494282D03*
G54D26*
X1135888Y135636D03*
G54D27*
X1175258D03*
G54D28*
Y173228D03*
G54D29*
X1135888D03*
G54D72*
X1132332Y228600D03*
X1178306D03*
G54D14*
X905256Y108712D03*
Y121920D03*
X891794Y476758D03*
Y457708D03*
X871982Y467360D03*
X948436Y409702D03*
X968248Y400304D03*
Y419354D03*
X848360Y205232D03*
Y218186D03*
X840486Y78232D03*
Y91186D03*
X820420D03*
Y78232D03*
X1017778Y781304D03*
Y768350D03*
X953770Y457200D03*
Y470408D03*
X933958Y676402D03*
Y689356D03*
X869442Y580390D03*
Y593344D03*
X947420Y739394D03*
Y726186D03*
X906272Y722376D03*
Y735330D03*
X888746Y580390D03*
Y593344D03*
X900430Y165354D03*
Y178308D03*
G54D15*
X989330Y740410D03*
X1008380D03*
X998982Y720344D03*
X989838Y819912D03*
X1008888D03*
X999490Y799846D03*
X908304Y765810D03*
X895350D03*
X783844Y130302D03*
X770890D03*
X767842Y174244D03*
X754888D03*
X984758Y783336D03*
X997966D03*
Y765302D03*
X984758D03*
X995426Y835406D03*
X1008380D03*
X877824Y784860D03*
X864870D03*
X907796D03*
X894842D03*
X950468Y526796D03*
X937260D03*
X987298Y445262D03*
X974344D03*
X898906Y699770D03*
X911860D03*
X663448Y261366D03*
X650494D03*
G54D16*
X890778Y645414D03*
G54D17*
X884428Y618236D03*
X897128D03*
X909828D03*
X871728Y672338D03*
X884428D03*
X897128D03*
X909828D03*
X871728Y618236D03*
X849376Y118364D03*
X887476Y172212D03*
X874776D03*
X862076D03*
X849376D03*
X887476Y118364D03*
X874776D03*
X862076D03*
G54D18*
X587756Y422402D03*
X613156D03*
Y479298D03*
X587756D03*
G54D19*
X791464Y687832D03*
X835406D03*
X659892Y81280D03*
X615950D03*
G54D70*
X812800Y391922D03*
Y347726D03*
G54D71*
X854964Y809244D03*
X887984D03*
X923544Y556768D03*
X890524D03*
X762254Y154432D03*
X795274D03*
X980948Y301752D03*
X1013968D03*
X762254Y105410D03*
X795274D03*
X684276Y249428D03*
X717296D03*
G54D20*
X817372Y786384D03*
X787400D03*
X820928Y632206D03*
X790956D03*
X1014476Y334264D03*
X984250D03*
X661416Y44704D03*
X631444D03*
X544830Y311404D03*
X574802D03*
X816356Y538734D03*
X786384D03*
G54D21*
X801370Y198882D03*
Y228854D03*
X566420Y164338D03*
Y134366D03*
G54D22*
X568960Y184912D03*
Y213868D03*
X698246Y30226D03*
Y59182D03*
X608330Y581406D03*
Y552196D03*
X988314Y158750D03*
Y129794D03*
X728980Y30734D03*
Y59690D03*
X825754Y128778D03*
Y157734D03*
X728980Y78740D03*
Y107696D03*
X698246Y78740D03*
Y107696D03*
X626872Y309880D03*
Y280924D03*
X601980Y309880D03*
Y280924D03*
G54D23*
X829310Y200406D03*
Y218694D03*
X875792Y93980D03*
Y75438D03*
X897890Y192024D03*
Y210566D03*
X886968Y717042D03*
Y735584D03*
X926846Y738632D03*
Y720090D03*
X862838Y561086D03*
Y542544D03*
X1016762Y597662D03*
Y579120D03*
X898398Y93980D03*
Y75438D03*
X743966Y255016D03*
Y236474D03*
X877316Y203454D03*
Y221996D03*
X771906Y211582D03*
Y193040D03*
G54D24*
X856234Y520192D03*
X874522D03*
X907034Y531368D03*
X888746D03*
X774700Y71882D03*
X793242D03*
X928116Y584200D03*
X909574D03*
X995172Y376682D03*
X976630D03*
X940054Y760222D03*
X958596D03*
G54D25*
X574294Y356362D03*
X545338D03*
X634492D03*
X605282D03*
X945388Y98298D03*
X974344D03*
G54D26*
X615950Y135890D03*
G54D27*
X655320D03*
G54D28*
Y173482D03*
G54D29*
X615950D03*
G54D72*
X612394Y228854D03*
X658368D03*
G54D14*
X385318Y108966D03*
Y122174D03*
X371856Y477012D03*
Y457962D03*
X351790Y467614D03*
X428244Y409956D03*
X448310Y400558D03*
Y419608D03*
X328422Y205486D03*
Y218440D03*
X320294Y78486D03*
Y91440D03*
X300482D03*
Y78486D03*
X497840Y781558D03*
Y768604D03*
X433832Y457454D03*
Y470662D03*
X413766Y676656D03*
Y689610D03*
X349250Y580644D03*
Y593598D03*
X427482Y739648D03*
Y726440D03*
X386334Y722630D03*
Y735584D03*
X368808Y580644D03*
Y593598D03*
X380238Y165608D03*
Y178562D03*
G54D15*
X469392Y740664D03*
X488442D03*
X478790Y720598D03*
X469900Y820166D03*
X488950D03*
X479298Y800100D03*
X388366Y766064D03*
X375412D03*
X263906Y130556D03*
X250952D03*
X247904Y174498D03*
X234950D03*
X464820Y783590D03*
X477774D03*
Y765556D03*
X464820D03*
X475488Y835660D03*
X488442D03*
X357886Y785114D03*
X344932D03*
X387858D03*
X374904D03*
X430276Y527050D03*
X417322D03*
X467360Y445516D03*
X454406D03*
X378968Y700024D03*
X391922D03*
X143256Y261620D03*
X130302D03*
G54D16*
X370840Y645668D03*
G54D17*
X364490Y618490D03*
X377190D03*
X389890D03*
X351790Y672592D03*
X364490D03*
X377190D03*
X389890D03*
X351790Y618490D03*
X329438Y118618D03*
X367538Y172466D03*
X354838D03*
X342138D03*
X329438D03*
X367538Y118618D03*
X354838D03*
X342138D03*
G54D18*
X67564Y422656D03*
X92964D03*
Y479552D03*
X67564D03*
G54D19*
X271272Y688086D03*
X315468D03*
X139954Y81534D03*
X95758D03*
G54D70*
X292862Y392176D03*
Y347980D03*
G54D71*
X334772Y809498D03*
X367792D03*
X403606Y557022D03*
X370586D03*
X242316Y154686D03*
X275336D03*
X460756Y302006D03*
X493776D03*
X242316Y105664D03*
X275336D03*
X164338Y249682D03*
X197358D03*
G54D20*
X297434Y786638D03*
X267462D03*
X300990Y632460D03*
X270764D03*
X494284Y334518D03*
X464312D03*
X141478Y44958D03*
X111252D03*
X24892Y311658D03*
X54864D03*
X296418Y538988D03*
X266446D03*
G54D21*
X281432Y199136D03*
Y229108D03*
X46482Y164592D03*
Y134620D03*
G54D22*
X48768Y185166D03*
Y214122D03*
X178308Y30480D03*
Y59436D03*
X88392Y581660D03*
Y552450D03*
X468376Y159004D03*
Y130048D03*
X208788Y30988D03*
Y59944D03*
X305816Y129032D03*
Y157988D03*
X208788Y78994D03*
Y107950D03*
X178308Y78994D03*
Y107950D03*
X106934Y310134D03*
Y281178D03*
X81788Y310134D03*
Y281178D03*
G54D23*
X309372Y200660D03*
Y218948D03*
X355854Y94234D03*
Y75692D03*
X377952Y192278D03*
Y210820D03*
X366776Y717296D03*
Y735838D03*
X406908Y738886D03*
Y720344D03*
X342900Y561340D03*
Y542798D03*
X496824Y597916D03*
Y579374D03*
X378460Y94234D03*
Y75692D03*
X223774Y255270D03*
Y236728D03*
X357378Y203708D03*
Y222250D03*
X251968Y211836D03*
Y193294D03*
G54D24*
X336042Y520446D03*
X354584D03*
X387096Y531622D03*
X368554D03*
X254508Y72136D03*
X273050D03*
X408178Y584454D03*
X389636D03*
X475234Y376936D03*
X456692D03*
X420116Y760476D03*
X438658D03*
G54D25*
X54356Y356616D03*
X25400D03*
X114300D03*
X85344D03*
X425450Y98552D03*
X454406D03*
G54D26*
X96012Y136144D03*
G54D27*
X135128D03*
G54D28*
Y173736D03*
G54D29*
X96012D03*
G54D72*
X92456Y229108D03*
X138430D03*
G54D10*
X4685612Y-2490106D02*
G01X-1564400D01*
X-1614400Y-2440106*
Y-2175105*
X-1879401*
X-1929401Y-2125105*
X-1929403Y3124905*
X-1879401Y3174904*
X-1614400*
Y3439905*
X-1564400Y3489905*
X4685612*
X4735610Y3439905*
Y3174904*
X5000611*
X5050611Y3124905*
Y-2125105*
X5000611Y-2175105*
X4735611*
Y-2440106*
X4685612Y-2490106*
G54D13*
G01X4816520Y2833526D02*
X4815582Y2835401D01*
X4812770Y2838214D01*
X4832457D01*
X4816520Y2852276D02*
X4815582Y2854151D01*
X4812770Y2856964D01*
X4832457D01*
X4816520Y2871026D02*
X4815582Y2872901D01*
X4812770Y2875714D01*
X4832457D01*
X4816520Y2889776D02*
X4815582Y2891651D01*
X4812770Y2894464D01*
X4832457D01*
X4816520Y2908526D02*
X4815582Y2910401D01*
X4812770Y2913214D01*
X4832457D01*
G54D12*
X-1822004Y2922404D02*
G01X-1849403D01*
Y2877405*
X-1822004*
Y2877405D02*
G75*
G03X-1822004Y2922404I100J22500D01*
Y2802404D02*
G01X-1849403D01*
Y2757405*
X-1822004*
Y2682403D02*
G01X-1849403D01*
Y2637404*
X-1822004*
Y2562403D02*
G01X-1849403D01*
Y2517404*
X-1822004*
Y2442403D02*
G01X-1849403D01*
Y2397404*
X-1822004*
Y2322403D02*
G01X-1849403D01*
Y2277404*
X-1822004*
Y2202402D02*
G01X-1849403D01*
Y2157403*
X-1822004*
Y2082402D02*
G01X-1849403D01*
Y2037403*
X-1822004*
Y1962402D02*
G01X-1849403D01*
Y1917403*
X-1822004*
Y1842402D02*
G01X-1849403D01*
Y1797403*
X-1822004*
Y1722401D02*
G01X-1849403D01*
Y1677402*
X-1822004*
Y1602401D02*
G01X-1849403D01*
Y1557402*
X-1822004*
Y1482401D02*
G01X-1849403D01*
Y1437402*
X-1822004*
Y1362401D02*
G01X-1849403D01*
Y1317402*
X-1822004*
Y1242400D02*
G01X-1849403D01*
Y1197401*
X-1822004*
Y1122400D02*
G01X-1849403D01*
Y1077401*
X-1822004*
Y1002400D02*
G01X-1849403D01*
Y957401*
X-1822004*
Y882400D02*
G01X-1849403D01*
Y837401*
X-1822004*
Y762400D02*
G01X-1849403D01*
Y717400*
X-1822004*
Y642399D02*
G01X-1849403D01*
Y597400*
X-1822004*
Y522399D02*
G01X-1849403D01*
Y477400*
X-1822004*
Y402399D02*
G01X-1849403D01*
Y357400*
X-1822004*
Y282399D02*
G01X-1849403D01*
Y237399*
X-1822004*
Y162398D02*
G01X-1849403D01*
Y117399*
X-1822004*
Y42398D02*
G01X-1849403D01*
Y-2601*
X-1822004*
Y-77602D02*
G01X-1849403D01*
Y-122601*
X-1822004*
Y-197602D02*
G01X-1849403D01*
Y-242601*
X-1822004*
Y-317603D02*
G01X-1849403D01*
Y-362602*
X-1822004*
Y-437603D02*
G01X-1849403D01*
Y-482602*
X-1822004*
Y-557603D02*
G01X-1849403D01*
Y-602602*
X-1822004*
Y-677603D02*
G01X-1849403D01*
Y-722602*
X-1822004*
Y2757405D02*
G03X-1822004Y2802404I100J22500D01*
Y2637404D02*
G03X-1822004Y2682403I100J22500D01*
Y2517404D02*
G03X-1822004Y2562403I100J22500D01*
Y2397404D02*
G03X-1822004Y2442403I100J22500D01*
Y2277404D02*
G03X-1822004Y2322403I100J22500D01*
Y2157403D02*
G03X-1822004Y2202402I100J22500D01*
Y2037403D02*
G03X-1822004Y2082402I100J22500D01*
Y1917403D02*
G03X-1822004Y1962402I100J22500D01*
Y1797403D02*
G03X-1822004Y1842402I100J22500D01*
Y1677402D02*
G03X-1822004Y1722401I100J22500D01*
Y1557402D02*
G03X-1822004Y1602401I100J22500D01*
Y1437402D02*
G03X-1822004Y1482401I100J22500D01*
Y1317402D02*
G03X-1822004Y1362401I100J22500D01*
Y1197401D02*
G03X-1822004Y1242400I100J22500D01*
Y1077401D02*
G03X-1822004Y1122400I100J22500D01*
Y957401D02*
G03X-1822004Y1002400I100J22500D01*
Y837401D02*
G03X-1822004Y882400I100J22500D01*
Y717400D02*
G03X-1822004Y762400I100J22500D01*
Y597400D02*
G03X-1822004Y642399I100J22500D01*
Y477400D02*
G03X-1822004Y522399I100J22500D01*
Y357400D02*
G03X-1822004Y402399I100J22500D01*
Y237399D02*
G03X-1822004Y282399I100J22500D01*
Y117399D02*
G03X-1822004Y162398I100J22500D01*
Y-2601D02*
G03X-1822004Y42398I100J22500D01*
Y-122601D02*
G03X-1822004Y-77602I100J22500D01*
Y-242601D02*
G03X-1822004Y-197602I100J22500D01*
Y-362602D02*
G03X-1822004Y-317603I100J22500D01*
Y-482602D02*
G03X-1822004Y-437603I100J22500D01*
Y-602602D02*
G03X-1822004Y-557603I100J22500D01*
Y-722602D02*
G03X-1822004Y-677603I100J22500D01*
Y-797604D02*
G01X-1849403D01*
Y-842603*
X-1822004*
Y-917604D02*
G01X-1849403D01*
Y-962603*
X-1822004*
Y-1037604D02*
G01X-1849403D01*
Y-1082603*
X-1822004*
Y-1157604D02*
G01X-1849403D01*
Y-1202603*
X-1822004*
Y-1277605D02*
G01X-1849403D01*
Y-1322604*
X-1822004*
Y-1397605D02*
G01X-1849403D01*
Y-1442604*
X-1822004*
Y-1517605D02*
G01X-1849403D01*
Y-1562604*
X-1822004*
Y-1637605D02*
G01X-1849403D01*
Y-1682604*
X-1822004*
Y-1757606D02*
G01X-1849403D01*
Y-1802605*
X-1822004*
Y-1877606D02*
G01X-1849403D01*
Y-1922605*
X-1822004*
Y-842603D02*
G03X-1822004Y-797604I100J22500D01*
Y-962603D02*
G03X-1822004Y-917604I100J22500D01*
Y-1082603D02*
G03X-1822004Y-1037604I100J22500D01*
Y-1202603D02*
G03X-1822004Y-1157604I100J22500D01*
Y-1322604D02*
G03X-1822004Y-1277605I100J22500D01*
Y-1442604D02*
G03X-1822004Y-1397605I100J22500D01*
Y-1562604D02*
G03X-1822004Y-1517605I100J22500D01*
Y-1682604D02*
G03X-1822004Y-1637605I100J22500D01*
Y-1802605D02*
G03X-1822004Y-1757606I100J22500D01*
Y-1922605D02*
G03X-1822004Y-1877606I100J22500D01*
X4943204Y2922404D02*
G01X4970603D01*
Y2877405*
X4943204*
Y2922404D02*
G03X4943204Y2877405I-100J-22500D01*
Y2802404D02*
G01X4970603D01*
Y2757405*
X4943204*
Y2682403D02*
G01X4970603D01*
Y2637404*
X4943204*
Y2562403D02*
G01X4970603D01*
Y2517404*
X4943204*
Y2442403D02*
G01X4970603D01*
Y2397404*
X4943204*
Y2322403D02*
G01X4970603D01*
Y2277404*
X4943204*
Y2202402D02*
G01X4970603D01*
Y2157403*
X4943204*
Y2082402D02*
G01X4970603D01*
Y2037403*
X4943204*
Y1962402D02*
G01X4970603D01*
Y1917403*
X4943204*
Y1842402D02*
G01X4970603D01*
Y1797403*
X4943204*
Y1722401D02*
G01X4970603D01*
Y1677402*
X4943204*
Y1602401D02*
G01X4970603D01*
Y1557402*
X4943204*
Y1482401D02*
G01X4970603D01*
Y1437402*
X4943204*
Y1362401D02*
G01X4970603D01*
Y1317402*
X4943204*
Y1242400D02*
G01X4970603D01*
Y1197401*
X4943204*
Y1122400D02*
G01X4970603D01*
Y1077401*
X4943204*
Y1002400D02*
G01X4970603D01*
Y957401*
X4943204*
Y882400D02*
G01X4970603D01*
Y837401*
X4943204*
Y762400D02*
G01X4970603D01*
Y717400*
X4943204*
Y642399D02*
G01X4970603D01*
Y597400*
X4943204*
Y522399D02*
G01X4970603D01*
Y477400*
X4943204*
Y402399D02*
G01X4970603D01*
Y357400*
X4943204*
Y282399D02*
G01X4970603D01*
Y237399*
X4943204*
Y162398D02*
G01X4970603D01*
Y117399*
X4943204*
Y42398D02*
G01X4970603D01*
Y-2601*
X4943204*
Y-77602D02*
G01X4970603D01*
Y-122601*
X4943204*
Y-197602D02*
G01X4970603D01*
Y-242601*
X4943204*
Y-317603D02*
G01X4970603D01*
Y-362602*
X4943204*
Y-437603D02*
G01X4970603D01*
Y-482602*
X4943204*
Y-557603D02*
G01X4970603D01*
Y-602602*
X4943204*
Y-677603D02*
G01X4970603D01*
Y-722602*
X4943204*
Y2802404D02*
G03X4943204Y2757405I-100J-22500D01*
Y2682403D02*
G03X4943204Y2637404I-100J-22500D01*
Y2562403D02*
G03X4943204Y2517404I-100J-22500D01*
Y2442403D02*
G03X4943204Y2397404I-100J-22500D01*
Y2322403D02*
G03X4943204Y2277404I-100J-22500D01*
Y2202402D02*
G03X4943204Y2157403I-100J-22500D01*
Y2082402D02*
G03X4943204Y2037403I-100J-22500D01*
Y1962402D02*
G03X4943204Y1917403I-100J-22500D01*
Y1842402D02*
G03X4943204Y1797403I-100J-22500D01*
Y1722401D02*
G03X4943204Y1677402I-100J-22500D01*
Y1602401D02*
G03X4943204Y1557402I-100J-22500D01*
Y1482401D02*
G03X4943204Y1437402I-100J-22500D01*
Y1362401D02*
G03X4943204Y1317402I-100J-22500D01*
Y1242400D02*
G03X4943204Y1197401I-100J-22500D01*
Y1122400D02*
G03X4943204Y1077401I-100J-22500D01*
Y1002400D02*
G03X4943204Y957401I-100J-22500D01*
Y882400D02*
G03X4943204Y837401I-100J-22500D01*
Y762400D02*
G03X4943204Y717400I-100J-22500D01*
Y642399D02*
G03X4943204Y597400I-100J-22500D01*
Y522399D02*
G03X4943204Y477400I-100J-22500D01*
Y402399D02*
G03X4943204Y357400I-100J-22500D01*
Y282399D02*
G03X4943204Y237399I-100J-22500D01*
Y162398D02*
G03X4943204Y117399I-100J-22500D01*
Y42398D02*
G03X4943204Y-2601I-100J-22500D01*
Y-77602D02*
G03X4943204Y-122601I-100J-22500D01*
Y-197602D02*
G03X4943204Y-242601I-100J-22500D01*
Y-317603D02*
G03X4943204Y-362602I-100J-22500D01*
Y-437603D02*
G03X4943204Y-482602I-100J-22500D01*
Y-557603D02*
G03X4943204Y-602602I-100J-22500D01*
Y-677603D02*
G03X4943204Y-722602I-100J-22500D01*
Y-797604D02*
G01X4970603D01*
Y-842603*
X4943204*
Y-917604D02*
G01X4970603D01*
Y-962603*
X4943204*
Y-1037604D02*
G01X4970603D01*
Y-1082603*
X4943204*
Y-1157604D02*
G01X4970603D01*
Y-1202603*
X4943204*
Y-1277605D02*
G01X4970603D01*
Y-1322604*
X4943204*
Y-1397605D02*
G01X4970603D01*
Y-1442604*
X4943204*
Y-1517605D02*
G01X4970603D01*
Y-1562604*
X4943204*
Y-1637605D02*
G01X4970603D01*
Y-1682604*
X4943204*
Y-1757606D02*
G01X4970603D01*
Y-1802605*
X4943204*
Y-1877606D02*
G01X4970603D01*
Y-1922605*
X4943204*
Y-797604D02*
G03X4943204Y-842603I-100J-22500D01*
Y-917604D02*
G03X4943204Y-962603I-100J-22500D01*
Y-1037604D02*
G03X4943204Y-1082603I-100J-22500D01*
Y-1157604D02*
G03X4943204Y-1202603I-100J-22500D01*
Y-1277605D02*
G03X4943204Y-1322604I-100J-22500D01*
Y-1397605D02*
G03X4943204Y-1442604I-100J-22500D01*
Y-1517605D02*
G03X4943204Y-1562604I-100J-22500D01*
Y-1637605D02*
G03X4943204Y-1682604I-100J-22500D01*
Y-1757606D02*
G03X4943204Y-1802605I-100J-22500D01*
Y-1877606D02*
G03X4943204Y-1922605I-100J-22500D01*
X-861904Y3382507D02*
G01Y3409906D01*
X-816905*
Y3382507*
X-861904D02*
G03X-816905Y3382507I22500J-100D01*
X-741904D02*
G01Y3409906D01*
X-696904*
Y3382507*
X-621903D02*
G01Y3409906D01*
X-576904*
Y3382507*
X-501903D02*
G01Y3409906D01*
X-456904*
Y3382507*
X-381903D02*
G01Y3409906D01*
X-336904*
Y3382507*
X-261903D02*
G01Y3409906D01*
X-216904*
Y3382507*
X-141902D02*
G01Y3409906D01*
X-96903*
Y3382507*
X-21902D02*
G01Y3409906D01*
X23097*
Y3382507*
X98098D02*
G01Y3409906D01*
X143097*
Y3382507*
X218098D02*
G01Y3409906D01*
X263097*
Y3382507*
X338099D02*
G01Y3409906D01*
X383098*
Y3382507*
X458099D02*
G01Y3409906D01*
X503098*
Y3382507*
X578099D02*
G01Y3409906D01*
X623098*
Y3382507*
X698099D02*
G01Y3409906D01*
X743098*
Y3382507*
X818100D02*
G01Y3409906D01*
X863099*
Y3382507*
X938100D02*
G01Y3409906D01*
X983099*
Y3382507*
X1058100D02*
G01Y3409906D01*
X1103099*
Y3382507*
X1178100D02*
G01Y3409906D01*
X1223099*
Y3382507*
X1298100D02*
G01Y3409906D01*
X1343100*
Y3382507*
X1418101D02*
G01Y3409906D01*
X1463100*
Y3382507*
X1538101D02*
G01Y3409906D01*
X1583100*
Y3382507*
X1658101D02*
G01Y3409906D01*
X1703100*
Y3382507*
X1778101D02*
G01Y3409906D01*
X1823101*
Y3382507*
X1898102D02*
G01Y3409906D01*
X1943101*
Y3382507*
X2018102D02*
G01Y3409906D01*
X2063101*
Y3382507*
X2138102D02*
G01Y3409906D01*
X2183101*
Y3382507*
X2258102D02*
G01Y3409906D01*
X2303102*
Y3382507*
X2378103D02*
G01Y3409906D01*
X2423102*
Y3382507*
X2498103D02*
G01Y3409906D01*
X2543102*
Y3382507*
X2618103D02*
G01Y3409906D01*
X2663102*
Y3382507*
X2738103D02*
G01Y3409906D01*
X2783102*
Y3382507*
X-741904D02*
G03X-696904Y3382507I22500J-100D01*
X-621903D02*
G03X-576904Y3382507I22500J-100D01*
X-501903D02*
G03X-456904Y3382507I22500J-100D01*
X-381903D02*
G03X-336904Y3382507I22500J-100D01*
X-261903D02*
G03X-216904Y3382507I22500J-100D01*
X-141902D02*
G03X-96903Y3382507I22500J-100D01*
X-21902D02*
G03X23097Y3382507I22500J-100D01*
X98098D02*
G03X143097Y3382507I22500J-100D01*
X218098D02*
G03X263097Y3382507I22500J-100D01*
X338099D02*
G03X383098Y3382507I22500J-100D01*
X458099D02*
G03X503098Y3382507I22500J-100D01*
X578099D02*
G03X623098Y3382507I22500J-100D01*
X698099D02*
G03X743098Y3382507I22500J-100D01*
X818100D02*
G03X863099Y3382507I22500J-100D01*
X938100D02*
G03X983099Y3382507I22500J-100D01*
X1058100D02*
G03X1103099Y3382507I22500J-100D01*
X1178100D02*
G03X1223099Y3382507I22500J-100D01*
X1298100D02*
G03X1343100Y3382507I22500J-100D01*
X1418101D02*
G03X1463100Y3382507I22500J-100D01*
X1538101D02*
G03X1583100Y3382507I22500J-100D01*
X1658101D02*
G03X1703100Y3382507I22500J-100D01*
X1778101D02*
G03X1823101Y3382507I22500J-100D01*
X1898102D02*
G03X1943101Y3382507I22500J-100D01*
X2018102D02*
G03X2063101Y3382507I22500J-100D01*
X2138102D02*
G03X2183101Y3382507I22500J-100D01*
X2258102D02*
G03X2303102Y3382507I22500J-100D01*
X2378103D02*
G03X2423102Y3382507I22500J-100D01*
X2498103D02*
G03X2543102Y3382507I22500J-100D01*
X2618103D02*
G03X2663102Y3382507I22500J-100D01*
X2738103D02*
G03X2783102Y3382507I22500J-100D01*
X2858104D02*
G01Y3409906D01*
X2903103*
Y3382507*
X2978104D02*
G01Y3409906D01*
X3023103*
Y3382507*
X3098104D02*
G01Y3409906D01*
X3143103*
Y3382507*
X3218104D02*
G01Y3409906D01*
X3263103*
Y3382507*
X3338105D02*
G01Y3409906D01*
X3383104*
Y3382507*
X3458105D02*
G01Y3409906D01*
X3503104*
Y3382507*
X3578105D02*
G01Y3409906D01*
X3623104*
Y3382507*
X3698105D02*
G01Y3409906D01*
X3743104*
Y3382507*
X3818106D02*
G01Y3409906D01*
X3863105*
Y3382507*
X3938106D02*
G01Y3409906D01*
X3983105*
Y3382507*
X2858104D02*
G03X2903103Y3382507I22500J-100D01*
X2978104D02*
G03X3023103Y3382507I22500J-100D01*
X3098104D02*
G03X3143103Y3382507I22500J-100D01*
X3218104D02*
G03X3263103Y3382507I22500J-100D01*
X3338105D02*
G03X3383104Y3382507I22500J-100D01*
X3458105D02*
G03X3503104Y3382507I22500J-100D01*
X3578105D02*
G03X3623104Y3382507I22500J-100D01*
X3698105D02*
G03X3743104Y3382507I22500J-100D01*
X3818106D02*
G03X3863105Y3382507I22500J-100D01*
X3938106D02*
G03X3983105Y3382507I22500J-100D01*
X-1341905D02*
G01Y3409906D01*
X-1296906*
Y3382507*
X-1341905D02*
G03X-1296906Y3382507I22500J-100D01*
X-1221905D02*
G01Y3409906D01*
X-1176905*
Y3382507*
X-1101904D02*
G01Y3409906D01*
X-1056905*
Y3382507*
X-981904D02*
G01Y3409906D01*
X-936905*
Y3382507*
X-1221905D02*
G03X-1176905Y3382507I22500J-100D01*
X-1101904D02*
G03X-1056905Y3382507I22500J-100D01*
X-981904D02*
G03X-936905Y3382507I22500J-100D01*
X4058106D02*
G01Y3409906D01*
X4103105*
Y3382507*
X4178106D02*
G01Y3409906D01*
X4223105*
Y3382507*
X4298106D02*
G01Y3409906D01*
X4343106*
Y3382507*
X4418107D02*
G01Y3409906D01*
X4463106*
Y3382507*
X4058106D02*
G03X4103105Y3382507I22500J-100D01*
X4178106D02*
G03X4223105Y3382507I22500J-100D01*
X4298106D02*
G03X4343106Y3382507I22500J-100D01*
X4418107D02*
G03X4463106Y3382507I22500J-100D01*
X-861904Y-2382707D02*
G01Y-2410106D01*
X-816905*
Y-2382707*
Y-2382707D02*
G03X-861904Y-2382707I-22500J100D01*
X-741904D02*
G01Y-2410106D01*
X-696904*
Y-2382707*
X-621903D02*
G01Y-2410106D01*
X-576904*
Y-2382707*
X-501903D02*
G01Y-2410106D01*
X-456904*
Y-2382707*
X-381903D02*
G01Y-2410106D01*
X-336904*
Y-2382707*
X-261903D02*
G01Y-2410106D01*
X-216904*
Y-2382707*
X-141902D02*
G01Y-2410106D01*
X-96903*
Y-2382707*
X-21902D02*
G01Y-2410106D01*
X23097*
Y-2382707*
X98098D02*
G01Y-2410106D01*
X143097*
Y-2382707*
X218098D02*
G01Y-2410106D01*
X263097*
Y-2382707*
X338099D02*
G01Y-2410106D01*
X383098*
Y-2382707*
X458099D02*
G01Y-2410106D01*
X503098*
Y-2382707*
X578099D02*
G01Y-2410106D01*
X623098*
Y-2382707*
X698099D02*
G01Y-2410106D01*
X743098*
Y-2382707*
X818100D02*
G01Y-2410106D01*
X863099*
Y-2382707*
X938100D02*
G01Y-2410106D01*
X983099*
Y-2382707*
X1058100D02*
G01Y-2410106D01*
X1103099*
Y-2382707*
X1178100D02*
G01Y-2410106D01*
X1223099*
Y-2382707*
X1298100D02*
G01Y-2410106D01*
X1343100*
Y-2382707*
X1418101D02*
G01Y-2410106D01*
X1463100*
Y-2382707*
X1538101D02*
G01Y-2410106D01*
X1583100*
Y-2382707*
X1658101D02*
G01Y-2410106D01*
X1703100*
Y-2382707*
X1778101D02*
G01Y-2410106D01*
X1823101*
Y-2382707*
X1898102D02*
G01Y-2410106D01*
X1943101*
Y-2382707*
X2018102D02*
G01Y-2410106D01*
X2063101*
Y-2382707*
X2138102D02*
G01Y-2410106D01*
X2183101*
Y-2382707*
X2258102D02*
G01Y-2410106D01*
X2303102*
Y-2382707*
X2378103D02*
G01Y-2410106D01*
X2423102*
Y-2382707*
X2498103D02*
G01Y-2410106D01*
X2543102*
Y-2382707*
X2618103D02*
G01Y-2410106D01*
X2663102*
Y-2382707*
X2738103D02*
G01Y-2410106D01*
X2783102*
Y-2382707*
X-696904D02*
G03X-741904Y-2382707I-22500J100D01*
X-576904D02*
G03X-621903Y-2382707I-22500J100D01*
X-456904D02*
G03X-501903Y-2382707I-22500J100D01*
X-336904D02*
G03X-381903Y-2382707I-22500J100D01*
X-216904D02*
G03X-261903Y-2382707I-22500J100D01*
X-96903D02*
G03X-141902Y-2382707I-22500J100D01*
X23097D02*
G03X-21902Y-2382707I-22500J100D01*
X143097D02*
G03X98098Y-2382707I-22500J100D01*
X263097D02*
G03X218098Y-2382707I-22500J100D01*
X383098D02*
G03X338099Y-2382707I-22500J100D01*
X503098D02*
G03X458099Y-2382707I-22500J100D01*
X623098D02*
G03X578099Y-2382707I-22500J100D01*
X743098D02*
G03X698099Y-2382707I-22500J100D01*
X863099D02*
G03X818100Y-2382707I-22500J100D01*
X983099D02*
G03X938100Y-2382707I-22500J100D01*
X1103099D02*
G03X1058100Y-2382707I-22500J100D01*
X1223099D02*
G03X1178100Y-2382707I-22500J100D01*
X1343100D02*
G03X1298100Y-2382707I-22500J100D01*
X1463100D02*
G03X1418101Y-2382707I-22500J100D01*
X1583100D02*
G03X1538101Y-2382707I-22500J100D01*
X1703100D02*
G03X1658101Y-2382707I-22500J100D01*
X1823101D02*
G03X1778101Y-2382707I-22500J100D01*
X1943101D02*
G03X1898102Y-2382707I-22500J100D01*
X2063101D02*
G03X2018102Y-2382707I-22500J100D01*
X2183101D02*
G03X2138102Y-2382707I-22500J100D01*
X2303102D02*
G03X2258102Y-2382707I-22500J100D01*
X2423102D02*
G03X2378103Y-2382707I-22500J100D01*
X2543102D02*
G03X2498103Y-2382707I-22500J100D01*
X2663102D02*
G03X2618103Y-2382707I-22500J100D01*
X2783102D02*
G03X2738103Y-2382707I-22500J100D01*
X2858104D02*
G01Y-2410106D01*
X2903103*
Y-2382707*
X2978104D02*
G01Y-2410106D01*
X3023103*
Y-2382707*
X3098104D02*
G01Y-2410106D01*
X3143103*
Y-2382707*
X3218104D02*
G01Y-2410106D01*
X3263103*
Y-2382707*
X3338105D02*
G01Y-2410106D01*
X3383104*
Y-2382707*
X3458105D02*
G01Y-2410106D01*
X3503104*
Y-2382707*
X3578105D02*
G01Y-2410106D01*
X3623104*
Y-2382707*
X3698105D02*
G01Y-2410106D01*
X3743104*
Y-2382707*
X3818106D02*
G01Y-2410106D01*
X3863105*
Y-2382707*
X3938106D02*
G01Y-2410106D01*
X3983105*
Y-2382707*
X2903103D02*
G03X2858104Y-2382707I-22500J100D01*
X3023103D02*
G03X2978104Y-2382707I-22500J100D01*
X3143103D02*
G03X3098104Y-2382707I-22500J100D01*
X3263103D02*
G03X3218104Y-2382707I-22500J100D01*
X3383104D02*
G03X3338105Y-2382707I-22500J100D01*
X3503104D02*
G03X3458105Y-2382707I-22500J100D01*
X3623104D02*
G03X3578105Y-2382707I-22500J100D01*
X3743104D02*
G03X3698105Y-2382707I-22500J100D01*
X3863105D02*
G03X3818106Y-2382707I-22500J100D01*
X3983105D02*
G03X3938106Y-2382707I-22500J100D01*
X-1341905D02*
G01Y-2410106D01*
X-1296906*
Y-2382707*
Y-2382707D02*
G03X-1341905Y-2382707I-22500J100D01*
X-1221905D02*
G01Y-2410106D01*
X-1176905*
Y-2382707*
X-1101904D02*
G01Y-2410106D01*
X-1056905*
Y-2382707*
X-981904D02*
G01Y-2410106D01*
X-936905*
Y-2382707*
X-1176905D02*
G03X-1221905Y-2382707I-22500J100D01*
X-1056905D02*
G03X-1101904Y-2382707I-22500J100D01*
X-936905D02*
G03X-981904Y-2382707I-22500J100D01*
X4058106D02*
G01Y-2410106D01*
X4103105*
Y-2382707*
X4178106D02*
G01Y-2410106D01*
X4223105*
Y-2382707*
X4298106D02*
G01Y-2410106D01*
X4343106*
Y-2382707*
X4418107D02*
G01Y-2410106D01*
X4463106*
Y-2382707*
X4103105D02*
G03X4058106Y-2382707I-22500J100D01*
X4223105D02*
G03X4178106Y-2382707I-22500J100D01*
X4343106D02*
G03X4298106Y-2382707I-22500J100D01*
X4463106D02*
G03X4418107Y-2382707I-22500J100D01*
M02*
