%FSDAX44Y44*%
%MOMM*%
%SFA1B1*%

%IPPOS*%
%ADD10C,0.254000*%
%LNoutline-1*%
%LPD*%
G54D10*
X00000000Y00519999D02*
X01039999D01*
X00000000Y00000000D02*
Y00519999D01*
Y00000000D02*
X01039999D01*
Y00519999*
X00000000Y01039999D02*
X01039999D01*
X00000000Y00519999D02*
Y01039999D01*
Y00519999D02*
X01039999D01*
Y01039999*
X00000000Y01559999D02*
X01039999D01*
X00000000Y01039999D02*
Y01559999D01*
Y01039999D02*
X01039999D01*
Y01559999*
X00000000Y02079999D02*
X01039999D01*
X00000000Y01559999D02*
Y02079999D01*
Y01559999D02*
X01039999D01*
Y02079999*
X00000000Y02599999D02*
X01039999D01*
X00000000Y02079999D02*
Y02599999D01*
Y02079999D02*
X01039999D01*
Y02599999*
X00000000Y03119999D02*
X01039999D01*
X00000000Y02599999D02*
Y03119999D01*
Y02599999D02*
X01039999D01*
Y03119999*
X-00110000Y00024999D02*
Y03094999D01*
X-00085000Y03119999D02*
X00000000D01*
X01149999Y03094999D02*
Y00024999D01*
X01125000Y00000000D02*
X01039999D01*
X-00110000Y03094999D02*
X-00109874Y03097499D01*
X-00109500Y03099973*
X-00108880Y03102397*
X-00108021Y03104747*
X-00106931Y03107000*
X-00105621Y03109132*
X-00104105Y03111123*
X-00102397Y03112952*
X-00100515Y03114602*
X-00098478Y03116055*
X-00096306Y03117297*
X-00094020Y03118315*
X-00091644Y03119100*
X-00089201Y03119644*
X-00086717Y03119940*
X-00085000Y03119999*
X-00110000Y00024999D02*
X-00109874Y00022500D01*
X-00109500Y00020026*
X-00108880Y00017602*
X-00108021Y00015251*
X-00106931Y00012999*
X-00105621Y00010866*
X-00104105Y00008876*
X-00102397Y00007046*
X-00100515Y00005397*
X-00098478Y00003944*
X-00096306Y00002702*
X-00094020Y00001684*
X-00091644Y00000899*
X-00089201Y00000355*
X-00086717Y00000058*
X-00085000Y00000000*
X01125000Y03119999D02*
X01127499Y03119874D01*
X01129973Y03119500*
X01132397Y03118880*
X01134748Y03118020*
X01137000Y03116931*
X01139133Y03115621*
X01141123Y03114105*
X01142953Y03112397*
X01144602Y03110515*
X01146055Y03108478*
X01147297Y03106305*
X01148315Y03104020*
X01149100Y03101644*
X01149644Y03099201*
X01149940Y03096716*
X01149999Y03094999*
Y00024999D02*
X01149874Y00022500D01*
X01149500Y00020026*
X01148880Y00017602*
X01148021Y00015251*
X01146931Y00012999*
X01145621Y00010866*
X01144105Y00008876*
X01142397Y00007046*
X01140515Y00005397*
X01138478Y00003944*
X01136306Y00002702*
X01134020Y00001684*
X01131644Y00000899*
X01129201Y00000355*
X01126717Y00000058*
X01125000Y00000000*
X00000000Y02599999D02*
X-00110000D01*
X01039999D02*
X01149999D01*
X01039999Y02079999D02*
X01149999D01*
X00000000D02*
X-00110000D01*
X00000000Y01559999D02*
X-00110000D01*
X01039999D02*
X01149999D01*
X01039999Y01039999D02*
X01149999D01*
X00000000D02*
X-00110000D01*
X00000000Y00519999D02*
X-00110000D01*
X01039999D02*
X01149999D01*
X01039999Y03119999D02*
X01125000D01*
X00000000Y00000000D02*
X-00085000D01*
M02*