G04 Layer_Physical_Order=1*
G04 Layer_Color=255*
%FSAX44Y44*%
%MOMM*%
G71*
G01*
G75*
%ADD10C,0.8000*%
%ADD11C,0.2540*%
%ADD12C,1.0000*%
%ADD13R,3.0000X1.6000*%
%ADD14R,7.0000X7.0000*%
%ADD15R,0.8000X0.9000*%
%ADD16R,0.9000X0.8000*%
%ADD17R,2.5000X3.3000*%
%ADD18R,1.8000X0.6000*%
%ADD19R,1.4000X0.8000*%
%ADD20R,1.7000X2.2000*%
%ADD21R,2.2000X1.7000*%
%ADD22R,1.7000X1.0000*%
%ADD23R,2.0000X1.5000*%
%ADD24R,1.5000X2.0000*%
%ADD25C,1.2000*%
%ADD26P,1.2989X8X112.5*%
%ADD27R,1.0000X1.5000*%
%ADD28R,0.9000X1.8000*%
%ADD29R,0.9500X1.4000*%
%ADD30R,1.4000X0.9500*%
%ADD31R,1.8000X0.9000*%
%ADD32C,0.3500*%
%ADD33C,2.0000*%
%ADD34C,1.5000*%
%ADD35C,0.5000*%
%ADD36C,1.0000*%
%ADD37C,0.3000*%
%ADD38C,0.2000*%
%ADD39C,0.6000*%
%ADD40C,0.4000*%
%ADD41C,1.1200*%
%ADD42C,1.4000*%
%ADD43C,3.0000*%
%ADD44C,0.7000*%
%ADD45C,1.2000*%
%ADD46R,3.5000X5.6000*%
%ADD47R,1.7000X2.1000*%
%ADD48C,2.5000*%
%ADD49C,2.0000*%
%ADD50C,3.0000*%
%ADD51R,3.0000X3.0000*%
%ADD52R,2.5000X1.8000*%
%ADD53O,2.5000X1.8000*%
%ADD54C,3.5000*%
%ADD55C,2.2000*%
%ADD56O,1.5000X2.0000*%
%ADD57O,2.0000X1.5000*%
%ADD58O,3.0000X3.5000*%
%ADD59C,1.5000*%
%ADD60R,1.5000X1.5000*%
%ADD61C,0.8000*%
G36*
X00414000Y00159500D02*
X00428271Y00159500D01*
X00428565Y00158789D01*
X00428678Y00158230D01*
X00427555Y00156548D01*
X00427147Y00154500D01*
Y00125876D01*
X00426759Y00125610D01*
X00425574Y00126338D01*
X00425595Y00126500D01*
X00425217Y00129372D01*
X00424109Y00132047D01*
X00422345Y00134345D01*
X00420047Y00136109D01*
X00417372Y00137217D01*
X00414500Y00137595D01*
X00409500D01*
X00406628Y00137217D01*
X00403952Y00136109D01*
X00402603Y00135073D01*
X00400500D01*
X00398281Y00134781D01*
X00396213Y00133925D01*
X00394438Y00132562D01*
X00372438Y00110562D01*
X00371075Y00108787D01*
X00370219Y00106719D01*
X00369927Y00104500D01*
Y00096551D01*
X00356876Y00083500D01*
X00352001Y00083500D01*
X00352000Y00100500D01*
X00352000Y00113000D01*
X00398500Y00159500D01*
X00414000Y00159500D01*
D02*
G37*
G36*
X00645499Y00224500D02*
X00645500Y00211000D01*
X00645500Y00201000D01*
X00657000Y00189500D01*
X00657000Y00124000D01*
X00656000Y00123000D01*
X00632500D01*
Y00176500D01*
X00617500Y00191500D01*
X00599500D01*
X00581500Y00209500D01*
X00547500D01*
Y00228000D01*
X00584000D01*
X00642000Y00228000D01*
X00645499Y00224500D01*
D02*
G37*
G36*
X00585592Y00177606D02*
X00585676Y00177230D01*
X00585431Y00176000D01*
Y00167000D01*
X00585703Y00165634D01*
X00586477Y00164477D01*
X00587634Y00163703D01*
X00589000Y00163431D01*
X00589883D01*
Y00160069D01*
X00589000D01*
X00587634Y00159797D01*
X00586500Y00159039D01*
X00585366Y00159797D01*
X00584000Y00160069D01*
X00578112D01*
X00577548Y00160445D01*
X00575500Y00160853D01*
X00573452Y00160445D01*
X00571715Y00159285D01*
X00571033Y00158603D01*
X00566084D01*
X00565000Y00158818D01*
X00548000D01*
X00546634Y00158547D01*
X00545477Y00157773D01*
X00544703Y00156615D01*
X00544431Y00155250D01*
Y00145250D01*
X00544703Y00143884D01*
X00545477Y00142726D01*
X00546634Y00141953D01*
X00548000Y00141681D01*
X00565000D01*
X00566366Y00141953D01*
X00567523Y00142726D01*
X00568297Y00143884D01*
X00568569Y00145250D01*
Y00147897D01*
X00570147D01*
Y00138500D01*
X00570555Y00136452D01*
X00571715Y00134715D01*
X00573431Y00132999D01*
Y00126500D01*
X00573703Y00125134D01*
X00574477Y00123976D01*
X00575634Y00123203D01*
X00577000Y00122931D01*
X00591000D01*
X00592366Y00123203D01*
X00593523Y00123976D01*
X00594297Y00125134D01*
X00594569Y00126500D01*
Y00136000D01*
X00594297Y00137366D01*
X00593523Y00138523D01*
X00592366Y00139297D01*
X00591000Y00139569D01*
X00582002D01*
X00580853Y00140717D01*
Y00143931D01*
X00584000D01*
X00585366Y00144203D01*
X00586500Y00144961D01*
X00587634Y00144203D01*
X00589000Y00143931D01*
X00596417D01*
X00597500Y00142849D01*
Y00140500D01*
X00604000Y00134000D01*
X00614950D01*
X00619000Y00129950D01*
X00619000Y00121000D01*
X00628000Y00112000D01*
X00679355Y00112000D01*
X00681431Y00109923D01*
Y00102500D01*
X00681703Y00101134D01*
X00682477Y00099977D01*
X00683431Y00099339D01*
X00683355Y00098438D01*
X00683220Y00098069D01*
X00682000D01*
X00681655Y00098000D01*
X00672345D01*
X00672000Y00098069D01*
X00670002D01*
X00667564Y00100506D01*
X00667307Y00102458D01*
X00666551Y00104282D01*
X00665349Y00105849D01*
X00663782Y00107051D01*
X00661958Y00107807D01*
X00660000Y00108065D01*
X00658042Y00107807D01*
X00656218Y00107051D01*
X00654651Y00105849D01*
X00653449Y00104282D01*
X00652693Y00102458D01*
X00652435Y00100500D01*
X00652597Y00099270D01*
X00652585Y00099208D01*
X00652411Y00098869D01*
X00651674Y00098131D01*
X00651520Y00098069D01*
X00642000D01*
X00641655Y00098000D01*
X00635830D01*
X00634993Y00098955D01*
X00635065Y00099500D01*
X00634807Y00101458D01*
X00634051Y00103282D01*
X00632849Y00104849D01*
X00631282Y00106051D01*
X00629458Y00106807D01*
X00627500Y00107065D01*
X00625542Y00106807D01*
X00623718Y00106051D01*
X00622151Y00104849D01*
X00620949Y00103282D01*
X00620193Y00101458D01*
X00619935Y00099500D01*
X00620007Y00098955D01*
X00619170Y00098000D01*
X00612345D01*
X00612000Y00098069D01*
X00602000D01*
X00601655Y00098000D01*
X00592345D01*
X00592000Y00098069D01*
X00582000D01*
X00581655Y00098000D01*
X00572000D01*
Y00081078D01*
X00561500D01*
Y00098000D01*
X00553018D01*
X00552652Y00099841D01*
X00551326Y00101826D01*
X00544797Y00108354D01*
X00544862Y00108610D01*
X00546311Y00109169D01*
X00546634Y00108953D01*
X00548000Y00108682D01*
X00550498D01*
X00552465Y00106715D01*
X00554202Y00105555D01*
X00556250Y00105147D01*
X00574970D01*
X00575634Y00104703D01*
X00577000Y00104432D01*
X00591000D01*
X00592366Y00104703D01*
X00593030Y00105147D01*
X00594500D01*
X00596548Y00105555D01*
X00598285Y00106715D01*
X00602006Y00110436D01*
X00603958Y00110693D01*
X00605782Y00111449D01*
X00607349Y00112651D01*
X00608551Y00114218D01*
X00609307Y00116042D01*
X00609565Y00118000D01*
X00609307Y00119958D01*
X00608551Y00121782D01*
X00607349Y00123349D01*
X00605782Y00124551D01*
X00603958Y00125307D01*
X00602000Y00125565D01*
X00600042Y00125307D01*
X00598218Y00124551D01*
X00596651Y00123349D01*
X00595449Y00121782D01*
X00594847Y00120329D01*
X00593684Y00120061D01*
X00593429Y00120087D01*
X00592366Y00120797D01*
X00591000Y00121069D01*
X00577000D01*
X00575634Y00120797D01*
X00574477Y00120023D01*
X00573703Y00118866D01*
X00573431Y00117500D01*
Y00115853D01*
X00568569D01*
Y00122250D01*
X00568297Y00123616D01*
X00567523Y00124774D01*
X00566366Y00125547D01*
X00565000Y00125819D01*
X00548000D01*
X00546634Y00125547D01*
X00545477Y00124774D01*
X00545387Y00124640D01*
X00544118Y00125025D01*
Y00126750D01*
X00543652Y00129091D01*
X00542326Y00131076D01*
X00541569Y00131833D01*
Y00138500D01*
X00541297Y00139866D01*
X00540523Y00141024D01*
X00539366Y00141797D01*
X00538000Y00142069D01*
X00524000D01*
X00522634Y00141797D01*
X00522167Y00141485D01*
X00510826Y00152826D01*
X00508841Y00154152D01*
X00507277Y00154463D01*
X00507188Y00154582D01*
X00506902Y00155832D01*
X00509217Y00158147D01*
X00511916D01*
X00513000Y00157932D01*
X00527000D01*
X00528366Y00158203D01*
X00529523Y00158977D01*
X00530297Y00160135D01*
X00530569Y00161500D01*
Y00171000D01*
X00530297Y00172366D01*
X00529523Y00173524D01*
X00528366Y00174297D01*
X00527000Y00174569D01*
X00524831D01*
X00524246Y00175839D01*
X00524712Y00176431D01*
X00527000D01*
X00528366Y00176703D01*
X00529523Y00177477D01*
X00530207Y00178500D01*
X00552431Y00178500D01*
Y00171000D01*
X00552703Y00169634D01*
X00553476Y00168477D01*
X00554634Y00167703D01*
X00556000Y00167431D01*
X00565500D01*
X00566866Y00167703D01*
X00568023Y00168477D01*
X00568797Y00169634D01*
X00569068Y00171000D01*
Y00178500D01*
X00585114Y00178500D01*
X00585592Y00177606D01*
D02*
G37*
G36*
X00353270Y00310553D02*
X00354940Y00310717D01*
X00357768Y00311575D01*
X00360374Y00312968D01*
X00361352Y00313770D01*
X00362500Y00313227D01*
X00362500Y00221500D01*
X00358500D01*
Y00226730D01*
X00347500D01*
Y00228000D01*
X00346230D01*
Y00236500D01*
X00342500D01*
Y00312435D01*
X00342851Y00312601D01*
X00343770Y00312891D01*
X00346232Y00311575D01*
X00349059Y00310717D01*
X00350730Y00310553D01*
Y00325500D01*
X00353270D01*
Y00310553D01*
D02*
G37*
G36*
X00776000Y00222500D02*
Y00216000D01*
X00784730D01*
Y00223500D01*
X00787270D01*
Y00216000D01*
X00796000D01*
Y00219000D01*
X00806000D01*
X00820000Y00205000D01*
X00829000Y00196000D01*
X00843916D01*
X00844707Y00194730D01*
X00844581Y00193770D01*
X00854500D01*
X00864419D01*
X00864293Y00194730D01*
X00865084Y00196000D01*
X00934500Y00196000D01*
X00935360Y00195140D01*
X00935270Y00194950D01*
Y00176500D01*
X00932730D01*
Y00193948D01*
X00931059Y00193783D01*
X00928232Y00192925D01*
X00925626Y00191532D01*
X00923342Y00189658D01*
X00921468Y00187374D01*
X00920075Y00184768D01*
X00919538Y00183000D01*
X00860632Y00183000D01*
X00860201Y00184270D01*
X00861632Y00185368D01*
X00863235Y00187457D01*
X00864243Y00189890D01*
X00864419Y00191230D01*
X00854500D01*
X00844581D01*
X00844757Y00189890D01*
X00845765Y00187457D01*
X00847368Y00185368D01*
X00848799Y00184270D01*
X00848368Y00183000D01*
X00817500Y00183000D01*
Y00184730D01*
X00809000D01*
X00800500D01*
Y00184296D01*
X00799230Y00183769D01*
X00790500Y00192500D01*
X00766500Y00192500D01*
X00742094Y00216906D01*
X00742094Y00233406D01*
X00734552Y00240948D01*
X00734960Y00242150D01*
X00736263Y00242322D01*
X00739304Y00243581D01*
X00741915Y00245585D01*
X00743919Y00248196D01*
X00745178Y00251237D01*
X00745234Y00251656D01*
X00746436Y00252064D01*
X00776000Y00222500D01*
D02*
G37*
G36*
X00518448Y00107582D02*
X00518431Y00107500D01*
Y00099500D01*
X00518703Y00098134D01*
X00519461Y00097000D01*
X00518703Y00095866D01*
X00518431Y00094500D01*
Y00086500D01*
X00518703Y00085135D01*
X00518947Y00084770D01*
X00518268Y00083500D01*
X00467500Y00083500D01*
X00464569D01*
Y00091500D01*
X00464297Y00092866D01*
X00463524Y00094023D01*
X00463485Y00094415D01*
X00464717Y00095647D01*
X00502500D01*
X00504548Y00096055D01*
X00506285Y00097215D01*
X00517277Y00108207D01*
X00518448Y00107582D01*
D02*
G37*
G36*
X00190000Y00450000D02*
Y00448014D01*
X00188825Y00447600D01*
X00188730Y00447617D01*
X00187884Y00448884D01*
X00186561Y00449768D01*
X00186270Y00449826D01*
Y00446000D01*
Y00442174D01*
X00186561Y00442232D01*
X00187884Y00443116D01*
X00188730Y00444383D01*
X00188825Y00444400D01*
X00190000Y00443986D01*
Y00441563D01*
X00189500Y00440500D01*
X00188730Y00440500D01*
X00155770D01*
Y00405500D01*
Y00370500D01*
X00188730D01*
X00189500Y00370500D01*
X00190000Y00369437D01*
Y00367999D01*
X00189389Y00367662D01*
X00188730Y00367487D01*
X00187561Y00368268D01*
X00187270Y00368326D01*
Y00364500D01*
X00186000D01*
Y00363230D01*
X00182174D01*
X00182232Y00362939D01*
X00183116Y00361616D01*
X00184383Y00360770D01*
X00184400Y00360675D01*
X00183986Y00359500D01*
X00177514D01*
X00177100Y00360675D01*
X00177118Y00360770D01*
X00178384Y00361616D01*
X00179268Y00362939D01*
X00179326Y00363230D01*
X00171674D01*
X00171732Y00362939D01*
X00172616Y00361616D01*
X00173883Y00360770D01*
X00173900Y00360675D01*
X00173486Y00359500D01*
X00167014D01*
X00166600Y00360675D01*
X00166617Y00360770D01*
X00167884Y00361616D01*
X00168768Y00362939D01*
X00168826Y00363230D01*
X00161174D01*
X00161232Y00362939D01*
X00162116Y00361616D01*
X00163383Y00360770D01*
X00163400Y00360675D01*
X00163270Y00360305D01*
Y00353500D01*
X00160730D01*
Y00359500D01*
X00156514D01*
X00156100Y00360675D01*
X00156117Y00360770D01*
X00157384Y00361616D01*
X00158268Y00362939D01*
X00158326Y00363230D01*
X00150674D01*
X00150732Y00362939D01*
X00151616Y00361616D01*
X00152882Y00360770D01*
X00152900Y00360675D01*
X00152486Y00359500D01*
X00146014D01*
X00145600Y00360675D01*
X00145617Y00360770D01*
X00146884Y00361616D01*
X00147768Y00362939D01*
X00147826Y00363230D01*
X00140174D01*
X00140232Y00362939D01*
X00141116Y00361616D01*
X00142382Y00360770D01*
X00142400Y00360675D01*
X00141986Y00359500D01*
X00135514D01*
X00135100Y00360675D01*
X00135117Y00360770D01*
X00136384Y00361616D01*
X00137268Y00362939D01*
X00137326Y00363230D01*
X00129674D01*
X00129732Y00362939D01*
X00130616Y00361616D01*
X00131882Y00360770D01*
X00131900Y00360675D01*
X00131486Y00359500D01*
X00124514D01*
X00124100Y00360675D01*
X00124117Y00360770D01*
X00125384Y00361616D01*
X00126268Y00362939D01*
X00126326Y00363230D01*
X00118674D01*
X00118732Y00362939D01*
X00119616Y00361616D01*
X00120883Y00360770D01*
X00120900Y00360675D01*
X00120486Y00359500D01*
X00115000D01*
X00112000Y00362500D01*
X00105000Y00369500D01*
Y00438000D01*
X00119000Y00452000D01*
X00188000D01*
X00190000Y00450000D01*
D02*
G37*
G36*
X00081827Y00352673D02*
X00081341Y00351500D01*
X00079770D01*
Y00343770D01*
X00083000D01*
Y00349840D01*
X00084173Y00350326D01*
X00085500Y00349000D01*
Y00298500D01*
X00054000D01*
X00050000Y00302500D01*
Y00354500D01*
X00080000D01*
X00081827Y00352673D01*
D02*
G37*
G36*
X00460270Y00159500D02*
X00460756Y00158327D01*
X00459498Y00157069D01*
X00453500D01*
X00452134Y00156797D01*
X00450977Y00156023D01*
X00450203Y00154866D01*
X00449931Y00153500D01*
Y00144500D01*
X00450203Y00143134D01*
X00450977Y00141977D01*
X00452134Y00141203D01*
X00453498Y00140932D01*
X00463715Y00130715D01*
X00465452Y00129555D01*
X00467500Y00129147D01*
X00479613D01*
X00479693Y00128542D01*
X00480449Y00126718D01*
X00481651Y00125151D01*
X00483218Y00123949D01*
X00485042Y00123193D01*
X00487000Y00122935D01*
X00487679Y00123025D01*
X00487994Y00122838D01*
X00488733Y00121992D01*
X00488405Y00119500D01*
X00488783Y00116628D01*
X00489892Y00113953D01*
X00491655Y00111655D01*
X00493952Y00109892D01*
X00496628Y00108783D01*
X00499500Y00108405D01*
X00500697Y00108563D01*
X00501290Y00107360D01*
X00500283Y00106353D01*
X00462500D01*
X00460452Y00105945D01*
X00458715Y00104785D01*
X00453215Y00099285D01*
X00452798Y00098660D01*
X00451444Y00098921D01*
X00450348Y00100349D01*
X00448781Y00101551D01*
X00446957Y00102307D01*
X00444999Y00102564D01*
X00443041Y00102307D01*
X00441841Y00101810D01*
X00441116Y00102535D01*
X00439379Y00103695D01*
X00437331Y00104103D01*
X00429668D01*
X00427619Y00103695D01*
X00425883Y00102535D01*
X00420464Y00097116D01*
X00419304Y00095380D01*
X00418949Y00093594D01*
X00413208Y00087853D01*
X00402500D01*
X00400452Y00087445D01*
X00398715Y00086285D01*
X00396698Y00084268D01*
X00396208Y00084307D01*
X00395601Y00085218D01*
X00395483Y00085639D01*
X00395853Y00087500D01*
Y00097283D01*
X00406717Y00108147D01*
X00423000D01*
X00425048Y00108555D01*
X00426785Y00109715D01*
X00435161Y00118091D01*
X00436431Y00117565D01*
Y00112000D01*
X00436703Y00110634D01*
X00437477Y00109477D01*
X00438634Y00108703D01*
X00440000Y00108431D01*
X00455000D01*
X00456366Y00108703D01*
X00457523Y00109477D01*
X00458297Y00110634D01*
X00458569Y00112000D01*
Y00127000D01*
X00458297Y00128366D01*
X00457523Y00129523D01*
X00456366Y00130297D01*
X00455000Y00130569D01*
X00440000D01*
X00439123Y00130394D01*
X00437853Y00131186D01*
Y00152283D01*
X00445070Y00159500D01*
X00460270Y00159500D01*
D02*
G37*
G36*
X00743013Y00159730D02*
X00742693Y00158958D01*
X00742435Y00157000D01*
X00742693Y00155042D01*
X00743449Y00153218D01*
X00744651Y00151651D01*
X00746218Y00150449D01*
X00748042Y00149693D01*
X00749994Y00149436D01*
X00757431Y00141999D01*
Y00141500D01*
X00757703Y00140134D01*
X00758477Y00138976D01*
X00759634Y00138203D01*
X00761000Y00137931D01*
X00770000D01*
X00771366Y00138203D01*
X00772523Y00138976D01*
X00772971Y00139647D01*
X00777363D01*
X00777477Y00139476D01*
X00778634Y00138703D01*
X00780000Y00138431D01*
X00788230D01*
X00789500Y00137368D01*
X00789500Y00120000D01*
X00775000Y00105500D01*
X00775000Y00088500D01*
X00807500Y00056000D01*
X00835002Y00056000D01*
X00849500Y00041499D01*
X00849500Y00024500D01*
X00831500Y00006500D01*
X00666000Y00006500D01*
X00558000D01*
X00541500Y00023000D01*
Y00035521D01*
X00542000Y00035931D01*
X00552000D01*
X00552345Y00036000D01*
X00561000D01*
X00561500Y00036500D01*
Y00052922D01*
X00572000D01*
Y00036000D01*
X00581655D01*
X00582000Y00035931D01*
X00592000D01*
X00592345Y00036000D01*
X00601655D01*
X00602000Y00035931D01*
X00612000D01*
X00612345Y00036000D01*
X00619565D01*
X00620051Y00034827D01*
X00614077Y00028853D01*
X00605568D01*
Y00031000D01*
X00605297Y00032366D01*
X00604523Y00033523D01*
X00603366Y00034297D01*
X00602000Y00034569D01*
X00592500D01*
X00591134Y00034297D01*
X00589977Y00033523D01*
X00589203Y00032366D01*
X00588931Y00031000D01*
Y00017000D01*
X00589203Y00015634D01*
X00589977Y00014477D01*
X00591134Y00013703D01*
X00592500Y00013431D01*
X00602000D01*
X00603366Y00013703D01*
X00604523Y00014477D01*
X00605297Y00015634D01*
X00605568Y00017000D01*
Y00018147D01*
X00616294D01*
X00618343Y00018555D01*
X00620079Y00019715D01*
X00630785Y00030421D01*
X00631945Y00032157D01*
X00632353Y00034206D01*
Y00036000D01*
X00641454D01*
X00642674Y00034174D01*
X00664174Y00012674D01*
X00666159Y00011348D01*
X00668500Y00010883D01*
X00759500D01*
X00761841Y00011348D01*
X00763826Y00012674D01*
X00766083Y00014931D01*
X00772000D01*
X00773366Y00015203D01*
X00774500Y00015961D01*
X00775634Y00015203D01*
X00777000Y00014931D01*
X00785000D01*
X00786366Y00015203D01*
X00787523Y00015977D01*
X00788129Y00016882D01*
X00810500D01*
X00812841Y00017348D01*
X00814826Y00018674D01*
X00820583Y00024431D01*
X00824000D01*
X00825366Y00024703D01*
X00825634Y00024883D01*
X00833000D01*
X00833247Y00024931D01*
X00839500D01*
X00840866Y00025203D01*
X00842023Y00025977D01*
X00842797Y00027134D01*
X00843069Y00028500D01*
Y00036500D01*
X00842797Y00037866D01*
X00842023Y00039023D01*
X00840866Y00039797D01*
X00839500Y00040069D01*
X00830500D01*
X00829134Y00039797D01*
X00827977Y00039023D01*
X00827847Y00038829D01*
X00826523Y00038523D01*
X00825366Y00039297D01*
X00824000Y00039569D01*
X00815000D01*
X00813634Y00039297D01*
X00812477Y00038523D01*
X00811703Y00037366D01*
X00811431Y00036000D01*
Y00032583D01*
X00807966Y00029118D01*
X00788129D01*
X00787523Y00030023D01*
X00786366Y00030797D01*
X00785000Y00031069D01*
X00777000D01*
X00775634Y00030797D01*
X00774500Y00030039D01*
X00773366Y00030797D01*
X00772000Y00031069D01*
X00764000D01*
X00762635Y00030797D01*
X00761477Y00030023D01*
X00760703Y00028866D01*
X00760432Y00027500D01*
Y00026583D01*
X00756966Y00023117D01*
X00695794D01*
X00695168Y00024388D01*
X00695798Y00025209D01*
X00696756Y00027520D01*
X00697082Y00030000D01*
X00696756Y00032480D01*
X00695798Y00034791D01*
X00695783Y00034811D01*
X00695500Y00036000D01*
X00695500D01*
X00695000Y00037063D01*
Y00037690D01*
X00695297Y00038134D01*
X00695569Y00039500D01*
Y00052922D01*
X00701500D01*
X00703061Y00053232D01*
X00704384Y00054116D01*
X00705268Y00055439D01*
X00705578Y00057000D01*
Y00077000D01*
X00705268Y00078561D01*
X00704384Y00079884D01*
X00703061Y00080768D01*
X00701500Y00081078D01*
X00695569D01*
Y00082736D01*
X00696285Y00083215D01*
X00704285Y00091215D01*
X00705445Y00092952D01*
X00705853Y00095000D01*
Y00111425D01*
X00705445Y00113473D01*
X00704285Y00115210D01*
X00694353Y00125142D01*
Y00133900D01*
X00695000Y00134431D01*
X00704000D01*
X00704137Y00134459D01*
X00705170Y00133719D01*
X00705193Y00133542D01*
X00705949Y00131718D01*
X00707151Y00130151D01*
X00708718Y00128949D01*
X00710542Y00128193D01*
X00712500Y00127935D01*
X00714458Y00128193D01*
X00714881Y00128368D01*
X00715477Y00127477D01*
X00716634Y00126703D01*
X00718000Y00126431D01*
X00726000D01*
X00727366Y00126703D01*
X00728500Y00127461D01*
X00729634Y00126703D01*
X00731000Y00126431D01*
X00732897D01*
Y00124443D01*
X00732134Y00124292D01*
X00730977Y00123518D01*
X00730203Y00122360D01*
X00729931Y00120995D01*
Y00106995D01*
X00730203Y00105629D01*
X00730977Y00104471D01*
X00732134Y00103698D01*
X00733500Y00103426D01*
X00733647D01*
Y00101299D01*
X00733634Y00101297D01*
X00732500Y00100539D01*
X00731366Y00101297D01*
X00730000Y00101569D01*
X00722429D01*
X00721000Y00101853D01*
X00718951Y00101445D01*
X00717215Y00100285D01*
X00716055Y00098548D01*
X00715656Y00096544D01*
X00715499Y00096565D01*
X00713541Y00096307D01*
X00711716Y00095551D01*
X00710150Y00094349D01*
X00708947Y00092782D01*
X00708192Y00090958D01*
X00707934Y00089000D01*
X00708192Y00087042D01*
X00708947Y00085218D01*
X00710150Y00083651D01*
X00711716Y00082449D01*
X00713541Y00081693D01*
X00715499Y00081435D01*
X00717457Y00081693D01*
X00719281Y00082449D01*
X00720848Y00083651D01*
X00721272Y00084204D01*
X00722785Y00085215D01*
X00723001Y00085431D01*
X00730000D01*
X00731366Y00085703D01*
X00732500Y00086461D01*
X00733634Y00085703D01*
X00735000Y00085431D01*
X00735778D01*
X00736010Y00084161D01*
X00712674Y00060826D01*
X00711348Y00058841D01*
X00710882Y00056500D01*
Y00042000D01*
X00711348Y00039659D01*
X00711931Y00038786D01*
Y00038000D01*
X00712203Y00036634D01*
X00712977Y00035477D01*
X00714134Y00034703D01*
X00715500Y00034432D01*
X00724500D01*
X00725866Y00034703D01*
X00727023Y00035477D01*
X00727797Y00036634D01*
X00728069Y00038000D01*
Y00046000D01*
X00727797Y00047366D01*
X00727023Y00048523D01*
X00725866Y00049297D01*
X00724500Y00049569D01*
X00723118D01*
Y00053966D01*
X00735746Y00066594D01*
X00736995Y00066047D01*
X00737193Y00064542D01*
X00737949Y00062718D01*
X00738382Y00062152D01*
Y00059069D01*
X00735500D01*
X00734134Y00058797D01*
X00732977Y00058023D01*
X00732203Y00056866D01*
X00731932Y00055500D01*
Y00047500D01*
X00732203Y00046134D01*
X00732977Y00044977D01*
X00734134Y00044203D01*
X00735500Y00043931D01*
X00744500D01*
X00744550Y00043941D01*
X00745989Y00042939D01*
X00746031Y00042682D01*
X00743417Y00040069D01*
X00735500D01*
X00734134Y00039797D01*
X00732977Y00039023D01*
X00732203Y00037866D01*
X00731932Y00036500D01*
Y00028500D01*
X00732203Y00027134D01*
X00732977Y00025977D01*
X00734134Y00025203D01*
X00735500Y00024931D01*
X00742754D01*
X00743000Y00024883D01*
X00743246Y00024931D01*
X00744500D01*
X00745866Y00025203D01*
X00747023Y00025977D01*
X00747797Y00027134D01*
X00747800Y00027148D01*
X00755034Y00034383D01*
X00786000D01*
X00788341Y00034848D01*
X00790326Y00036174D01*
X00790383Y00036260D01*
X00791220Y00036180D01*
X00791765Y00036042D01*
X00792477Y00034977D01*
X00793634Y00034203D01*
X00795000Y00033931D01*
X00804000D01*
X00805366Y00034203D01*
X00806523Y00034977D01*
X00807297Y00036134D01*
X00807569Y00037500D01*
Y00038786D01*
X00808152Y00039659D01*
X00808618Y00042000D01*
X00808152Y00044341D01*
X00807569Y00045214D01*
Y00045500D01*
X00807297Y00046866D01*
X00806523Y00048023D01*
X00805366Y00048797D01*
X00804104Y00049048D01*
X00792826Y00060326D01*
X00790841Y00061652D01*
X00790570Y00061706D01*
X00790023Y00062523D01*
X00788866Y00063297D01*
X00787500Y00063569D01*
X00778500D01*
X00777134Y00063297D01*
X00775977Y00062523D01*
X00775203Y00061365D01*
X00774931Y00060000D01*
Y00052000D01*
X00775203Y00050634D01*
X00775961Y00049500D01*
X00775203Y00048366D01*
X00774931Y00047000D01*
Y00046618D01*
X00773069D01*
Y00047000D01*
X00772797Y00048366D01*
X00772039Y00049500D01*
X00772797Y00050634D01*
X00773069Y00052000D01*
Y00060000D01*
X00772797Y00061365D01*
X00772023Y00062523D01*
X00770866Y00063297D01*
X00769500Y00063569D01*
X00768214D01*
X00767341Y00064152D01*
X00765000Y00064618D01*
X00752780D01*
X00751943Y00065572D01*
X00752065Y00066500D01*
X00751807Y00068458D01*
X00751051Y00070282D01*
X00749849Y00071849D01*
X00748854Y00072613D01*
X00749285Y00073882D01*
X00762000D01*
X00762247Y00073932D01*
X00767000D01*
X00768366Y00074203D01*
X00769523Y00074977D01*
X00770297Y00076135D01*
X00770569Y00077500D01*
Y00087000D01*
X00770297Y00088366D01*
X00769523Y00089523D01*
X00768366Y00090297D01*
X00767000Y00090569D01*
X00753000D01*
X00751634Y00090297D01*
X00750477Y00089523D01*
X00749703Y00088366D01*
X00749431Y00087000D01*
Y00086117D01*
X00746811D01*
X00746132Y00087388D01*
X00746297Y00087634D01*
X00746569Y00089000D01*
Y00098000D01*
X00746297Y00099366D01*
X00745523Y00100523D01*
X00744365Y00101297D01*
X00744353Y00101299D01*
Y00103695D01*
X00744366Y00103698D01*
X00745523Y00104471D01*
X00746297Y00105629D01*
X00746569Y00106995D01*
Y00120995D01*
X00746297Y00122360D01*
X00745523Y00123518D01*
X00744366Y00124292D01*
X00743603Y00124443D01*
Y00131250D01*
X00743195Y00133298D01*
X00742568Y00134237D01*
Y00139000D01*
X00742297Y00140366D01*
X00741523Y00141523D01*
X00740365Y00142297D01*
X00739000Y00142569D01*
X00731000D01*
X00729634Y00142297D01*
X00728500Y00141539D01*
X00727366Y00142297D01*
X00726000Y00142569D01*
X00725361D01*
X00724407Y00143206D01*
X00724122Y00144149D01*
X00724182Y00144714D01*
X00724797Y00145634D01*
X00725069Y00147000D01*
Y00161000D01*
X00742164D01*
X00743013Y00159730D01*
D02*
G37*
%LPC*%
G36*
X00358500Y00236500D02*
X00348770D01*
Y00229270D01*
X00358500D01*
Y00236500D01*
D02*
G37*
G36*
X00350730Y00282730D02*
X00346135D01*
X00346348Y00281659D01*
X00347674Y00279674D01*
X00349659Y00278348D01*
X00350730Y00278135D01*
Y00282730D01*
D02*
G37*
G36*
X00357865D02*
X00353270D01*
Y00278135D01*
X00354341Y00278348D01*
X00356326Y00279674D01*
X00357652Y00281659D01*
X00357865Y00282730D01*
D02*
G37*
G36*
X00350730Y00289865D02*
X00349659Y00289652D01*
X00347674Y00288326D01*
X00346348Y00286341D01*
X00346135Y00285270D01*
X00350730D01*
Y00289865D01*
D02*
G37*
G36*
X00353270Y00289865D02*
Y00285270D01*
X00357865D01*
X00357652Y00286341D01*
X00356326Y00288326D01*
X00354341Y00289652D01*
X00353270Y00289865D01*
D02*
G37*
G36*
X00754270Y00229865D02*
Y00225270D01*
X00758865D01*
X00758652Y00226341D01*
X00757326Y00228326D01*
X00755341Y00229652D01*
X00754270Y00229865D01*
D02*
G37*
G36*
X00751730D02*
X00750659Y00229652D01*
X00748674Y00228326D01*
X00747348Y00226341D01*
X00747135Y00225270D01*
X00751730D01*
Y00229865D01*
D02*
G37*
G36*
X00807730Y00191000D02*
X00800500D01*
Y00187270D01*
X00807730D01*
Y00191000D01*
D02*
G37*
G36*
X00817500D02*
X00810270D01*
Y00187270D01*
X00817500D01*
Y00191000D01*
D02*
G37*
G36*
X00758865Y00222730D02*
X00754270D01*
Y00218135D01*
X00755341Y00218348D01*
X00757326Y00219674D01*
X00758652Y00221659D01*
X00758865Y00222730D01*
D02*
G37*
G36*
X00751730D02*
X00747135D01*
X00747348Y00221659D01*
X00748674Y00219674D01*
X00750659Y00218348D01*
X00751730Y00218135D01*
Y00222730D01*
D02*
G37*
G36*
X00121230Y00368326D02*
X00120939Y00368268D01*
X00119616Y00367384D01*
X00118732Y00366061D01*
X00118674Y00365770D01*
X00121230D01*
Y00368326D01*
D02*
G37*
G36*
X00123770D02*
Y00365770D01*
X00126326D01*
X00126268Y00366061D01*
X00125384Y00367384D01*
X00124061Y00368268D01*
X00123770Y00368326D01*
D02*
G37*
G36*
X00134770D02*
Y00365770D01*
X00137326D01*
X00137268Y00366061D01*
X00136384Y00367384D01*
X00135061Y00368268D01*
X00134770Y00368326D01*
D02*
G37*
G36*
X00132230D02*
X00131939Y00368268D01*
X00130616Y00367384D01*
X00129732Y00366061D01*
X00129674Y00365770D01*
X00132230D01*
Y00368326D01*
D02*
G37*
G36*
X00142730D02*
X00142439Y00368268D01*
X00141116Y00367384D01*
X00140232Y00366061D01*
X00140174Y00365770D01*
X00142730D01*
Y00368326D01*
D02*
G37*
G36*
X00184730D02*
X00184439Y00368268D01*
X00183116Y00367384D01*
X00182232Y00366061D01*
X00182174Y00365770D01*
X00184730D01*
Y00368326D01*
D02*
G37*
G36*
X00176770D02*
Y00365770D01*
X00179326D01*
X00179268Y00366061D01*
X00178384Y00367384D01*
X00177061Y00368268D01*
X00176770Y00368326D01*
D02*
G37*
G36*
X00109230Y00370730D02*
X00106674D01*
X00106732Y00370439D01*
X00107616Y00369116D01*
X00108939Y00368232D01*
X00109230Y00368174D01*
Y00370730D01*
D02*
G37*
G36*
X00153230Y00404230D02*
X00119500D01*
Y00370500D01*
X00153230D01*
Y00404230D01*
D02*
G37*
G36*
X00114326Y00370730D02*
X00111770D01*
Y00368174D01*
X00112061Y00368232D01*
X00113384Y00369116D01*
X00114268Y00370439D01*
X00114326Y00370730D01*
D02*
G37*
G36*
X00174230Y00368326D02*
X00173939Y00368268D01*
X00172616Y00367384D01*
X00171732Y00366061D01*
X00171674Y00365770D01*
X00174230D01*
Y00368326D01*
D02*
G37*
G36*
X00153230D02*
X00152939Y00368268D01*
X00151616Y00367384D01*
X00150732Y00366061D01*
X00150674Y00365770D01*
X00153230D01*
Y00368326D01*
D02*
G37*
G36*
X00145270D02*
Y00365770D01*
X00147826D01*
X00147768Y00366061D01*
X00146884Y00367384D01*
X00145561Y00368268D01*
X00145270Y00368326D01*
D02*
G37*
G36*
X00155770D02*
Y00365770D01*
X00158326D01*
X00158268Y00366061D01*
X00157384Y00367384D01*
X00156061Y00368268D01*
X00155770Y00368326D01*
D02*
G37*
G36*
X00166270D02*
Y00365770D01*
X00168826D01*
X00168768Y00366061D01*
X00167884Y00367384D01*
X00166561Y00368268D01*
X00166270Y00368326D01*
D02*
G37*
G36*
X00163730D02*
X00163439Y00368268D01*
X00162116Y00367384D01*
X00161232Y00366061D01*
X00161174Y00365770D01*
X00163730D01*
Y00368326D01*
D02*
G37*
G36*
X00109230Y00375826D02*
X00108939Y00375768D01*
X00107616Y00374884D01*
X00106732Y00373561D01*
X00106674Y00373270D01*
X00109230D01*
Y00375826D01*
D02*
G37*
G36*
X00167326Y00444730D02*
X00164770D01*
Y00442174D01*
X00165061Y00442232D01*
X00166384Y00443116D01*
X00167268Y00444439D01*
X00167326Y00444730D01*
D02*
G37*
G36*
X00162230D02*
X00159674D01*
X00159732Y00444439D01*
X00160616Y00443116D01*
X00161939Y00442232D01*
X00162230Y00442174D01*
Y00444730D01*
D02*
G37*
G36*
X00156826D02*
X00154270D01*
Y00442174D01*
X00154561Y00442232D01*
X00155884Y00443116D01*
X00156768Y00444439D01*
X00156826Y00444730D01*
D02*
G37*
G36*
X00183730D02*
X00181174D01*
X00181232Y00444439D01*
X00182116Y00443116D01*
X00183439Y00442232D01*
X00183730Y00442174D01*
Y00444730D01*
D02*
G37*
G36*
X00177826D02*
X00175270D01*
Y00442174D01*
X00175561Y00442232D01*
X00176884Y00443116D01*
X00177768Y00444439D01*
X00177826Y00444730D01*
D02*
G37*
G36*
X00172730D02*
X00170174D01*
X00170232Y00444439D01*
X00171116Y00443116D01*
X00172439Y00442232D01*
X00172730Y00442174D01*
Y00444730D01*
D02*
G37*
G36*
X00151730D02*
X00149174D01*
X00149232Y00444439D01*
X00150116Y00443116D01*
X00151439Y00442232D01*
X00151730Y00442174D01*
Y00444730D01*
D02*
G37*
G36*
X00131230D02*
X00128674D01*
X00128732Y00444439D01*
X00129616Y00443116D01*
X00130939Y00442232D01*
X00131230Y00442174D01*
Y00444730D01*
D02*
G37*
G36*
X00125826D02*
X00123270D01*
Y00442174D01*
X00123561Y00442232D01*
X00124884Y00443116D01*
X00125768Y00444439D01*
X00125826Y00444730D01*
D02*
G37*
G36*
X00120730D02*
X00118174D01*
X00118232Y00444439D01*
X00119116Y00443116D01*
X00120439Y00442232D01*
X00120730Y00442174D01*
Y00444730D01*
D02*
G37*
G36*
X00146826D02*
X00144270D01*
Y00442174D01*
X00144561Y00442232D01*
X00145884Y00443116D01*
X00146768Y00444439D01*
X00146826Y00444730D01*
D02*
G37*
G36*
X00141730D02*
X00139174D01*
X00139232Y00444439D01*
X00140116Y00443116D01*
X00141439Y00442232D01*
X00141730Y00442174D01*
Y00444730D01*
D02*
G37*
G36*
X00136326D02*
X00133770D01*
Y00442174D01*
X00134061Y00442232D01*
X00135384Y00443116D01*
X00136268Y00444439D01*
X00136326Y00444730D01*
D02*
G37*
G36*
X00164770Y00449826D02*
Y00447270D01*
X00167326D01*
X00167268Y00447561D01*
X00166384Y00448884D01*
X00165061Y00449768D01*
X00164770Y00449826D01*
D02*
G37*
G36*
X00162230D02*
X00161939Y00449768D01*
X00160616Y00448884D01*
X00159732Y00447561D01*
X00159674Y00447270D01*
X00162230D01*
Y00449826D01*
D02*
G37*
G36*
X00154270D02*
Y00447270D01*
X00156826D01*
X00156768Y00447561D01*
X00155884Y00448884D01*
X00154561Y00449768D01*
X00154270Y00449826D01*
D02*
G37*
G36*
X00183730D02*
X00183439Y00449768D01*
X00182116Y00448884D01*
X00181232Y00447561D01*
X00181174Y00447270D01*
X00183730D01*
Y00449826D01*
D02*
G37*
G36*
X00175270D02*
Y00447270D01*
X00177826D01*
X00177768Y00447561D01*
X00176884Y00448884D01*
X00175561Y00449768D01*
X00175270Y00449826D01*
D02*
G37*
G36*
X00172730D02*
X00172439Y00449768D01*
X00171116Y00448884D01*
X00170232Y00447561D01*
X00170174Y00447270D01*
X00172730D01*
Y00449826D01*
D02*
G37*
G36*
X00151730D02*
X00151439Y00449768D01*
X00150116Y00448884D01*
X00149232Y00447561D01*
X00149174Y00447270D01*
X00151730D01*
Y00449826D01*
D02*
G37*
G36*
X00131230D02*
X00130939Y00449768D01*
X00129616Y00448884D01*
X00128732Y00447561D01*
X00128674Y00447270D01*
X00131230D01*
Y00449826D01*
D02*
G37*
G36*
X00123270D02*
Y00447270D01*
X00125826D01*
X00125768Y00447561D01*
X00124884Y00448884D01*
X00123561Y00449768D01*
X00123270Y00449826D01*
D02*
G37*
G36*
X00120730D02*
X00120439Y00449768D01*
X00119116Y00448884D01*
X00118232Y00447561D01*
X00118174Y00447270D01*
X00120730D01*
Y00449826D01*
D02*
G37*
G36*
X00144270D02*
Y00447270D01*
X00146826D01*
X00146768Y00447561D01*
X00145884Y00448884D01*
X00144561Y00449768D01*
X00144270Y00449826D01*
D02*
G37*
G36*
X00141730D02*
X00141439Y00449768D01*
X00140116Y00448884D01*
X00139232Y00447561D01*
X00139174Y00447270D01*
X00141730D01*
Y00449826D01*
D02*
G37*
G36*
X00133770D02*
Y00447270D01*
X00136326D01*
X00136268Y00447561D01*
X00135384Y00448884D01*
X00134061Y00449768D01*
X00133770Y00449826D01*
D02*
G37*
G36*
X00109230Y00401730D02*
X00106674D01*
X00106732Y00401439D01*
X00107616Y00400116D01*
X00108939Y00399232D01*
X00109230Y00399174D01*
Y00401730D01*
D02*
G37*
G36*
X00111770Y00396826D02*
Y00394270D01*
X00114326D01*
X00114268Y00394561D01*
X00113384Y00395884D01*
X00112061Y00396768D01*
X00111770Y00396826D01*
D02*
G37*
G36*
X00109230D02*
X00108939Y00396768D01*
X00107616Y00395884D01*
X00106732Y00394561D01*
X00106674Y00394270D01*
X00109230D01*
Y00396826D01*
D02*
G37*
G36*
X00111770Y00406826D02*
Y00404270D01*
X00114326D01*
X00114268Y00404561D01*
X00113384Y00405884D01*
X00112061Y00406768D01*
X00111770Y00406826D01*
D02*
G37*
G36*
X00109230D02*
X00108939Y00406768D01*
X00107616Y00405884D01*
X00106732Y00404561D01*
X00106674Y00404270D01*
X00109230D01*
Y00406826D01*
D02*
G37*
G36*
X00114326Y00401730D02*
X00111770D01*
Y00399174D01*
X00112061Y00399232D01*
X00113384Y00400116D01*
X00114268Y00401439D01*
X00114326Y00401730D01*
D02*
G37*
G36*
Y00391730D02*
X00111770D01*
Y00389174D01*
X00112061Y00389232D01*
X00113384Y00390116D01*
X00114268Y00391439D01*
X00114326Y00391730D01*
D02*
G37*
G36*
Y00381230D02*
X00111770D01*
Y00378674D01*
X00112061Y00378732D01*
X00113384Y00379616D01*
X00114268Y00380939D01*
X00114326Y00381230D01*
D02*
G37*
G36*
X00109230D02*
X00106674D01*
X00106732Y00380939D01*
X00107616Y00379616D01*
X00108939Y00378732D01*
X00109230Y00378674D01*
Y00381230D01*
D02*
G37*
G36*
X00111770Y00375826D02*
Y00373270D01*
X00114326D01*
X00114268Y00373561D01*
X00113384Y00374884D01*
X00112061Y00375768D01*
X00111770Y00375826D01*
D02*
G37*
G36*
X00109230Y00391730D02*
X00106674D01*
X00106732Y00391439D01*
X00107616Y00390116D01*
X00108939Y00389232D01*
X00109230Y00389174D01*
Y00391730D01*
D02*
G37*
G36*
X00111770Y00386326D02*
Y00383770D01*
X00114326D01*
X00114268Y00384061D01*
X00113384Y00385384D01*
X00112061Y00386268D01*
X00111770Y00386326D01*
D02*
G37*
G36*
X00109230D02*
X00108939Y00386268D01*
X00107616Y00385384D01*
X00106732Y00384061D01*
X00106674Y00383770D01*
X00109230D01*
Y00386326D01*
D02*
G37*
G36*
Y00433730D02*
X00106674D01*
X00106732Y00433439D01*
X00107616Y00432116D01*
X00108939Y00431232D01*
X00109230Y00431174D01*
Y00433730D01*
D02*
G37*
G36*
X00111770Y00427826D02*
Y00425270D01*
X00114326D01*
X00114268Y00425561D01*
X00113384Y00426884D01*
X00112061Y00427768D01*
X00111770Y00427826D01*
D02*
G37*
G36*
X00109230D02*
X00108939Y00427768D01*
X00107616Y00426884D01*
X00106732Y00425561D01*
X00106674Y00425270D01*
X00109230D01*
Y00427826D01*
D02*
G37*
G36*
X00111770Y00438826D02*
Y00436270D01*
X00114326D01*
X00114268Y00436561D01*
X00113384Y00437884D01*
X00112061Y00438768D01*
X00111770Y00438826D01*
D02*
G37*
G36*
X00109230D02*
X00108939Y00438768D01*
X00107616Y00437884D01*
X00106732Y00436561D01*
X00106674Y00436270D01*
X00109230D01*
Y00438826D01*
D02*
G37*
G36*
X00114326Y00433730D02*
X00111770D01*
Y00431174D01*
X00112061Y00431232D01*
X00113384Y00432116D01*
X00114268Y00433439D01*
X00114326Y00433730D01*
D02*
G37*
G36*
Y00422730D02*
X00111770D01*
Y00420174D01*
X00112061Y00420232D01*
X00113384Y00421116D01*
X00114268Y00422439D01*
X00114326Y00422730D01*
D02*
G37*
G36*
Y00412230D02*
X00111770D01*
Y00409674D01*
X00112061Y00409732D01*
X00113384Y00410616D01*
X00114268Y00411939D01*
X00114326Y00412230D01*
D02*
G37*
G36*
X00109230D02*
X00106674D01*
X00106732Y00411939D01*
X00107616Y00410616D01*
X00108939Y00409732D01*
X00109230Y00409674D01*
Y00412230D01*
D02*
G37*
G36*
X00153230Y00440500D02*
X00119500D01*
Y00406770D01*
X00153230D01*
Y00440500D01*
D02*
G37*
G36*
X00109230Y00422730D02*
X00106674D01*
X00106732Y00422439D01*
X00107616Y00421116D01*
X00108939Y00420232D01*
X00109230Y00420174D01*
Y00422730D01*
D02*
G37*
G36*
X00111770Y00417326D02*
Y00414770D01*
X00114326D01*
X00114268Y00415061D01*
X00113384Y00416384D01*
X00112061Y00417268D01*
X00111770Y00417326D01*
D02*
G37*
G36*
X00109230D02*
X00108939Y00417268D01*
X00107616Y00416384D01*
X00106732Y00415061D01*
X00106674Y00414770D01*
X00109230D01*
Y00417326D01*
D02*
G37*
G36*
X00083000Y00341230D02*
X00079770D01*
Y00333500D01*
X00083000D01*
Y00341230D01*
D02*
G37*
G36*
X00077230D02*
X00074000D01*
Y00333500D01*
X00077230D01*
Y00341230D01*
D02*
G37*
G36*
X00057730Y00351500D02*
X00054500D01*
Y00343770D01*
X00057730D01*
Y00351500D01*
D02*
G37*
G36*
X00077230D02*
X00074000D01*
Y00343770D01*
X00077230D01*
Y00351500D01*
D02*
G37*
G36*
X00063500D02*
X00060270D01*
Y00343770D01*
X00063500D01*
Y00351500D01*
D02*
G37*
G36*
Y00341230D02*
X00060270D01*
Y00333500D01*
X00063500D01*
Y00341230D01*
D02*
G37*
G36*
X00064000Y00321000D02*
X00060770D01*
Y00313270D01*
X00064000D01*
Y00321000D01*
D02*
G37*
G36*
X00058230D02*
X00055000D01*
Y00313270D01*
X00058230D01*
Y00321000D01*
D02*
G37*
G36*
X00077230D02*
X00074000D01*
Y00313270D01*
X00077230D01*
Y00321000D01*
D02*
G37*
G36*
X00057730Y00341230D02*
X00054500D01*
Y00333500D01*
X00057730D01*
Y00341230D01*
D02*
G37*
G36*
X00083000Y00321000D02*
X00079770D01*
Y00313270D01*
X00083000D01*
Y00321000D01*
D02*
G37*
G36*
X00058230Y00310730D02*
X00055000D01*
Y00303000D01*
X00058230D01*
Y00310730D01*
D02*
G37*
G36*
X00064000D02*
X00060770D01*
Y00303000D01*
X00064000D01*
Y00310730D01*
D02*
G37*
G36*
X00083000D02*
X00079770D01*
Y00303000D01*
X00083000D01*
Y00310730D01*
D02*
G37*
G36*
X00077230D02*
X00074000D01*
Y00303000D01*
X00077230D01*
Y00310730D01*
D02*
G37*
G36*
X00774499Y00129065D02*
X00772541Y00128807D01*
X00770716Y00128051D01*
X00769149Y00126849D01*
X00767947Y00125282D01*
X00767191Y00123458D01*
X00766934Y00121500D01*
X00766982Y00121133D01*
X00755674Y00109826D01*
X00755168Y00109068D01*
X00753000D01*
X00751634Y00108797D01*
X00750477Y00108023D01*
X00749703Y00106866D01*
X00749431Y00105500D01*
Y00096000D01*
X00749703Y00094634D01*
X00750477Y00093476D01*
X00751634Y00092703D01*
X00753000Y00092431D01*
X00767000D01*
X00768366Y00092703D01*
X00769523Y00093476D01*
X00770297Y00094634D01*
X00770569Y00096000D01*
Y00105500D01*
X00770297Y00106866D01*
X00770185Y00107033D01*
X00777972Y00114821D01*
X00778281Y00114949D01*
X00779847Y00116151D01*
X00781050Y00117717D01*
X00781805Y00119542D01*
X00782063Y00121500D01*
X00781805Y00123458D01*
X00781050Y00125282D01*
X00779847Y00126849D01*
X00778281Y00128051D01*
X00776456Y00128807D01*
X00774499Y00129065D01*
D02*
G37*
%LPD*%
D10*
X00273600Y00178143D02*
G03*
X00216000Y00098000I00030080J-00082390D01*
G01*
X00273600Y00204600D02*
X00282000Y00213000D01*
Y00269000D01*
X00296000Y00283000D01*
Y00350500D01*
X00273600Y00178143D02*
Y00204600D01*
X00296000Y00350500D02*
X00320000Y00374500D01*
D11*
X00076215Y00072500D02*
G03*
X00076215Y00072500I-00011715J00000000D01*
G01*
X00946814Y00052000D02*
G03*
X00946814Y00052000I-00011314J00000000D01*
G01*
X00981215Y00461500D02*
G03*
X00981215Y00461500I-00011715J00000000D01*
G01*
D12*
X00064500Y00072500D02*
D03*
X00935500Y00052000D02*
D03*
X00969500Y00461500D02*
D03*
D13*
X00228500Y00428500D02*
D03*
Y00382500D02*
D03*
D14*
X00154500Y00405500D02*
D03*
D15*
X00108500Y00135500D02*
D03*
X00121500D02*
D03*
X00476500Y00149000D02*
D03*
X00457500D02*
D03*
X00467000Y00169000D02*
D03*
X00409500Y00092500D02*
D03*
X00400000Y00072500D02*
D03*
X00419000D02*
D03*
X00205000Y00192500D02*
D03*
X00217999D02*
D03*
X00078000Y00200500D02*
D03*
X00091000D02*
D03*
Y00220500D02*
D03*
X00078000D02*
D03*
X00781000Y00023000D02*
D03*
X00768000D02*
D03*
X00457000Y00087000D02*
D03*
X00470000D02*
D03*
X00676000Y00107000D02*
D03*
X00689000D02*
D03*
X00580000Y00171500D02*
D03*
X00593000D02*
D03*
X00739000Y00093500D02*
D03*
X00726000D02*
D03*
X00722000Y00134500D02*
D03*
X00735000D02*
D03*
X00580000Y00152000D02*
D03*
X00593000D02*
D03*
X00165000Y00140500D02*
D03*
X00178000D02*
D03*
D16*
X00740000Y00051500D02*
D03*
Y00032500D02*
D03*
X00720000Y00042000D02*
D03*
X00819500Y00051000D02*
D03*
Y00032000D02*
D03*
X00799500Y00041500D02*
D03*
X00765500Y00132500D02*
D03*
Y00145500D02*
D03*
X00130000Y00257000D02*
D03*
Y00270000D02*
D03*
X00174000Y00273000D02*
D03*
Y00286000D02*
D03*
X00783000Y00056000D02*
D03*
Y00043000D02*
D03*
X00765000Y00043000D02*
D03*
Y00056000D02*
D03*
X00835000Y00045500D02*
D03*
Y00032500D02*
D03*
X00784500Y00163000D02*
D03*
Y00176000D02*
D03*
Y00133000D02*
D03*
Y00146000D02*
D03*
X00526500Y00090500D02*
D03*
Y00103500D02*
D03*
X00445000Y00053500D02*
D03*
Y00066500D02*
D03*
X00699500Y00142000D02*
D03*
Y00129000D02*
D03*
X00261000Y00377500D02*
D03*
Y00390500D02*
D03*
D17*
X00645000Y00150000D02*
D03*
D18*
X00618000Y00156350D02*
D03*
Y00143650D02*
D03*
Y00130950D02*
D03*
X00672000Y00169050D02*
D03*
Y00156350D02*
D03*
Y00143650D02*
D03*
Y00130950D02*
D03*
X00618000Y00169050D02*
D03*
X00118000Y00191550D02*
D03*
X00172000Y00153450D02*
D03*
Y00166150D02*
D03*
Y00178850D02*
D03*
Y00191550D02*
D03*
X00118000Y00153450D02*
D03*
Y00166150D02*
D03*
Y00178850D02*
D03*
D19*
X00422000Y00453200D02*
D03*
Y00427800D02*
D03*
X00479000D02*
D03*
Y00453200D02*
D03*
D20*
X00687500Y00249500D02*
D03*
Y00205500D02*
D03*
X00081000Y00381000D02*
D03*
Y00425000D02*
D03*
D21*
X00391500Y00228000D02*
D03*
X00347500D02*
D03*
D22*
X00809000Y00186000D02*
D03*
Y00153000D02*
D03*
X00556500Y00117250D02*
D03*
Y00150250D02*
D03*
X00154000Y00278500D02*
D03*
Y00245500D02*
D03*
X00301500Y00060000D02*
D03*
Y00027000D02*
D03*
X00105000Y00278500D02*
D03*
Y00245500D02*
D03*
X00249000Y00356500D02*
D03*
Y00323500D02*
D03*
D23*
X00786000Y00223500D02*
D03*
Y00253500D02*
D03*
X00632000Y00220000D02*
D03*
Y00250000D02*
D03*
X00334000Y00026500D02*
D03*
Y00056500D02*
D03*
X00044500Y00379500D02*
D03*
Y00409500D02*
D03*
X00311000Y00496000D02*
D03*
Y00466000D02*
D03*
X00538500Y00224500D02*
D03*
Y00254500D02*
D03*
D24*
X00198500Y00239500D02*
D03*
X00228500D02*
D03*
X00164000Y00474500D02*
D03*
X00134000D02*
D03*
D25*
X00859500Y00355000D02*
D03*
X00512000Y00498000D02*
D03*
X00110000Y00053000D02*
D03*
X00888500Y00095233D02*
D03*
X00959500Y00128500D02*
D03*
X00494500Y00026500D02*
D03*
X00687500Y00030000D02*
D03*
X00904000Y00218500D02*
D03*
X00753000Y00224000D02*
D03*
X00698000Y00183500D02*
D03*
X00395250Y00494750D02*
D03*
X00943500Y00455500D02*
D03*
X00670000Y00485000D02*
D03*
X00355000Y00378500D02*
D03*
X00680000Y00355000D02*
D03*
X00352000Y00284000D02*
D03*
X00228000Y00322000D02*
D03*
X00331000Y00397000D02*
D03*
X00229500Y00341500D02*
D03*
X00110500Y00213000D02*
D03*
X00380000Y00463000D02*
D03*
X00162000Y00353500D02*
D03*
X00213500Y00290000D02*
D03*
X00098500Y00183000D02*
D03*
X00174000Y00060500D02*
D03*
X00224850Y00359850D02*
D03*
X00258500Y00446500D02*
D03*
X00898500Y00301500D02*
D03*
X00359000Y00028500D02*
D03*
X00549500Y00022000D02*
D03*
D26*
X00282000Y00470000D02*
D03*
X00020000Y00122000D02*
D03*
D27*
X00495000Y00047000D02*
D03*
X00515000D02*
D03*
X00687000Y00087000D02*
D03*
Y00047000D02*
D03*
X00647000Y00087000D02*
D03*
Y00047000D02*
D03*
X00627000Y00087000D02*
D03*
Y00047000D02*
D03*
X00607000Y00087000D02*
D03*
Y00047000D02*
D03*
X00587000D02*
D03*
X00547000D02*
D03*
X00567000D02*
D03*
Y00087000D02*
D03*
X00547000D02*
D03*
X00587000D02*
D03*
X00667000Y00047000D02*
D03*
Y00087000D02*
D03*
D28*
X00184500Y00472000D02*
D03*
X00213500D02*
D03*
X00030000Y00342500D02*
D03*
X00059000D02*
D03*
X00581000Y00432500D02*
D03*
X00552000D02*
D03*
X00158500Y00052500D02*
D03*
X00129500D02*
D03*
X00030500Y00312000D02*
D03*
X00059500D02*
D03*
X00128500Y00215000D02*
D03*
X00157500D02*
D03*
X00078500Y00312000D02*
D03*
X00107500D02*
D03*
X00078500Y00342500D02*
D03*
X00107500D02*
D03*
X00309500Y00414000D02*
D03*
X00280500D02*
D03*
X00309500Y00439000D02*
D03*
X00280500D02*
D03*
D29*
X00200000Y00211500D02*
D03*
X00218500D02*
D03*
X00093750Y00165000D02*
D03*
X00075250D02*
D03*
X00191750Y00143000D02*
D03*
X00210250D02*
D03*
X00716750Y00154000D02*
D03*
X00735250D02*
D03*
X00738250Y00113995D02*
D03*
X00719750D02*
D03*
X00560750Y00178000D02*
D03*
X00542250D02*
D03*
X00597250Y00024000D02*
D03*
X00578750D02*
D03*
X00093750Y00142500D02*
D03*
X00075250D02*
D03*
X00254750Y00297000D02*
D03*
X00236250D02*
D03*
X00203250Y00163500D02*
D03*
X00221750D02*
D03*
X00211250Y00269000D02*
D03*
X00192750D02*
D03*
D30*
X00520000Y00184750D02*
D03*
Y00166250D02*
D03*
X00531000Y00133750D02*
D03*
Y00152250D02*
D03*
X00071500Y00266250D02*
D03*
Y00247750D02*
D03*
X00584000Y00112750D02*
D03*
Y00131250D02*
D03*
X00376500Y00045750D02*
D03*
Y00064250D02*
D03*
X00760000Y00100750D02*
D03*
Y00082250D02*
D03*
D31*
X00356000Y00466500D02*
D03*
Y00495500D02*
D03*
Y00406500D02*
D03*
Y00435500D02*
D03*
X00098000Y00095500D02*
D03*
Y00066500D02*
D03*
D32*
X00781000Y00145000D02*
X00784500Y00148500D01*
X00721000Y00091000D02*
Y00096500D01*
X00196250Y00125750D02*
X00207000Y00136500D01*
X00180250Y00070250D02*
Y00112250D01*
X00178500Y00068500D02*
X00180250Y00070250D01*
X00213000Y00228250D02*
Y00251046D01*
X00103500Y00123000D02*
X00115500D01*
X00093750Y00132750D02*
X00103500Y00123000D01*
X00115500D02*
X00127046D01*
X00108500Y00130000D02*
X00115500Y00123000D01*
X00108500Y00130000D02*
Y00135500D01*
X00127046Y00123000D02*
X00140546Y00136500D01*
X00136650Y00166150D02*
X00145800Y00157000D01*
X00145500D02*
X00145800D01*
X00050500Y00164250D02*
X00072250Y00142500D01*
X00050500Y00164250D02*
Y00214000D01*
X00180846Y00153450D02*
X00190500Y00163104D01*
X00129000Y00283000D02*
X00131000Y00281000D01*
Y00271750D02*
Y00281000D01*
Y00271750D02*
X00133000Y00269750D01*
X00097000Y00181000D02*
X00099150Y00178850D01*
X00091000Y00187000D02*
X00097000Y00181000D01*
X00091000Y00187000D02*
Y00200500D01*
Y00217500D02*
Y00220500D01*
X00078000Y00204500D02*
X00091000Y00217500D01*
X00078000Y00200500D02*
Y00204500D01*
X00083500Y00235000D02*
X00091000Y00227500D01*
X00071000Y00235000D02*
X00083500D01*
X00085000Y00266000D02*
X00088000Y00263000D01*
X00074000Y00266000D02*
X00085000D01*
X00071000Y00269000D02*
X00074000Y00266000D01*
X00627000Y00034206D02*
Y00047000D01*
X00616294Y00023500D02*
X00627000Y00034206D01*
X00597250Y00023500D02*
X00616294D01*
X00172000Y00271500D02*
X00174000Y00273500D01*
X00172000Y00258500D02*
Y00271500D01*
X00154000Y00243000D02*
X00169582D01*
X00194125Y00267544D01*
Y00267625D01*
X00050500Y00214000D02*
X00071500Y00235000D01*
X00071500Y00220500D02*
X00078000D01*
X00063000Y00212000D02*
X00071500Y00220500D01*
X00063000Y00179500D02*
Y00212000D01*
X00091000Y00220500D02*
X00104500D01*
X00091000D02*
Y00227500D01*
X00118500Y00200000D02*
Y00206500D01*
X00104500Y00220500D02*
X00118500Y00206500D01*
X00157500Y00199500D02*
X00173000D01*
X00155000Y00197000D02*
X00157500Y00199500D01*
X00445000Y00067500D02*
Y00080500D01*
X00444999Y00080501D02*
X00445000Y00080500D01*
X00181500Y00301500D02*
Y00334000D01*
X00175250Y00295250D02*
X00181500Y00301500D01*
X00166600Y00295250D02*
X00175250D01*
X00160100Y00288750D02*
X00166600Y00295250D01*
X00132750Y00288750D02*
X00160100D01*
X00127000Y00283000D02*
X00132750Y00288750D01*
X00689000Y00107000D02*
Y00109925D01*
X00672000Y00126925D02*
X00689000Y00109925D01*
X00672000Y00126925D02*
Y00130950D01*
X00761500Y00145500D02*
X00765500D01*
X00750000Y00157000D02*
X00761500Y00145500D01*
X00201250Y00216500D02*
X00213000Y00228250D01*
X00198303Y00245000D02*
X00203250Y00249947D01*
Y00260000D01*
X00211750Y00268500D01*
X00212750Y00267197D02*
Y00289250D01*
X00154000Y00278500D02*
X00159750D01*
X00178500Y00285500D02*
X00196000Y00303000D01*
X00166750Y00285500D02*
X00178500D01*
X00159750Y00278500D02*
X00166750Y00285500D01*
X00196000Y00303000D02*
Y00313500D01*
X00765500Y00145000D02*
X00781000D01*
X00722000Y00134500D02*
Y00138500D01*
X00672000Y00156350D02*
X00679350D01*
X00502750Y00159250D02*
X00507000Y00163500D01*
X00469250Y00159250D02*
X00502750D01*
X00456000Y00146000D02*
X00469250Y00159250D01*
X00424249Y00091325D02*
Y00093331D01*
X00429668Y00098750D01*
X00437331D02*
X00441081Y00095000D01*
X00429668Y00098750D02*
X00437331D01*
X00415425Y00082500D02*
X00424249Y00091325D01*
X00422499Y00075000D02*
X00433499Y00086000D01*
X00402500Y00082500D02*
X00415425D01*
X00433499Y00086000D02*
Y00089500D01*
X00441081Y00095000D02*
X00444999D01*
Y00080501D02*
Y00095000D01*
X00400000Y00080000D02*
X00402500Y00082500D01*
X00187000Y00245000D02*
X00198303D01*
X00507000Y00163500D02*
X00520000D01*
X00499000Y00176500D02*
X00499500D01*
X00660000Y00100500D02*
X00667000Y00093500D01*
Y00087000D02*
Y00093500D01*
X00615000Y00172050D02*
Y00173500D01*
Y00172050D02*
X00618000Y00169050D01*
X00575500Y00138500D02*
X00580500Y00133500D01*
X00575500Y00138500D02*
Y00155500D01*
X00573250Y00153250D02*
X00575500Y00155500D01*
X00553000Y00153250D02*
X00573250D01*
X00553000Y00113750D02*
X00556250Y00110500D01*
X00594500D01*
X00602000Y00118000D01*
X00784500Y00148500D02*
Y00160500D01*
X00627000Y00099000D02*
X00627500Y00099500D01*
X00627000Y00087000D02*
Y00099000D01*
X00629500Y00049500D02*
X00629500Y00049500D01*
X00627000Y00047000D02*
X00629500Y00049500D01*
X00348000Y00397000D02*
X00356000Y00405000D01*
X00360000Y00401000D01*
X00248500Y00318500D02*
Y00322000D01*
X00224850Y00359850D02*
Y00386600D01*
X00159000Y00215000D02*
X00161000D01*
X00548000Y00434000D02*
Y00434250D01*
Y00462000D01*
X00099150Y00178850D02*
X00118000D01*
X00479500Y00453200D02*
X00482000Y00455700D01*
X00228000Y00322000D02*
X00248500D01*
X00249000Y00322500D01*
X00331000Y00397000D02*
X00348000D01*
X00093750Y00177750D02*
X00097000Y00181000D01*
X00160750Y00054000D02*
X00161000Y00053750D01*
X00202500Y00320000D02*
Y00322500D01*
X00219000Y00339000D01*
X00230500D01*
X00249000Y00357500D01*
X00196000Y00313500D02*
X00202500Y00320000D01*
X00211000Y00346000D02*
X00224850Y00359850D01*
X00193500Y00346000D02*
X00211000D01*
X00117000Y00166150D02*
X00136650D01*
X00161000Y00219000D02*
X00187000Y00245000D01*
X00117000Y00191550D02*
Y00198500D01*
X00173000Y00191550D02*
Y00199500D01*
X00190000Y00216500D01*
X00071500Y00235000D02*
Y00245500D01*
X00118500Y00200000D02*
X00127250Y00208750D01*
Y00215000D01*
X00161000D02*
Y00219000D01*
X00181500Y00334000D02*
X00193500Y00346000D01*
X00313500Y00397000D02*
X00331000D01*
X00432500Y00123000D02*
Y00154500D01*
X00449000Y00171000D01*
X00464500D01*
X00467000Y00168500D01*
X00423000Y00113500D02*
X00432500Y00123000D01*
X00376500Y00066500D02*
Y00073500D01*
X00390500Y00087500D01*
X00456000Y00146000D02*
X00467500Y00134500D01*
X00483000D01*
X00487000Y00130500D01*
X00488500D01*
X00499500Y00119500D01*
X00638650Y00156350D02*
X00645000Y00150000D01*
X00603000Y00185500D02*
X00615000Y00173500D01*
X00564500Y00185500D02*
X00603000D01*
X00190000Y00216500D02*
X00197000D01*
X00228000Y00307500D02*
Y00322000D01*
Y00307500D02*
X00236250Y00299250D01*
Y00297000D02*
Y00299250D01*
X00255500Y00302100D02*
X00273000Y00319600D01*
Y00356500D01*
X00313500Y00397000D01*
X00525500Y00120000D02*
X00526500Y00119000D01*
Y00103500D02*
Y00119000D01*
X00457000Y00087000D02*
Y00095500D01*
X00462500Y00101000D01*
X00418500Y00075000D02*
X00422499D01*
X00400000Y00072500D02*
Y00080000D01*
X00390500Y00087500D02*
Y00099500D01*
X00404500Y00113500D01*
X00423000D01*
X00720152Y00136348D02*
X00722000Y00134500D01*
X00499500Y00176500D02*
X00507500Y00184500D01*
X00517000D01*
X00520000Y00187500D01*
X00108500Y00283000D02*
X00129000D01*
X00228500Y00382500D02*
X00233500Y00377500D01*
X00261000D01*
Y00390500D02*
X00284347D01*
X00307847Y00414000D01*
X00309500D01*
X00679350Y00156350D02*
X00690000Y00167000D01*
X00689000Y00122924D02*
Y00142500D01*
X00719304Y00135500D02*
X00720152Y00136348D01*
X00712500Y00135500D02*
X00719304D01*
X00687000Y00087000D02*
X00692500D01*
X00700500Y00095000D01*
Y00111425D01*
X00689000Y00122924D02*
X00700500Y00111425D01*
X00738250Y00113995D02*
Y00131250D01*
X00735000Y00134500D02*
X00738250Y00131250D01*
Y00113995D02*
X00739000Y00113245D01*
Y00093500D02*
Y00113245D01*
X00712500Y00149750D02*
X00716750Y00154000D01*
X00712500Y00135500D02*
Y00149750D01*
X00719000Y00089000D02*
X00721000Y00091000D01*
X00715499Y00089000D02*
X00719000D01*
X00462500Y00101000D02*
X00502500D01*
X00521500Y00120000D01*
X00525500D01*
X00093750Y00132750D02*
Y00142500D01*
X00072250D02*
X00075250D01*
X00063000Y00174500D02*
Y00179500D01*
Y00174500D02*
X00075000Y00162500D01*
X00093750Y00165000D02*
Y00177750D01*
X00213000Y00251046D02*
X00255500Y00293546D01*
Y00302100D01*
X00190500Y00163104D02*
Y00195500D01*
X00203250Y00163500D02*
X00210250Y00170500D01*
Y00173296D01*
X00214204Y00177250D01*
X00223631D01*
X00210250Y00143000D02*
X00221750Y00154500D01*
Y00163500D01*
X00223631Y00177250D02*
X00247000Y00200619D01*
Y00216000D01*
X00154000Y00142000D02*
Y00150297D01*
X00156250Y00152547D01*
Y00162750D01*
X00159650Y00166150D02*
X00172000D01*
X00156250Y00162750D02*
X00159650Y00166150D01*
X00140546Y00136500D02*
X00148500D01*
X00154000Y00142000D01*
Y00134000D02*
Y00142000D01*
Y00134000D02*
X00162750Y00125250D01*
X00190547Y00137750D02*
X00191750D01*
Y00143000D01*
X00188750Y00133204D02*
Y00135953D01*
X00190547Y00137750D01*
X00180250Y00112250D02*
X00193500Y00125500D01*
X00196500D01*
X00196250Y00125750D02*
X00196500Y00125500D01*
Y00125500D02*
Y00125500D01*
X00180796Y00125250D02*
X00188750Y00133204D01*
X00162750Y00125250D02*
X00180796D01*
X00155500Y00140500D02*
X00165000D01*
X00154000Y00142000D02*
X00155500Y00140500D01*
X00177000Y00153450D02*
X00178000Y00152450D01*
Y00140500D02*
Y00152450D01*
X00172000Y00153450D02*
X00177000D01*
X00180846D01*
X00191750Y00152000D02*
X00203250Y00163500D01*
X00191750Y00143000D02*
Y00152000D01*
D33*
X00489000Y00214000D02*
X00588500D01*
X00057500Y00469000D02*
X00095000D01*
X00017500Y00429000D02*
X00057500Y00469000D01*
X00017500Y00376000D02*
Y00429000D01*
Y00372000D02*
Y00376000D01*
Y00344000D02*
Y00372000D01*
X00422500Y00189000D02*
X00449000Y00215500D01*
X00486000D01*
X00816000Y00355000D02*
X00858158D01*
X00875000Y00341000D02*
X00887500Y00353500D01*
X00858158Y00355000D02*
X00875237Y00337921D01*
X00887500Y00353500D02*
X00982500D01*
X00410500Y00189000D02*
X00422500D01*
X00258500Y00427000D02*
X00275500D01*
X00223000D02*
X00258500D01*
D34*
X00355000Y00133500D02*
X00410500Y00189000D01*
X00355000Y00097000D02*
Y00133500D01*
X00927500Y00192500D02*
X00935000Y00185000D01*
X00449000Y00256500D02*
X00532000D01*
X00420000Y00227500D02*
X00449000Y00256500D01*
X00454500D02*
Y00261500D01*
X00458500Y00265500D01*
X00486000D01*
X00887000Y00218000D02*
X00977500D01*
X00405000Y00227500D02*
X00420000D01*
X00539500Y00254500D02*
X00627500D01*
X00532000Y00256500D02*
X00539500Y00264000D01*
X00538500Y00254500D02*
X00539500D01*
X00538000Y00265500D02*
X00619500D01*
X00539500Y00254500D02*
Y00264000D01*
X00627500Y00254500D02*
X00632000Y00250000D01*
X00935500Y00281000D02*
X00984000D01*
X00486000Y00265500D02*
X00538000D01*
X00539500Y00264000D01*
X00619500Y00265500D02*
X00632000Y00253000D01*
X00649000Y00345000D02*
X00650750Y00346750D01*
X00481000Y00485000D02*
X00494000Y00498000D01*
X00502000Y00365000D02*
Y00387000D01*
X00482000Y00345000D02*
X00502000Y00365000D01*
X00482000Y00345000D02*
X00495000D01*
X00650750Y00346750D02*
X00652500Y00345000D01*
X00793000Y00202750D02*
X00801000D01*
X00811250Y00192500D02*
X00927500D01*
X00680000Y00355000D02*
X00716000D01*
X00481000Y00456000D02*
Y00485000D01*
X00662500D02*
X00670000D01*
X00716000D01*
X00481000Y00352000D02*
Y00425000D01*
X00801000Y00202750D02*
X00811250Y00192500D01*
X00652500Y00495000D02*
X00662500Y00485000D01*
X00516000Y00498000D02*
X00544000Y00470000D01*
X00494000Y00498000D02*
X00512000D01*
X00516000D01*
X00619000Y00495000D02*
X00652500D01*
X00439000Y00205500D02*
X00476000D01*
X00486000Y00215500D01*
X00589000Y00465000D02*
X00619000Y00495000D01*
X00977500Y00218000D02*
X00984000Y00211500D01*
X00877500Y00227500D02*
X00887000Y00218000D01*
X00659000Y00355000D02*
X00680000D01*
X00650750Y00346750D02*
X00659000Y00355000D01*
X00544000Y00448000D02*
Y00470000D01*
Y00448000D02*
X00551000Y00441000D01*
X00502000Y00387000D02*
X00511000Y00396000D01*
X00537000D01*
X00538000Y00395000D01*
X00589000D02*
Y00465000D01*
X00546000Y00320000D02*
X00620500D01*
X00551000Y00434500D02*
Y00441000D01*
X00495000Y00345000D02*
X00509500Y00359500D01*
X00638000D01*
X00650750Y00346750D01*
X00684000Y00253000D02*
X00687500Y00249500D01*
X00672000Y00253000D02*
X00684000D01*
X00666500Y00202000D02*
Y00247500D01*
X00854500Y00227500D02*
X00877500D01*
X00666500Y00247500D02*
X00672000Y00253000D01*
X00632000D02*
X00672000D01*
X00826000Y00218000D02*
X00887000D01*
X00788000Y00256000D02*
X00807500D01*
X00836000Y00227500D01*
X00854500D01*
X00916000Y00300500D02*
X00935500Y00281000D01*
X00786000Y00253500D02*
Y00257500D01*
X00788000Y00256000D02*
X00826000Y00218000D01*
X00687500Y00249500D02*
Y00254500D01*
X00709500Y00276500D01*
X00767000D02*
X00786000Y00257500D01*
D35*
X00475000Y00148500D02*
X00506500D01*
X00160750Y00050750D02*
X00178500Y00068500D01*
X00121500Y00135500D02*
X00123000D01*
X00136500Y00149000D01*
X00121000Y00153500D02*
X00132000D01*
X00136500Y00149000D02*
Y00149000D01*
X00132000Y00153500D02*
X00136500Y00149000D01*
X00044500Y00412000D02*
X00107500Y00349000D01*
Y00315500D02*
X00110000Y00313000D01*
X00567000Y00025500D02*
Y00047000D01*
X00160750Y00050750D02*
Y00054000D01*
X00672000Y00169050D02*
Y00186000D01*
X00445000Y00047500D02*
Y00053500D01*
X00437000Y00039500D02*
X00445000Y00047500D01*
X00380500Y00039500D02*
X00437000D01*
X00526500Y00090500D02*
X00547000D01*
Y00087000D02*
Y00090500D01*
Y00097500D01*
X00760000Y00105500D02*
X00774499Y00119998D01*
Y00121500D01*
X00672000Y00143000D02*
X00698500D01*
X00672000D02*
Y00143650D01*
X00759500Y00017000D02*
X00765500Y00023000D01*
X00668500Y00017000D02*
X00759500D01*
X00647000Y00038500D02*
X00668500Y00017000D01*
X00521250Y00133750D02*
X00531000D01*
X00538000Y00126750D01*
Y00107979D02*
Y00126750D01*
X00376500Y00043500D02*
X00380500Y00039500D01*
X00672000Y00143650D02*
X00672150Y00143500D01*
X00765000Y00040500D02*
X00786000D01*
X00752500D02*
X00765000D01*
X00743000Y00031000D02*
X00752500Y00040500D01*
X00744500Y00054500D02*
X00748500Y00058500D01*
X00743000Y00053000D02*
X00744500Y00054500D01*
X00748500Y00058500D02*
X00765000D01*
X00605350Y00143650D02*
X00618000D01*
X00744500Y00054500D02*
Y00066500D01*
X00740500Y00080000D02*
X00762000D01*
X00717000Y00056500D02*
X00740500Y00080000D01*
X00717000Y00042000D02*
Y00056500D01*
X00286000Y00286000D02*
Y00340500D01*
X00495000Y00013000D02*
Y00047000D01*
X00041500Y00412000D02*
X00044500D01*
X00286000Y00340500D02*
X00310000Y00364500D01*
X00647000Y00038500D02*
Y00047000D01*
X00687500Y00030000D02*
Y00046500D01*
X00687000Y00047000D02*
X00687500Y00046500D01*
X00596000Y00153000D02*
X00605350Y00143650D01*
X00596000Y00153000D02*
Y00169500D01*
X00594000Y00171500D02*
X00596000Y00169500D01*
X00538432Y00106068D02*
X00547000Y00097500D01*
X00760000Y00100750D02*
Y00105500D01*
X00698500Y00143000D02*
X00699500Y00142000D01*
X00257000Y00446500D02*
X00258500Y00445000D01*
Y00427000D02*
Y00445000D01*
X00788500Y00056000D02*
X00802500Y00042000D01*
X00783000Y00056000D02*
X00788500D01*
X00783500Y00023000D02*
X00810500D01*
X00818500Y00031000D01*
X00833000D01*
X00228500Y00239500D02*
X00239500D01*
X00506500Y00148500D02*
X00521250Y00133750D01*
X00201500Y00180500D02*
Y00189000D01*
X00205000Y00192500D01*
X00247000Y00216000D02*
X00261500Y00230500D01*
Y00261500D01*
X00239500Y00239500D02*
X00286000Y00286000D01*
X00218500Y00211500D02*
X00224000D01*
X00228500Y00216000D01*
X00246500D01*
X00219500Y00192500D02*
X00223678D01*
X00233178Y00202000D01*
X00620500Y00320000D02*
X00627500Y00313000D01*
X00832000D01*
X00844500Y00300500D01*
X00916000D01*
D36*
X00279250Y00430750D02*
Y00439000D01*
Y00414000D02*
Y00425750D01*
X00012500Y00130500D02*
Y00303000D01*
Y00311500D01*
Y00303000D02*
X00021500D01*
X00030500Y00312000D01*
X00030000Y00312500D02*
X00030500Y00312000D01*
X00030000Y00312500D02*
Y00342500D01*
X00095000Y00469000D02*
Y00488000D01*
X00017500Y00376000D02*
X00044500D01*
X00015500Y00342500D02*
X00030000D01*
X00013500Y00376000D02*
X00017500D01*
X00012500Y00311500D02*
Y00345500D01*
Y00311500D02*
X00013000Y00312000D01*
X00013500Y00376000D02*
X00017500Y00372000D01*
X00107500Y00315500D02*
Y00349000D01*
X00202500Y00097500D02*
X00215000D01*
X00666500Y00191500D02*
X00672000Y00186000D01*
X00666500Y00191500D02*
Y00202000D01*
X00407000Y00265001D02*
X00407001Y00265000D01*
X00407000Y00265001D02*
Y00292000D01*
X00302500Y00064750D02*
Y00095000D01*
Y00064750D02*
X00304000Y00063250D01*
X00221000Y00429000D02*
X00223000Y00427000D01*
X00420000Y00457000D02*
Y00484000D01*
X00409250Y00494750D02*
X00420000Y00484000D01*
X00395250Y00494750D02*
X00409250D01*
X00149500Y00098000D02*
X00152500Y00095000D01*
X00388500Y00501500D02*
X00395250Y00494750D01*
X00095000Y00488000D02*
X00108500Y00501500D01*
X00353000Y00099000D02*
X00355000Y00097000D01*
X00081500Y00425500D02*
X00119500D01*
X00124500Y00446000D02*
Y00465000D01*
X00154000Y00098000D02*
X00155000Y00097000D01*
X00045000Y00098000D02*
X00149500D01*
X00108500Y00501500D02*
X00388500D01*
X00012500Y00130500D02*
X00045000Y00098000D01*
X00160500Y00472000D02*
X00183000D01*
X00219000D02*
X00243500D01*
X00246500Y00469000D01*
X00305000D02*
X00313000Y00461000D01*
Y00439000D02*
Y00461000D01*
X00246500Y00469000D02*
X00305000D01*
X00389000Y00378500D02*
X00407000Y00396500D01*
Y00367000D02*
Y00396500D01*
X00355000Y00378500D02*
X00389000D01*
X00320000D02*
X00355000D01*
X00313000Y00439000D02*
X00329500D01*
X00313000Y00426500D02*
X00329500D01*
X00313000Y00414000D02*
Y00426500D01*
Y00439000D01*
Y00414000D02*
X00329500D01*
X00301500Y00023750D02*
X00330250D01*
X00334000Y00027500D01*
X00360500D02*
X00376500Y00043500D01*
X00334000Y00027500D02*
X00354000D01*
X00360500D01*
X00334000Y00059000D02*
Y00080000D01*
X00353000Y00099000D01*
X00354000Y00027500D02*
Y00068500D01*
X00378500Y00093000D01*
X00591000Y00215000D02*
X00630000D01*
X00632000Y00217000D01*
X00124500Y00465000D02*
X00134000Y00474500D01*
X00024000Y00336500D02*
X00030000Y00342500D01*
X00024000Y00314000D02*
Y00336500D01*
X00022000Y00312000D02*
X00024000Y00314000D01*
X00022000Y00312000D02*
X00030500D01*
X00013000D02*
X00022000D01*
X00015500Y00318500D02*
Y00342500D01*
Y00318500D02*
X00022000Y00312000D01*
X00378500Y00093000D02*
Y00104500D01*
X00400500Y00126500D01*
X00412000D01*
X00720000Y00205000D02*
X00733000Y00192000D01*
X00690000Y00205000D02*
X00720000D01*
X00690000Y00167000D02*
Y00205000D01*
X00753000Y00224000D02*
Y00234500D01*
X00733000Y00254500D02*
X00753000Y00234500D01*
D37*
X00128000Y00244500D02*
X00130000Y00246500D01*
X00105000Y00244500D02*
X00128000D01*
X00130000Y00246500D02*
X00139500Y00237000D01*
X00130000Y00246500D02*
Y00257000D01*
X00139500Y00195500D02*
Y00237000D01*
Y00195500D02*
X00156150Y00178850D01*
X00172000D01*
D38*
X00567000Y00025500D02*
X00567500Y00025000D01*
X00966500Y00122000D02*
X00984000D01*
X00947000Y00120500D02*
X00957500Y00131000D01*
X00984000Y00122000D02*
X00985000Y00123000D01*
X00957500Y00131000D02*
X00966500Y00122000D01*
X00937500Y00130000D02*
X00947000Y00120500D01*
X00929500Y00122000D02*
X00937500Y00130000D01*
X00921967Y00129533D02*
X00929500Y00122000D01*
X00921000Y00129533D02*
X00921967D01*
X00914967Y00123500D02*
X00921000Y00129533D01*
X00907467Y00131000D02*
X00914967Y00123500D01*
X00901000Y00124533D02*
X00907467Y00131000D01*
X00877266Y00148266D02*
X00901000Y00124533D01*
X00877266Y00148266D02*
X00888233D01*
X00924000Y00472000D02*
Y00488000D01*
Y00472000D02*
X00926000Y00470000D01*
X00906000Y00490000D02*
X00922000D01*
X00924000Y00488000D01*
X00904000Y00452000D02*
Y00488000D01*
X00906000Y00490000D01*
X00902000Y00450000D02*
X00904000Y00452000D01*
X00886000Y00450000D02*
X00902000D01*
X00884000Y00452000D02*
X00886000Y00450000D01*
X00884000Y00452000D02*
Y00488000D01*
X00824000Y00470000D02*
X00842000D01*
X00844000Y00468000D01*
Y00452000D02*
Y00468000D01*
X00846000Y00450000D02*
X00862000D01*
X00844000Y00452000D02*
X00846000Y00450000D01*
X00862000D02*
X00864000Y00452000D01*
Y00488000D01*
X00866000Y00490000D02*
X00882000D01*
X00884000Y00488000D01*
X00864000Y00488000D02*
X00866000Y00490000D01*
X00926000Y00470000D02*
X00944000D01*
X00809000Y00149750D02*
Y00154000D01*
X00784500Y00178500D02*
X00809000Y00154000D01*
X01010000Y00519750D02*
X01040000D01*
Y00489750D02*
Y00519750D01*
X01039500Y00000250D02*
Y00030250D01*
X01009500Y00000250D02*
X01039500D01*
X00000250Y00490000D02*
Y00520000D01*
X00030250D01*
X00000000Y00000000D02*
Y00030000D01*
Y00000000D02*
X00030000D01*
D39*
X00515000Y00022500D02*
X00516500D01*
X00515000D02*
Y00047000D01*
X00934000Y00088500D02*
Y00092500D01*
X00931266Y00095233D02*
X00934000Y00092500D01*
X00828591Y00095233D02*
X00931266D01*
X00820600Y00087242D02*
X00828591Y00095233D01*
X00985000Y00123000D02*
X00985000Y00123000D01*
X00824233Y00095233D02*
X00828591D01*
D40*
X00103000Y00064000D02*
X00113000Y00054000D01*
X00356000Y00439000D02*
Y00463000D01*
Y00436750D02*
Y00439000D01*
X00113000Y00054000D02*
X00129000D01*
X00356000Y00463000D02*
X00380000D01*
X00221000Y00429000D02*
X00224850D01*
D41*
X00815000Y00453000D02*
X00852000Y00416000D01*
X00815000Y00453000D02*
Y00475000D01*
X00944000Y00436000D02*
Y00470000D01*
Y00421000D02*
X00984000D01*
X00852000Y00416000D02*
X00875000D01*
X00944000Y00421000D02*
Y00436000D01*
D42*
X00352000Y00248500D02*
Y00284000D01*
Y00319500D02*
X00352500Y00320000D01*
X00352000Y00284000D02*
Y00319500D01*
D43*
X00152500Y00403500D02*
X00154500Y00405500D01*
X00152500Y00329000D02*
Y00403500D01*
D44*
X00618000Y00156350D02*
X00638650D01*
D45*
X00712000Y00278000D02*
X00767000D01*
X00710500Y00276500D02*
X00712000Y00278000D01*
D46*
X00414500Y00477000D02*
D03*
X00410500Y00410000D02*
D03*
D47*
X00819500Y00474500D02*
D03*
D48*
X00874763Y00416079D02*
D03*
X00875237Y00337921D02*
D03*
X00482000Y00345000D02*
D03*
Y00495000D02*
D03*
X00246500Y00469000D02*
D03*
X00096500D02*
D03*
X00877266Y00148266D02*
D03*
X00824233Y00095233D02*
D03*
X00733000Y00254500D02*
D03*
Y00192000D02*
D03*
X00652500Y00345000D02*
D03*
Y00495000D02*
D03*
D49*
X00592001Y00395000D02*
D03*
Y00320000D02*
D03*
X00407001Y00265000D02*
D03*
Y00190000D02*
D03*
X00407000Y00367000D02*
D03*
Y00292000D02*
D03*
X00591000Y00215000D02*
D03*
Y00265000D02*
D03*
X00486000Y00215500D02*
D03*
Y00265500D02*
D03*
X00854500Y00192500D02*
D03*
Y00227500D02*
D03*
X00538000Y00395000D02*
D03*
Y00320000D02*
D03*
D50*
X00352000Y00100500D02*
D03*
X00302000D02*
D03*
X00202000D02*
D03*
X00152000D02*
D03*
X00352000Y00325500D02*
D03*
X00202000D02*
D03*
D51*
X00152000D02*
D03*
D52*
X00816000Y00485000D02*
D03*
D53*
Y00355000D02*
D03*
X00716000Y00485000D02*
D03*
Y00355000D02*
D03*
D54*
X00030000Y00030000D02*
D03*
Y00490000D02*
D03*
X01010000Y00030000D02*
D03*
Y00490000D02*
D03*
D55*
X00594000Y00470000D02*
D03*
X00544000D02*
D03*
D56*
X00295000Y00378500D02*
D03*
X00320000D02*
D03*
D57*
X00412000Y00126500D02*
D03*
Y00151500D02*
D03*
D58*
X00935000Y00424000D02*
D03*
X00985000Y00354000D02*
D03*
X00935000Y00284000D02*
D03*
X00985000Y00424000D02*
D03*
X00935000Y00354000D02*
D03*
X00985000Y00284000D02*
D03*
X00934000Y00088500D02*
D03*
X00984000Y00123500D02*
D03*
X00934000Y00176500D02*
D03*
X00984000Y00211500D02*
D03*
D59*
X00499500Y00119500D02*
D03*
X00473500D02*
D03*
D60*
X00447500D02*
D03*
D61*
X00136500Y00149000D02*
D03*
X00145500Y00157000D02*
D03*
X00088000Y00263000D02*
D03*
X00172000Y00258500D02*
D03*
X00713000Y00070500D02*
D03*
X00767500Y00069500D02*
D03*
X00566500Y00100000D02*
D03*
X00748000Y00144500D02*
D03*
X00750000Y00157000D02*
D03*
X00155000Y00197000D02*
D03*
X00774499Y00121500D02*
D03*
X00514500Y00023000D02*
D03*
X00433499Y00089500D02*
D03*
X00444999Y00095000D02*
D03*
X00499000Y00176500D02*
D03*
X00660000Y00100500D02*
D03*
X00602000Y00118000D02*
D03*
X00627500Y00099500D02*
D03*
X00744500Y00066500D02*
D03*
X00495000Y00013000D02*
D03*
X00185000Y00446000D02*
D03*
X00174000D02*
D03*
X00163500D02*
D03*
X00153000D02*
D03*
X00122000D02*
D03*
X00132500D02*
D03*
X00143000D02*
D03*
X00165000Y00364500D02*
D03*
X00175500D02*
D03*
X00186000D02*
D03*
X00133500D02*
D03*
X00122500D02*
D03*
X00110500Y00403000D02*
D03*
Y00413500D02*
D03*
Y00424000D02*
D03*
Y00435000D02*
D03*
Y00382500D02*
D03*
Y00372000D02*
D03*
Y00393000D02*
D03*
X00154500Y00364500D02*
D03*
X00144000D02*
D03*
X00329500Y00438500D02*
D03*
Y00426500D02*
D03*
Y00414000D02*
D03*
X00487000Y00130500D02*
D03*
X00525500Y00120000D02*
D03*
X00418000Y00102500D02*
D03*
X00514000Y00094500D02*
D03*
X00653500Y00182000D02*
D03*
X00643000D02*
D03*
X00632500D02*
D03*
X00625500Y00191000D02*
D03*
X00635500D02*
D03*
X00645500D02*
D03*
X00638000Y00201000D02*
D03*
X00628000D02*
D03*
X00618000D02*
D03*
X00636000Y00172000D02*
D03*
X00645000D02*
D03*
X00653500D02*
D03*
X00636500Y00128000D02*
D03*
X00645000D02*
D03*
X00653500D02*
D03*
X00443000Y00147500D02*
D03*
X00443500Y00137000D02*
D03*
X00712500Y00135500D02*
D03*
X00715499Y00089000D02*
D03*
X00711999Y00101000D02*
D03*
X00258500Y00421500D02*
D03*
Y00432000D02*
D03*
X00233178Y00202000D02*
D03*
X00190500Y00195500D02*
D03*
X00201500Y00180500D02*
D03*
X00196500Y00125500D02*
D03*
M02*
