M48
METRIC,TZ
VER,1
FMAT,2
T01C0.4F42B423S6H2000
T02C1.F42B423S6H2000
T03C1.2F42B423S6H2000
T04C1.4F42B423S6H2000
T05C1.6F42B423S6H2000
T06C3.501F42B423S6H2000
DETECT,ON
ATC,ON
%
T01
X136500Y149000
X145500Y157000
X155000Y197000
X190500Y195500
X201500Y180500
X233180Y202000
X172000Y258500
X88000Y263000
X122500Y364500
X133500
X144000
X154500
X165000
X175500
X186000
X110500Y372000
Y382500
Y393000
Y403000
Y413500
Y424000
Y435000
X122000Y446000
X132500
X143000
X153000
X163500
X174000
X185000
X258500Y432000
Y421500
X329500Y426500
Y438500
Y414000
X443000Y147500
X443500Y137000
X445000Y95000
X433500Y89500
X418000Y102500
X487000Y130500
X525500Y120000
X514000Y94500
X566500Y100000
X602000Y118000
X627500Y99500
X636500Y128000
X645000
X653500
X660000Y100500
X712000Y101000
X715500Y89000
X713000Y70500
X744500Y66500
X767500Y69500
X774500Y121500
X748000Y144500
X750000Y157000
X712500Y135500
X653500Y172000
X645000
X636000
X632500Y182000
X635500Y191000
X645500
X643000Y182000
X653500
X638000Y201000
X628000
X618000
X625500Y191000
X499000Y176500
X514500Y23000
X495000Y13000
X195000Y127000
X136500Y669000
Y1189000
Y1709000
Y2229000
Y2749000
X145500Y677000
Y1197000
Y1717000
Y2237000
Y2757000
X155000Y717000
Y1237000
Y1757000
Y2277000
Y2797000
X190500Y715500
Y1235500
Y1755500
Y2275500
Y2795500
X201500Y700500
Y1220500
Y1740500
Y2260500
Y2780500
X233180Y722000
Y1242000
Y1762000
Y2282000
Y2802000
X172000Y778500
Y1298500
Y1818500
Y2338500
Y2858500
X88000Y783000
Y1303000
Y1823000
Y2343000
Y2863000
X122500Y884500
Y1404500
Y1924500
Y2444500
Y2964500
X133500Y884500
Y1404500
Y1924500
Y2444500
Y2964500
X144000Y884500
Y1404500
Y1924500
Y2444500
Y2964500
X154500Y884500
Y1404500
Y1924500
Y2444500
Y2964500
X165000Y884500
Y1404500
Y1924500
Y2444500
Y2964500
X175500Y884500
Y1404500
Y1924500
Y2444500
Y2964500
X186000Y884500
Y1404500
Y1924500
Y2444500
Y2964500
X110500Y892000
Y1412000
Y1932000
Y2452000
Y2972000
Y902500
Y1422500
Y1942500
Y2462500
Y2982500
Y913000
Y1433000
Y1953000
Y2473000
Y2993000
Y923000
Y1443000
Y1963000
Y2483000
Y3003000
Y933500
Y1453500
Y1973500
Y2493500
Y3013500
Y944000
Y1464000
Y1984000
Y2504000
Y3024000
Y955000
Y1475000
Y1995000
Y2515000
Y3035000
X122000Y966000
Y1486000
Y2006000
Y2526000
Y3046000
X132500Y966000
Y1486000
Y2006000
Y2526000
Y3046000
X143000Y966000
Y1486000
Y2006000
Y2526000
Y3046000
X153000Y966000
Y1486000
Y2006000
Y2526000
Y3046000
X163500Y966000
Y1486000
Y2006000
Y2526000
Y3046000
X174000Y966000
Y1486000
Y2006000
Y2526000
Y3046000
X185000Y966000
Y1486000
Y2006000
Y2526000
Y3046000
X258500Y952000
Y1472000
Y1992000
Y2512000
Y3032000
Y941500
Y1461500
Y1981500
Y2501500
Y3021500
X329500Y946500
Y1466500
Y1986500
Y2506500
Y3026500
Y958500
Y1478500
Y1998500
Y2518500
Y3038500
Y934000
Y1454000
Y1974000
Y2494000
Y3014000
X443000Y667500
Y1187500
Y1707500
Y2227500
Y2747500
X443500Y657000
Y1177000
Y1697000
Y2217000
Y2737000
X445000Y615000
Y1135000
Y1655000
Y2175000
Y2695000
X433500Y609500
Y1129500
Y1649500
Y2169500
Y2689500
X418000Y622500
Y1142500
Y1662500
Y2182500
Y2702500
X487000Y650500
Y1170500
Y1690500
Y2210500
Y2730500
X525500Y640000
Y1160000
Y1680000
Y2200000
Y2720000
X514000Y614500
Y1134500
Y1654500
Y2174500
Y2694500
X566500Y620000
Y1140000
Y1660000
Y2180000
Y2700000
X602000Y638000
Y1158000
Y1678000
Y2198000
Y2718000
X627500Y619500
Y1139500
Y1659500
Y2179500
Y2699500
X636500Y648000
Y1168000
Y1688000
Y2208000
Y2728000
X645000Y648000
Y1168000
Y1688000
Y2208000
Y2728000
X653500Y648000
Y1168000
Y1688000
Y2208000
Y2728000
X660000Y620500
Y1140500
Y1660500
Y2180500
Y2700500
X712000Y621000
Y1141000
Y1661000
Y2181000
Y2701000
X715500Y609000
Y1129000
Y1649000
Y2169000
Y2689000
X713000Y590500
Y1110500
Y1630500
Y2150500
Y2670500
X744500Y586500
Y1106500
Y1626500
Y2146500
Y2666500
X767500Y589500
Y1109500
Y1629500
Y2149500
Y2669500
X774500Y641500
Y1161500
Y1681500
Y2201500
Y2721500
X748000Y664500
Y1184500
Y1704500
Y2224500
Y2744500
X750000Y677000
Y1197000
Y1717000
Y2237000
Y2757000
X712500Y655500
Y1175500
Y1695500
Y2215500
Y2735500
X653500Y692000
Y1212000
Y1732000
Y2252000
Y2772000
X645000Y692000
Y1212000
Y1732000
Y2252000
Y2772000
X636000Y692000
Y1212000
Y1732000
Y2252000
Y2772000
X632500Y702000
Y1222000
Y1742000
Y2262000
Y2782000
X635500Y711000
Y1231000
Y1751000
Y2271000
Y2791000
X645500Y711000
Y1231000
Y1751000
Y2271000
Y2791000
X643000Y702000
Y1222000
Y1742000
Y2262000
Y2782000
X653500Y702000
Y1222000
Y1742000
Y2262000
Y2782000
X638000Y721000
Y1241000
Y1761000
Y2281000
Y2801000
X628000Y721000
Y1241000
Y1761000
Y2281000
Y2801000
X618000Y721000
Y1241000
Y1761000
Y2281000
Y2801000
X625500Y711000
Y1231000
Y1751000
Y2271000
Y2791000
X499000Y696500
Y1216500
Y1736500
Y2256500
Y2776500
X514500Y543000
Y1063000
Y1583000
Y2103000
Y2623000
X495000Y533000
Y1053000
Y1573000
Y2093000
Y2613000
X195000Y647000
Y1167000
Y1687000
Y2207000
Y2727000
T02
X412000Y126500
Y151500
X447500Y119500
X473500
X499500
X486000Y215500
Y265500
X591000Y265000
Y215000
X854500Y227500
Y192500
X320000Y378500
X295000
X412000Y646500
Y1166500
Y1686500
Y2206500
Y2726500
Y671500
Y1191500
Y1711500
Y2231500
Y2751500
X447500Y639500
Y1159500
Y1679500
Y2199500
Y2719500
X473500Y639500
Y1159500
Y1679500
Y2199500
Y2719500
X499500Y639500
Y1159500
Y1679500
Y2199500
Y2719500
X486000Y735500
Y1255500
Y1775500
Y2295500
Y2815500
Y785500
Y1305500
Y1825500
Y2345500
Y2865500
X591000Y785000
Y1305000
Y1825000
Y2345000
Y2865000
Y735000
Y1255000
Y1775000
Y2295000
Y2815000
X854500Y747500
Y1267500
Y1787500
Y2307500
Y2827500
Y712500
Y1232500
Y1752500
Y2272500
Y2792500
X320000Y898500
Y1418500
Y1938500
Y2458500
Y2978500
X295000Y898500
Y1418500
Y1938500
Y2458500
Y2978500
T03
X407000Y190000
Y265000
Y292000
Y367000
X538000Y395000
X592000
Y320000
X538000
X716000Y355000
X816000
X935000Y354000
X985000
Y284000
X935000
X984000Y211500
X934000Y176500
X984000Y123500
X934000Y88500
X733000Y192000
Y254500
X716000Y485000
X816000
X935000Y424000
X985000
X407000Y710000
Y1230000
Y1750000
Y2270000
Y2790000
Y785000
Y1305000
Y1825000
Y2345000
Y2865000
Y812000
Y1332000
Y1852000
Y2372000
Y2892000
Y887000
Y1407000
Y1927000
Y2447000
Y2967000
X538000Y915000
Y1435000
Y1955000
Y2475000
Y2995000
X592000Y915000
Y1435000
Y1955000
Y2475000
Y2995000
Y840000
Y1360000
Y1880000
Y2400000
Y2920000
X538000Y840000
Y1360000
Y1880000
Y2400000
Y2920000
X716000Y875000
Y1395000
Y1915000
Y2435000
Y2955000
X816000Y875000
Y1395000
Y1915000
Y2435000
Y2955000
X935000Y874000
Y1394000
Y1914000
Y2434000
Y2954000
X985000Y874000
Y1394000
Y1914000
Y2434000
Y2954000
Y804000
Y1324000
Y1844000
Y2364000
Y2884000
X935000Y804000
Y1324000
Y1844000
Y2364000
Y2884000
X984000Y731500
Y1251500
Y1771500
Y2291500
Y2811500
X934000Y696500
Y1216500
Y1736500
Y2256500
Y2776500
X984000Y643500
Y1163500
Y1683500
Y2203500
Y2723500
X934000Y608500
Y1128500
Y1648500
Y2168500
Y2688500
X733000Y712000
Y1232000
Y1752000
Y2272000
Y2792000
Y774500
Y1294500
Y1814500
Y2334500
Y2854500
X716000Y1005000
Y1525000
Y2045000
Y2565000
Y3085000
X816000Y1005000
Y1525000
Y2045000
Y2565000
Y3085000
X935000Y944000
Y1464000
Y1984000
Y2504000
Y3024000
X985000Y944000
Y1464000
Y1984000
Y2504000
Y3024000
T04
X152000Y100500
X202000
X302000
X352000
Y325500
X202000
X152000
X824230Y95230
X877270Y148270
X875240Y337920
X874760Y416080
X152000Y620500
Y1140500
Y1660500
Y2180500
Y2700500
X202000Y620500
Y1140500
Y1660500
Y2180500
Y2700500
X302000Y620500
Y1140500
Y1660500
Y2180500
Y2700500
X352000Y620500
Y1140500
Y1660500
Y2180500
Y2700500
Y845500
Y1365500
Y1885500
Y2405500
Y2925500
X202000Y845500
Y1365500
Y1885500
Y2405500
Y2925500
X152000Y845500
Y1365500
Y1885500
Y2405500
Y2925500
X824230Y615230
Y1135230
Y1655230
Y2175230
Y2695230
X877270Y668270
Y1188270
Y1708270
Y2228270
Y2748270
X875240Y857920
Y1377920
Y1897920
Y2417920
Y2937920
X874760Y936080
Y1456080
Y1976080
Y2496080
Y3016080
T05
X96500Y469000
X246500
X482000Y495000
X544000Y470000
X594000
X652500Y495000
Y345000
X482000
X96500Y989000
Y1509000
Y2029000
Y2549000
Y3069000
X246500Y989000
Y1509000
Y2029000
Y2549000
Y3069000
X482000Y1015000
Y1535000
Y2055000
Y2575000
Y3095000
X544000Y990000
Y1510000
Y2030000
Y2550000
Y3070000
X594000Y990000
Y1510000
Y2030000
Y2550000
Y3070000
X652500Y1015000
Y1535000
Y2055000
Y2575000
Y3095000
Y865000
Y1385000
Y1905000
Y2425000
Y2945000
X482000Y865000
Y1385000
Y1905000
Y2425000
Y2945000
T06
X30000Y30000
Y490000
X1010000
Y30000
X30000Y550000
Y1070000
Y1590000
Y2110000
Y2630000
Y1010000
Y1530000
Y2050000
Y2570000
Y3090000
X1010000Y1010000
Y1530000
Y2050000
Y2570000
Y3090000
Y550000
Y1070000
Y1590000
Y2110000
Y2630000
M30
